file	CAMI1h.concoct.tsv
total	42038
nclasse	1074
ncluster	285
TP	24569
FP	17469
FN	990910
TN	44115864
sensitivity	0.0241944934361026
specificity	0.999604176734171
precision	0.584447404729055
recall	0.0241944934361026
FDR	0.000395823265829481
accuracy	0.977665436689674
F1score	0.0464654468911611
MCC	0.117576875724848
FPR	0.000395823265829431
TPR	0.0241944934361026
