file	CAMI1h.cocacola.tsv
total	42038
nclasse	1074
ncluster	572
TP	23750
FP	18288
FN	155814
TN	44950960
sensitivity	0.132264819228799
specificity	0.99959332208535
precision	0.564965031638042
recall	0.132264819228799
FDR	0.000406677914649585
accuracy	0.996143818800814
F1score	0.214348245954459
MCC	0.272830730670598
FPR	0.000406677914649545
TPR	0.132264819228799
