file	L.metabat.bins.tsv
total	57233
nclasse	223
ncluster	66
TP	19849
FP	37384
FN	6397169
TN	6308557
sensitivity	0.00309318128763235
specificity	0.994108990297893
precision	0.346810406583614
recall	0.00309318128763235
FDR	0.00589100970210722
accuracy	0.495841599115064
F1score	0.00613167453656029
MCC	0.0230119317940232
FPR	0.00589100970210721
TPR	0.00309318128763235
