file	L.metabat2.w.abd.bins.tsv
total	57233
nclasse	223
ncluster	66
TP	19848
FP	37385
FN	6448457
TN	6257269
sensitivity	0.00306850094421954
specificity	0.994060833208624
precision	0.346792934146384
recall	0.00306850094421954
FDR	0.00593916679137567
accuracy	0.491823016903839
F1score	0.00608317659019072
MCC	0.0228254748104714
FPR	0.00593916679137563
TPR	0.00306850094421954
