file	S.cocacola.bins.tsv
total	15837
nclasse	50
ncluster	26
TP	12335
FP	3502
FN	41163
TN	734850
sensitivity	0.230569367079143
specificity	0.995257004789044
precision	0.778872261160573
recall	0.230569367079143
FDR	0.00474299521095629
accuracy	0.943594115047042
F1score	0.355808754597245
MCC	0.411403705463042
FPR	0.00474299521095634
TPR	0.230569367079143
