bin	uniqueBacSCGs	redundantBacSCGs	uniqueArcSCGs	redundantArcSCGs	bacRatio	arcRatio	size	contigs	N50	binScore	SCG_completeness	SCG_redundancy
M.071	50	1	14	1	0.980392156862745	0.368421052631579	667293	65	10000	0.9586	98.04	2.63
M.065	50	2	18	4	0.980392156862745	0.473684210526316	5351243	519	10000	0.9368	98.04	10.53
M.072	48	2	15	5	0.941176470588235	0.394736842105263	911080	89	10000	0.8966	94.12	13.16
M.067	49	2	16	1	0.96078431372549	0.421052631578947	1100585	112	10000	0.9167	96.08	3.92
M.068	49	20	17	3	0.96078431372549	0.447368421052632	2067238	209	10000	0.5198	96.08	39.22
M.055	51	2	18	2	1	0.473684210526316	7818764	996	10000	0.9569	100	5.26
M.045	50	9	14	2	0.980392156862745	0.368421052631579	3854034	556	10000	0.7645	98.04	17.65
M.024	50	7	17	4	0.980392156862745	0.447368421052632	10671876	1027	10000	0.8082	98.04	13.73
M.051	51	6	16	7	1	0.421052631578947	4028342	561	10000	0.8706	100	18.42
M.036	49	2	16	0	0.96078431372549	0.421052631578947	1857181	192	10000	0.9167	96.08	3.92
M.058	40	9	9	3	0.784313725490196	0.236842105263158	4668459	879	10000	0.5415	78.43	17.65
M.033	49	17	16	7	0.96078431372549	0.421052631578947	4325396	419	10000	0.5565	96.08	33.33
M.008	51	18	17	4	1	0.447368421052632	4999613	807	10000	0.5725	100	35.29
M.006	48	12	17	5	0.941176470588235	0.447368421052632	2447118	367	10000	0.6637	94.12	23.53
M.061	35	3	6	0	0.686274509803922	0.157894736842105	3027120	1701	1860	0.6054	68.63	5.88
M.005	43	13	12	4	0.843137254901961	0.315789473684211	4936518	642	10000	0.5245	84.31	25.49
M.023	40	2	8	0	0.784313725490196	0.210526315789474	916046	114	10000	0.7347	78.43	3.92
M.007	43	4	13	2	0.843137254901961	0.342105263157895	3039640	358	10000	0.7481	84.31	7.84
M.056	42	7	16	1	0.823529411764706	0.421052631578947	2903895	761	5052	0.6353	82.35	13.73
