/usr/bin/Rscript
/usr/bin/perl
[2018-08-21 20:16:43] Format binner outputs
[2018-08-21 20:16:43] Start
[2018-08-21 20:16:43] Ouputs will be saved in '/home/kgravouil/MANUSCRIT/article01/cami_and_mybench/CMP-UNSUPERVISED-BINNING//RESULT-ANALYSIS/data'
[2018-08-21 20:16:43] Extract bins from BWA
[2018-08-21 20:16:43] Extract bins from MetaBAT
[2018-08-21 20:16:43] Extract bins from MetaBAT (using abd)
[2018-08-21 20:16:43] Extract bins from CONCOCT
[2018-08-21 20:16:44] Extract bins from MaxBin
[2018-08-21 20:16:44] Extract bins from MetaProb
[2018-08-21 20:16:44] Extract bins from COCACOLA
[2018-08-21 20:16:44] Extract bins from MetaBAT2
[2018-08-21 20:16:44] Extract bins from MetaBAT2 (using abd)
[2018-08-21 20:16:44] Extract bins from DAS_Tool
[2018-08-21 20:16:44] Collect bins from CAMI/AMBER
[2018-08-21 20:17:19] format-outputs.sh done.
[2018-08-21 20:17:19] Add 'UNBINNED' to binner outputs
[2018-08-21 20:17:19] Search for associations
[2018-08-21 20:35:17] Summarize stats
[2018-08-21 20:35:17] Plotting results
[2018-08-21 20:35:23] Checking taxonomy
Smartmatch is experimental at check-taxo.pl line 274.
Name "main::IN_DATA" used only once: possible typo at check-taxo.pl line 91.
Name "main::ACCOUT" used only once: possible typo at check-taxo.pl line 148.
Name "main::IN_SCAFF" used only once: possible typo at check-taxo.pl line 74.
[2018-08-21 20:35:25] # loading scaffolds
[2018-08-21 20:35:25] Number of scaffolds - 15837
[2018-08-21 20:35:25] # loading associated chromosomes
[2018-08-21 20:35:25] # loading 'data' dir
[2018-08-21 20:35:25]   - cocacola (data/S.cocacola.bins.tsv)
[2018-08-21 20:35:25]   - concoct (data/S.concoct.bins.tsv)
[2018-08-21 20:35:25]   - das_tool (data/S.das_tool.bins.tsv)
[2018-08-21 20:35:25]   - maxbin22 (data/S.maxbin22.bins.tsv)
[2018-08-21 20:35:25]   - metabat2 (data/S.metabat2.bins.tsv)
[2018-08-21 20:35:25]   - metabat2.w.abd (data/S.metabat2.w.abd.bins.tsv)
[2018-08-21 20:35:25]   - metabat (data/S.metabat.bins.tsv)
[2018-08-21 20:35:25]   - metabat.w.abd (data/S.metabat.w.abd.bins.tsv)
[2018-08-21 20:35:25]   - metaprob (data/S.metaprob.bins.tsv)
[2018-08-21 20:35:25]   - reference (data/S.reference.tsv)
[2018-08-21 20:35:25] # loading 'assoc' dir
[2018-08-21 20:35:25]   - cocacola (assoc/S.cocacola.bins.csv)
[2018-08-21 20:35:26]   - concoct (assoc/S.concoct.bins.csv)
[2018-08-21 20:35:27]   - das_tool (assoc/S.das_tool.bins.csv)
[2018-08-21 20:35:28]   - maxbin22 (assoc/S.maxbin22.bins.csv)
[2018-08-21 20:35:28]   - metabat2 (assoc/S.metabat2.bins.csv)
[2018-08-21 20:35:29]   - metabat2.w.abd (assoc/S.metabat2.w.abd.bins.csv)
[2018-08-21 20:35:30]   - metabat (assoc/S.metabat.bins.csv)
[2018-08-21 20:35:30]   - metabat.w.abd (assoc/S.metabat.w.abd.bins.csv)
[2018-08-21 20:35:31]   - metaprob (assoc/S.metaprob.bins.csv)
[2018-08-21 20:35:32]   - reference (assoc/S.reference.csv)
[2018-08-21 20:35:32] # Collecting taxonomic identifiers
[2018-08-21 20:37:03] # Collecting taxonomic informations (name and lineage)
[-------------------------------------------------] ~  0.66 %                             [-------------------------------------------------] ~  1.33 %                             [-------------------------------------------------] ~  1.99 %                             [=------------------------------------------------] ~  2.65 %                             [=------------------------------------------------] ~  3.32 %                             [=------------------------------------------------] ~  3.98 %                             [==-----------------------------------------------] ~  4.64 %                             [==-----------------------------------------------] ~  5.30 %                             [==-----------------------------------------------] ~  5.97 %                             [===----------------------------------------------] ~  6.63 %                             [===----------------------------------------------] ~  7.29 %                             [===----------------------------------------------] ~  7.96 %                             [====---------------------------------------------] ~  8.62 %                             [====---------------------------------------------] ~  9.28 %                             [====---------------------------------------------] ~  9.95 %                             [=====--------------------------------------------] ~ 10.61 %                             [=====--------------------------------------------] ~ 11.27 %                             [=====--------------------------------------------] ~ 11.93 %                             [======-------------------------------------------] ~ 12.60 %                             [======-------------------------------------------] ~ 13.26 %                             [======-------------------------------------------] ~ 13.92 %                             [=======------------------------------------------] ~ 14.59 %                             [=======------------------------------------------] ~ 15.25 %                             [=======------------------------------------------] ~ 15.91 %                             [========-----------------------------------------] ~ 16.58 %                             [========-----------------------------------------] ~ 17.24 %                             [========-----------------------------------------] ~ 17.90 %                             [=========----------------------------------------] ~ 18.56 %                             [=========----------------------------------------] ~ 19.23 %                             [=========----------------------------------------] ~ 19.89 %                             [==========---------------------------------------] ~ 20.55 %                             [==========---------------------------------------] ~ 21.22 %                             [==========---------------------------------------] ~ 21.88 %                             [===========--------------------------------------] ~ 22.54 %                             [===========--------------------------------------] ~ 23.21 %                             [===========--------------------------------------] ~ 23.87 %                             [============-------------------------------------] ~ 24.53 %                             [============-------------------------------------] ~ 25.19 %                             [============-------------------------------------] ~ 25.86 %                             [=============------------------------------------] ~ 26.52 %                             [=============------------------------------------] ~ 27.18 %                             [=============------------------------------------] ~ 27.85 %                             [==============-----------------------------------] ~ 28.51 %                             [==============-----------------------------------] ~ 29.17 %                             [==============-----------------------------------] ~ 29.84 %                             [===============----------------------------------] ~ 30.50 %                             [===============----------------------------------] ~ 31.16 %                             [===============----------------------------------] ~ 31.82 %                             [================---------------------------------] ~ 32.49 %                             [================---------------------------------] ~ 33.15 %                             [================---------------------------------] ~ 33.81 %                             [=================--------------------------------] ~ 34.48 %                             [=================--------------------------------] ~ 35.14 %                             [=================--------------------------------] ~ 35.80 %                             [==================-------------------------------] ~ 36.47 %                             [==================-------------------------------] ~ 37.13 %                             [==================-------------------------------] ~ 37.79 %                             [===================------------------------------] ~ 38.45 %                             [===================------------------------------] ~ 39.12 %                             [===================------------------------------] ~ 39.78 %                             [====================-----------------------------] ~ 40.44 %                             [====================-----------------------------] ~ 41.11 %                             [====================-----------------------------] ~ 41.77 %                             [=====================----------------------------] ~ 42.43 %                             [=====================----------------------------] ~ 43.10 %                             [=====================----------------------------] ~ 43.76 %                             [======================---------------------------] ~ 44.42 %                             [======================---------------------------] ~ 45.08 %                             [======================---------------------------] ~ 45.75 %                             [=======================--------------------------] ~ 46.41 %                             [=======================--------------------------] ~ 47.07 %                             [=======================--------------------------] ~ 47.74 %                             [========================-------------------------] ~ 48.40 %                             [========================-------------------------] ~ 49.06 %                             [========================-------------------------] ~ 49.73 %                             [=========================------------------------] ~ 50.39 %                             [=========================------------------------] ~ 51.05 %                             [=========================------------------------] ~ 51.71 %                             [==========================-----------------------] ~ 52.38 %                             [==========================-----------------------] ~ 53.04 %                             [==========================-----------------------] ~ 53.70 %                             [===========================----------------------] ~ 54.37 %                             [===========================----------------------] ~ 55.03 %                             [===========================----------------------] ~ 55.69 %                             [============================---------------------] ~ 56.36 %                             [============================---------------------] ~ 57.02 %                             [============================---------------------] ~ 57.68 %                             [=============================--------------------] ~ 58.34 %                             [=============================--------------------] ~ 59.01 %                             [=============================--------------------] ~ 59.67 %                             [==============================-------------------] ~ 60.33 %                             [==============================-------------------] ~ 61.00 %                             [==============================-------------------] ~ 61.66 %                             [===============================------------------] ~ 62.32 %                             [===============================------------------] ~ 62.99 %                             [===============================------------------] ~ 63.65 %                             [================================-----------------] ~ 64.31 %                             [================================-----------------] ~ 64.97 %                             [================================-----------------] ~ 65.64 %                             [=================================----------------] ~ 66.30 %                             [=================================----------------] ~ 66.96 %                             [=================================----------------] ~ 67.63 %                             [==================================---------------] ~ 68.29 %                             [==================================---------------] ~ 68.95 %                             [==================================---------------] ~ 69.62 %                             [===================================--------------] ~ 70.28 %                             [===================================--------------] ~ 70.94 %                             [===================================--------------] ~ 71.60 %                             [====================================-------------] ~ 72.27 %                             [====================================-------------] ~ 72.93 %                             [====================================-------------] ~ 73.59 %                             [=====================================------------] ~ 74.26 %                             [=====================================------------] ~ 74.92 %                             [=====================================------------] ~ 75.58 %                             [======================================-----------] ~ 76.25 %                             [======================================-----------] ~ 76.91 %                             [======================================-----------] ~ 77.57 %                             [=======================================----------] ~ 78.23 %                             [=======================================----------] ~ 78.90 %                             [=======================================----------] ~ 79.56 %                             [========================================---------] ~ 80.22 %                             [========================================---------] ~ 80.89 %                             [========================================---------] ~ 81.55 %                             [=========================================--------] ~ 82.21 %                             [=========================================--------] ~ 82.88 %                             [=========================================--------] ~ 83.54 %                             [==========================================-------] ~ 84.20 %                             [==========================================-------] ~ 84.86 %                             [==========================================-------] ~ 85.53 %                             [===========================================------] ~ 86.19 %                             [===========================================------] ~ 86.85 %                             [===========================================------] ~ 87.52 %                             [============================================-----] ~ 88.18 %                             [============================================-----] ~ 88.84 %                             [============================================-----] ~ 89.51 %                             [=============================================----] ~ 90.17 %                             [=============================================----] ~ 90.83 %                             [=============================================----] ~ 91.49 %                             [==============================================---] ~ 92.16 %                             [==============================================---] ~ 92.82 %                             [==============================================---] ~ 93.48 %                             [===============================================--] ~ 94.15 %                             [===============================================--] ~ 94.81 %                             [===============================================--] ~ 95.47 %                             [================================================-] ~ 96.14 %                             [================================================-] ~ 96.80 %                             [================================================-] ~ 97.46 %                             [=================================================] ~ 98.12 %                             [=================================================] ~ 98.79 %                             [=================================================] ~ 99.45 %                             [2018-08-21 20:38:22] Print results to 'diffs/S.diff.bins.assoc.corr.tsv'
[2018-08-21 20:38:23] check-taxo.pl done.
Smartmatch is experimental at check-taxo.pl line 274.
Name "main::IN_SCAFF" used only once: possible typo at check-taxo.pl line 74.
Name "main::ACCOUT" used only once: possible typo at check-taxo.pl line 148.
Name "main::IN_DATA" used only once: possible typo at check-taxo.pl line 91.
[2018-08-21 20:38:23] # loading scaffolds
[2018-08-21 20:38:23] Number of scaffolds - 37519
[2018-08-21 20:38:23] # loading associated chromosomes
[2018-08-21 20:38:23] # loading 'data' dir
[2018-08-21 20:38:23]   - cocacola (data/M.cocacola.bins.tsv)
[2018-08-21 20:38:24]   - concoct (data/M.concoct.bins.tsv)
[2018-08-21 20:38:24]   - das_tool (data/M.das_tool.bins.tsv)
[2018-08-21 20:38:24]   - maxbin22 (data/M.maxbin22.bins.tsv)
[2018-08-21 20:38:24]   - metabat2 (data/M.metabat2.bins.tsv)
[2018-08-21 20:38:24]   - metabat2.w.abd (data/M.metabat2.w.abd.bins.tsv)
[2018-08-21 20:38:24]   - metabat (data/M.metabat.bins.tsv)
[2018-08-21 20:38:24]   - metabat.w.abd (data/M.metabat.w.abd.bins.tsv)
[2018-08-21 20:38:24]   - metaprob (data/M.metaprob.bins.tsv)
[2018-08-21 20:38:24]   - reference (data/M.reference.tsv)
[2018-08-21 20:38:24] # loading 'assoc' dir
[2018-08-21 20:38:24]   - cocacola (assoc/M.cocacola.bins.csv)
[2018-08-21 20:38:30]   - concoct (assoc/M.concoct.bins.csv)
[2018-08-21 20:38:35]   - das_tool (assoc/M.das_tool.bins.csv)
[2018-08-21 20:38:41]   - maxbin22 (assoc/M.maxbin22.bins.csv)
[2018-08-21 20:38:47]   - metabat2 (assoc/M.metabat2.bins.csv)
[2018-08-21 20:38:53]   - metabat2.w.abd (assoc/M.metabat2.w.abd.bins.csv)
[2018-08-21 20:38:59]   - metabat (assoc/M.metabat.bins.csv)
[2018-08-21 20:39:05]   - metabat.w.abd (assoc/M.metabat.w.abd.bins.csv)
[2018-08-21 20:39:11]   - metaprob (assoc/M.metaprob.bins.csv)
[2018-08-21 20:39:17]   - reference (assoc/M.reference.csv)
[2018-08-21 20:39:23] # Collecting taxonomic identifiers
[2018-08-21 20:39:27] # Collecting taxonomic informations (name and lineage)
[-------------------------------------------------] ~  0.67 %                             [-------------------------------------------------] ~  1.33 %                             [-------------------------------------------------] ~  2.00 %                             [=------------------------------------------------] ~  2.67 %                             [=------------------------------------------------] ~  3.33 %                             [=------------------------------------------------] ~  4.00 %                             [==-----------------------------------------------] ~  4.66 %                             [==-----------------------------------------------] ~  5.33 %                             [==-----------------------------------------------] ~  6.00 %                             [===----------------------------------------------] ~  6.66 %                             [===----------------------------------------------] ~  7.33 %                             [===----------------------------------------------] ~  8.00 %                             [====---------------------------------------------] ~  8.66 %                             [====---------------------------------------------] ~  9.33 %                             [====---------------------------------------------] ~  9.99 %                             [=====--------------------------------------------] ~ 10.66 %                             [=====--------------------------------------------] ~ 11.33 %                             [=====--------------------------------------------] ~ 11.99 %                             [======-------------------------------------------] ~ 12.66 %                             [======-------------------------------------------] ~ 13.33 %                             [======-------------------------------------------] ~ 13.99 %                             [=======------------------------------------------] ~ 14.66 %                             [=======------------------------------------------] ~ 15.33 %                             [=======------------------------------------------] ~ 15.99 %                             [========-----------------------------------------] ~ 16.66 %                             [========-----------------------------------------] ~ 17.32 %                             [========-----------------------------------------] ~ 17.99 %                             [=========----------------------------------------] ~ 18.66 %                             [=========----------------------------------------] ~ 19.32 %                             [=========----------------------------------------] ~ 19.99 %                             [==========---------------------------------------] ~ 20.66 %                             [==========---------------------------------------] ~ 21.32 %                             [==========---------------------------------------] ~ 21.99 %                             [===========--------------------------------------] ~ 22.66 %                             [===========--------------------------------------] ~ 23.32 %                             [===========--------------------------------------] ~ 23.99 %                             [============-------------------------------------] ~ 24.65 %                             [============-------------------------------------] ~ 25.32 %                             [============-------------------------------------] ~ 25.99 %                             [=============------------------------------------] ~ 26.65 %                             [=============------------------------------------] ~ 27.32 %                             [=============------------------------------------] ~ 27.99 %                             [==============-----------------------------------] ~ 28.65 %                             [==============-----------------------------------] ~ 29.32 %                             [==============-----------------------------------] ~ 29.98 %                             [===============----------------------------------] ~ 30.65 %                             [===============----------------------------------] ~ 31.32 %                             [===============----------------------------------] ~ 31.98 %                             [================---------------------------------] ~ 32.65 %                             [================---------------------------------] ~ 33.32 %                             [================---------------------------------] ~ 33.98 %                             [=================--------------------------------] ~ 34.65 %                             [=================--------------------------------] ~ 35.32 %                             [=================--------------------------------] ~ 35.98 %                             [==================-------------------------------] ~ 36.65 %                             [==================-------------------------------] ~ 37.31 %                             [==================-------------------------------] ~ 37.98 %                             [===================------------------------------] ~ 38.65 %                             [===================------------------------------] ~ 39.31 %                             [===================------------------------------] ~ 39.98 %                             [====================-----------------------------] ~ 40.65 %                             [====================-----------------------------] ~ 41.31 %                             [====================-----------------------------] ~ 41.98 %                             [=====================----------------------------] ~ 42.65 %                             [=====================----------------------------] ~ 43.31 %                             [=====================----------------------------] ~ 43.98 %                             [======================---------------------------] ~ 44.64 %                             [======================---------------------------] ~ 45.31 %                             [======================---------------------------] ~ 45.98 %                             [=======================--------------------------] ~ 46.64 %                             [=======================--------------------------] ~ 47.31 %                             [=======================--------------------------] ~ 47.98 %                             [========================-------------------------] ~ 48.64 %                             [========================-------------------------] ~ 49.31 %                             [========================-------------------------] ~ 49.97 %                             [=========================------------------------] ~ 50.64 %                             [=========================------------------------] ~ 51.31 %                             [=========================------------------------] ~ 51.97 %                             [==========================-----------------------] ~ 52.64 %                             [==========================-----------------------] ~ 53.31 %                             [==========================-----------------------] ~ 53.97 %                             [===========================----------------------] ~ 54.64 %                             [===========================----------------------] ~ 55.31 %                             [===========================----------------------] ~ 55.97 %                             [============================---------------------] ~ 56.64 %                             [============================---------------------] ~ 57.30 %                             [============================---------------------] ~ 57.97 %                             [=============================--------------------] ~ 58.64 %                             [=============================--------------------] ~ 59.30 %                             [=============================--------------------] ~ 59.97 %                             [==============================-------------------] ~ 60.64 %                             [==============================-------------------] ~ 61.30 %                             [==============================-------------------] ~ 61.97 %                             [===============================------------------] ~ 62.63 %                             [===============================------------------] ~ 63.30 %                             [===============================------------------] ~ 63.97 %                             [================================-----------------] ~ 64.63 %                             [================================-----------------] ~ 65.30 %                             [================================-----------------] ~ 65.97 %                             [=================================----------------] ~ 66.63 %                             [=================================----------------] ~ 67.30 %                             [=================================----------------] ~ 67.97 %                             [==================================---------------] ~ 68.63 %                             [==================================---------------] ~ 69.30 %                             [==================================---------------] ~ 69.96 %                             [===================================--------------] ~ 70.63 %                             [===================================--------------] ~ 71.30 %                             [===================================--------------] ~ 71.96 %                             [====================================-------------] ~ 72.63 %                             [====================================-------------] ~ 73.30 %                             [====================================-------------] ~ 73.96 %                             [=====================================------------] ~ 74.63 %                             [=====================================------------] ~ 75.30 %                             [=====================================------------] ~ 75.96 %                             [======================================-----------] ~ 76.63 %                             [======================================-----------] ~ 77.29 %                             [======================================-----------] ~ 77.96 %                             [=======================================----------] ~ 78.63 %                             [=======================================----------] ~ 79.29 %                             [=======================================----------] ~ 79.96 %                             [========================================---------] ~ 80.63 %                             [========================================---------] ~ 81.29 %                             [========================================---------] ~ 81.96 %                             [=========================================--------] ~ 82.62 %                             [=========================================--------] ~ 83.29 %                             [=========================================--------] ~ 83.96 %                             [==========================================-------] ~ 84.62 %                             [==========================================-------] ~ 85.29 %                             [==========================================-------] ~ 85.96 %                             [===========================================------] ~ 86.62 %                             [===========================================------] ~ 87.29 %                             [===========================================------] ~ 87.96 %                             [============================================-----] ~ 88.62 %                             [============================================-----] ~ 89.29 %                             [============================================-----] ~ 89.95 %                             [=============================================----] ~ 90.62 %                             [=============================================----] ~ 91.29 %                             [=============================================----] ~ 91.95 %                             [==============================================---] ~ 92.62 %                             [==============================================---] ~ 93.29 %                             [==============================================---] ~ 93.95 %                             [===============================================--] ~ 94.62 %                             [===============================================--] ~ 95.29 %                             [===============================================--] ~ 95.95 %                             [================================================-] ~ 96.62 %                             [================================================-] ~ 97.28 %                             [================================================-] ~ 97.95 %                             [=================================================] ~ 98.62 %                             [=================================================] ~ 99.28 %                             [=================================================] ~ 99.95 %                             [2018-08-21 20:42:10] Print results to 'diffs/M.diff.bins.assoc.corr.tsv'
[2018-08-21 20:42:11] check-taxo.pl done.
Smartmatch is experimental at check-taxo.pl line 274.
Name "main::ACCOUT" used only once: possible typo at check-taxo.pl line 148.
Name "main::IN_SCAFF" used only once: possible typo at check-taxo.pl line 74.
Name "main::IN_DATA" used only once: possible typo at check-taxo.pl line 91.
[2018-08-21 20:42:12] # loading scaffolds
[2018-08-21 20:42:12] Number of scaffolds - 57233
[2018-08-21 20:42:12] # loading associated chromosomes
[2018-08-21 20:42:12] # loading 'data' dir
[2018-08-21 20:42:12]   - cocacola (data/L.cocacola.bins.tsv)
[2018-08-21 20:42:12]   - concoct (data/L.concoct.bins.tsv)
[2018-08-21 20:42:12]   - das_tool (data/L.das_tool.bins.tsv)
[2018-08-21 20:42:12]   - maxbin22 (data/L.maxbin22.bins.tsv)
[2018-08-21 20:42:12]   - metabat2 (data/L.metabat2.bins.tsv)
[2018-08-21 20:42:12]   - metabat2.w.abd (data/L.metabat2.w.abd.bins.tsv)
[2018-08-21 20:42:12]   - metabat (data/L.metabat.bins.tsv)
[2018-08-21 20:42:12]   - metabat.w.abd (data/L.metabat.w.abd.bins.tsv)
[2018-08-21 20:42:13]   - metaprob (data/L.metaprob.bins.tsv)
[2018-08-21 20:42:13]   - reference (data/L.reference.tsv)
[2018-08-21 20:42:13] # loading 'assoc' dir
[2018-08-21 20:42:13]   - cocacola (assoc/L.cocacola.bins.csv)
[2018-08-21 20:42:28]   - concoct (assoc/L.concoct.bins.csv)
[2018-08-21 20:42:44]   - das_tool (assoc/L.das_tool.bins.csv)
[2018-08-21 20:42:59]   - maxbin22 (assoc/L.maxbin22.bins.csv)
[2018-08-21 20:43:14]   - metabat2 (assoc/L.metabat2.bins.csv)
[2018-08-21 20:43:30]   - metabat2.w.abd (assoc/L.metabat2.w.abd.bins.csv)
[2018-08-21 20:43:45]   - metabat (assoc/L.metabat.bins.csv)
[2018-08-21 20:44:00]   - metabat.w.abd (assoc/L.metabat.w.abd.bins.csv)
[2018-08-21 20:44:16]   - metaprob (assoc/L.metaprob.bins.csv)
[2018-08-21 20:44:31]   - reference (assoc/L.reference.csv)
[2018-08-21 20:44:46] # Collecting taxonomic identifiers
[2018-08-21 20:44:49] # Collecting taxonomic informations (name and lineage)
[-------------------------------------------------] ~  0.67 %                             [-------------------------------------------------] ~  1.33 %                             [-------------------------------------------------] ~  2.00 %                             [=------------------------------------------------] ~  2.66 %                             [=------------------------------------------------] ~  3.33 %                             [=------------------------------------------------] ~  3.99 %                             [==-----------------------------------------------] ~  4.66 %                             [==-----------------------------------------------] ~  5.33 %                             [==-----------------------------------------------] ~  5.99 %                             [===----------------------------------------------] ~  6.66 %                             [===----------------------------------------------] ~  7.32 %                             [===----------------------------------------------] ~  7.99 %                             [====---------------------------------------------] ~  8.65 %                             [====---------------------------------------------] ~  9.32 %                             [====---------------------------------------------] ~  9.99 %                             [=====--------------------------------------------] ~ 10.65 %                             [=====--------------------------------------------] ~ 11.32 %                             [=====--------------------------------------------] ~ 11.98 %                             [======-------------------------------------------] ~ 12.65 %                             [======-------------------------------------------] ~ 13.31 %                             [======-------------------------------------------] ~ 13.98 %                             [=======------------------------------------------] ~ 14.65 %                             [=======------------------------------------------] ~ 15.31 %                             [=======------------------------------------------] ~ 15.98 %                             [========-----------------------------------------] ~ 16.64 %                             [========-----------------------------------------] ~ 17.31 %                             [========-----------------------------------------] ~ 17.97 %                             [=========----------------------------------------] ~ 18.64 %                             [=========----------------------------------------] ~ 19.31 %                             [=========----------------------------------------] ~ 19.97 %                             [==========---------------------------------------] ~ 20.64 %                             [==========---------------------------------------] ~ 21.30 %                             [==========---------------------------------------] ~ 21.97 %                             [===========--------------------------------------] ~ 22.63 %                             [===========--------------------------------------] ~ 23.30 %                             [===========--------------------------------------] ~ 23.97 %                             [============-------------------------------------] ~ 24.63 %                             [============-------------------------------------] ~ 25.30 %                             [============-------------------------------------] ~ 25.96 %                             [=============------------------------------------] ~ 26.63 %                             [=============------------------------------------] ~ 27.29 %                             [=============------------------------------------] ~ 27.96 %                             [==============-----------------------------------] ~ 28.63 %                             [==============-----------------------------------] ~ 29.29 %                             [==============-----------------------------------] ~ 29.96 %                             [===============----------------------------------] ~ 30.62 %                             [===============----------------------------------] ~ 31.29 %                             [===============----------------------------------] ~ 31.95 %                             [================---------------------------------] ~ 32.62 %                             [================---------------------------------] ~ 33.28 %                             [================---------------------------------] ~ 33.95 %                             [=================--------------------------------] ~ 34.62 %                             [=================--------------------------------] ~ 35.28 %                             [=================--------------------------------] ~ 35.95 %                             [==================-------------------------------] ~ 36.61 %                             [==================-------------------------------] ~ 37.28 %                             [==================-------------------------------] ~ 37.94 %                             [===================------------------------------] ~ 38.61 %                             [===================------------------------------] ~ 39.28 %                             [===================------------------------------] ~ 39.94 %                             [====================-----------------------------] ~ 40.61 %                             [====================-----------------------------] ~ 41.27 %                             [====================-----------------------------] ~ 41.94 %                             [=====================----------------------------] ~ 42.60 %                             [=====================----------------------------] ~ 43.27 %                             [=====================----------------------------] ~ 43.94 %                             [======================---------------------------] ~ 44.60 %                             [======================---------------------------] ~ 45.27 %                             [======================---------------------------] ~ 45.93 %                             [=======================--------------------------] ~ 46.60 %                             [=======================--------------------------] ~ 47.26 %                             [=======================--------------------------] ~ 47.93 %                             [========================-------------------------] ~ 48.60 %                             [========================-------------------------] ~ 49.26 %                             [========================-------------------------] ~ 49.93 %                             [=========================------------------------] ~ 50.59 %                             [=========================------------------------] ~ 51.26 %                             [=========================------------------------] ~ 51.92 %                             [==========================-----------------------] ~ 52.59 %                             [==========================-----------------------] ~ 53.26 %                             [==========================-----------------------] ~ 53.92 %                             [===========================----------------------] ~ 54.59 %                             [===========================----------------------] ~ 55.25 %                             [===========================----------------------] ~ 55.92 %                             [============================---------------------] ~ 56.58 %                             [============================---------------------] ~ 57.25 %                             [============================---------------------] ~ 57.92 %                             [=============================--------------------] ~ 58.58 %                             [=============================--------------------] ~ 59.25 %                             [=============================--------------------] ~ 59.91 %                             [==============================-------------------] ~ 60.58 %                             [==============================-------------------] ~ 61.24 %                             [==============================-------------------] ~ 61.91 %                             [===============================------------------] ~ 62.58 %                             [===============================------------------] ~ 63.24 %                             [===============================------------------] ~ 63.91 %                             [================================-----------------] ~ 64.57 %                             [================================-----------------] ~ 65.24 %                             [================================-----------------] ~ 65.90 %                             [=================================----------------] ~ 66.57 %                             [=================================----------------] ~ 67.24 %                             [=================================----------------] ~ 67.90 %                             [==================================---------------] ~ 68.57 %                             [==================================---------------] ~ 69.23 %                             [==================================---------------] ~ 69.90 %                             [===================================--------------] ~ 70.56 %                             [===================================--------------] ~ 71.23 %                             [===================================--------------] ~ 71.90 %                             [====================================-------------] ~ 72.56 %                             [====================================-------------] ~ 73.23 %                             [====================================-------------] ~ 73.89 %                             [=====================================------------] ~ 74.56 %                             [=====================================------------] ~ 75.22 %                             [=====================================------------] ~ 75.89 %                             [======================================-----------] ~ 76.56 %                             [======================================-----------] ~ 77.22 %                             [======================================-----------] ~ 77.89 %                             [=======================================----------] ~ 78.55 %                             [=======================================----------] ~ 79.22 %                             [=======================================----------] ~ 79.88 %                             [========================================---------] ~ 80.55 %                             [========================================---------] ~ 81.22 %                             [========================================---------] ~ 81.88 %                             [=========================================--------] ~ 82.55 %                             [=========================================--------] ~ 83.21 %                             [=========================================--------] ~ 83.88 %                             [==========================================-------] ~ 84.54 %                             [==========================================-------] ~ 85.21 %                             [==========================================-------] ~ 85.88 %                             [===========================================------] ~ 86.54 %                             [===========================================------] ~ 87.21 %                             [===========================================------] ~ 87.87 %                             [============================================-----] ~ 88.54 %                             [============================================-----] ~ 89.20 %                             [============================================-----] ~ 89.87 %                             [=============================================----] ~ 90.54 %                             [=============================================----] ~ 91.20 %                             [=============================================----] ~ 91.87 %                             [==============================================---] ~ 92.53 %                             [==============================================---] ~ 93.20 %                             [==============================================---] ~ 93.86 %                             [===============================================--] ~ 94.53 %                             [===============================================--] ~ 95.20 %                             [===============================================--] ~ 95.86 %                             [================================================-] ~ 96.53 %                             [================================================-] ~ 97.19 %                             [================================================-] ~ 97.86 %                             [=================================================] ~ 98.52 %                             [=================================================] ~ 99.19 %                             [=================================================] ~ 99.85 %                             [2018-08-21 20:48:51] Print results to 'diffs/L.diff.bins.assoc.corr.tsv'
[2018-08-21 20:48:53] check-taxo.pl done.
Smartmatch is experimental at check-taxo.pl line 274.
Name "main::ACCOUT" used only once: possible typo at check-taxo.pl line 148.
Name "main::IN_SCAFF" used only once: possible typo at check-taxo.pl line 74.
Name "main::IN_DATA" used only once: possible typo at check-taxo.pl line 91.
[2018-08-21 20:48:54] # loading scaffolds
[2018-08-21 20:48:54] Number of scaffolds - 42038
[2018-08-21 20:48:54] # loading associated chromosomes
[2018-08-21 20:48:54] # loading 'data' dir
[2018-08-21 20:48:54]   - binsanity (data/CAMI1h.binsanity.tsv)
[2018-08-21 20:48:54]   - binsanity.wf (data/CAMI1h.binsanity.wf.tsv)
[2018-08-21 20:48:54]   - cocacola (data/CAMI1h.cocacola.tsv)
[2018-08-21 20:48:54]   - concoct (data/CAMI1h.concoct.tsv)
[2018-08-21 20:48:54]   - das_tool (data/CAMI1h.das_tool.tsv)
[2018-08-21 20:48:54]   - maxbin20 (data/CAMI1h.maxbin20.tsv)
[2018-08-21 20:48:55]   - maxbin22 (data/CAMI1h.maxbin22.tsv)
[2018-08-21 20:48:55]   - metabat2.w.abd (data/CAMI1h.metabat2.w.abd.tsv)
[2018-08-21 20:48:55]   - metabat.w.abd (data/CAMI1h.metabat.w.abd.tsv)
[2018-08-21 20:48:55]   - metawatt (data/CAMI1h.metawatt.tsv)
[2018-08-21 20:48:55]   - mycc (data/CAMI1h.mycc.tsv)
[2018-08-21 20:48:55]   - reference (data/CAMI1h.reference.tsv)
[2018-08-21 20:48:55] # loading 'assoc' dir
[2018-08-21 20:48:55]   - binsanity (assoc/CAMI1h.binsanity.csv)
[2018-08-21 20:49:48]   - binsanity.wf (assoc/CAMI1h.binsanity.wf.csv)
[2018-08-21 20:50:40]   - cocacola (assoc/CAMI1h.cocacola.csv)
[2018-08-21 20:51:33]   - concoct (assoc/CAMI1h.concoct.csv)
[2018-08-21 20:52:25]   - das_tool (assoc/CAMI1h.das_tool.csv)
[2018-08-21 20:53:17]   - maxbin20 (assoc/CAMI1h.maxbin20.csv)
[2018-08-21 20:54:10]   - maxbin22 (assoc/CAMI1h.maxbin22.csv)
[2018-08-21 20:55:02]   - metabat2.w.abd (assoc/CAMI1h.metabat2.w.abd.csv)
[2018-08-21 20:55:54]   - metabat.w.abd (assoc/CAMI1h.metabat.w.abd.csv)
[2018-08-21 20:56:46]   - metawatt (assoc/CAMI1h.metawatt.csv)
[2018-08-21 20:57:38]   - mycc (assoc/CAMI1h.mycc.csv)
[2018-08-21 20:58:29]   - reference (assoc/CAMI1h.reference.csv)
[2018-08-21 20:59:20] # Collecting taxonomic identifiers
[2018-08-21 20:59:20] CAMI data, do not need to lookup for taxid from nuccoreid
[2018-08-21 20:59:20] # Collecting taxonomic informations (name and lineage)
[-------------------------------------------------] ~  0.67 %                             [-------------------------------------------------] ~  1.33 %                             [-------------------------------------------------] ~  2.00 %                             [=------------------------------------------------] ~  2.66 %                             [=------------------------------------------------] ~  3.33 %                             [=------------------------------------------------] ~  4.00 %                             [==-----------------------------------------------] ~  4.66 %                             [==-----------------------------------------------] ~  5.33 %                             [==-----------------------------------------------] ~  5.99 %                             [===----------------------------------------------] ~  6.66 %                             [===----------------------------------------------] ~  7.33 %                             [===----------------------------------------------] ~  7.99 %                             [====---------------------------------------------] ~  8.66 %                             [====---------------------------------------------] ~  9.32 %                             [====---------------------------------------------] ~  9.99 %                             [=====--------------------------------------------] ~ 10.66 %                             [=====--------------------------------------------] ~ 11.32 %                             [=====--------------------------------------------] ~ 11.99 %                             [======-------------------------------------------] ~ 12.66 %                             [======-------------------------------------------] ~ 13.32 %                             [======-------------------------------------------] ~ 13.99 %                             [=======------------------------------------------] ~ 14.65 %                             [=======------------------------------------------] ~ 15.32 %                             [=======------------------------------------------] ~ 15.99 %                             [========-----------------------------------------] ~ 16.65 %                             [========-----------------------------------------] ~ 17.32 %                             [========-----------------------------------------] ~ 17.98 %                             [=========----------------------------------------] ~ 18.65 %                             [=========----------------------------------------] ~ 19.32 %                             [=========----------------------------------------] ~ 19.98 %                             [==========---------------------------------------] ~ 20.65 %                             [==========---------------------------------------] ~ 21.31 %                             [==========---------------------------------------] ~ 21.98 %                             [===========--------------------------------------] ~ 22.65 %                             [===========--------------------------------------] ~ 23.31 %                             [===========--------------------------------------] ~ 23.98 %                             [============-------------------------------------] ~ 24.64 %                             [============-------------------------------------] ~ 25.31 %                             [============-------------------------------------] ~ 25.98 %                             [=============------------------------------------] ~ 26.64 %                             [=============------------------------------------] ~ 27.31 %                             [=============------------------------------------] ~ 27.97 %                             [==============-----------------------------------] ~ 28.64 %                             [==============-----------------------------------] ~ 29.31 %                             [==============-----------------------------------] ~ 29.97 %                             [===============----------------------------------] ~ 30.64 %                             [===============----------------------------------] ~ 31.31 %                             [===============----------------------------------] ~ 31.97 %                             [================---------------------------------] ~ 32.64 %                             [================---------------------------------] ~ 33.30 %                             [================---------------------------------] ~ 33.97 %                             [=================--------------------------------] ~ 34.64 %                             [=================--------------------------------] ~ 35.30 %                             [=================--------------------------------] ~ 35.97 %                             [==================-------------------------------] ~ 36.63 %                             [==================-------------------------------] ~ 37.30 %                             [==================-------------------------------] ~ 37.97 %                             [===================------------------------------] ~ 38.63 %                             [===================------------------------------] ~ 39.30 %                             [===================------------------------------] ~ 39.96 %                             [====================-----------------------------] ~ 40.63 %                             [====================-----------------------------] ~ 41.30 %                             [====================-----------------------------] ~ 41.96 %                             [=====================----------------------------] ~ 42.63 %                             [=====================----------------------------] ~ 43.29 %                             [=====================----------------------------] ~ 43.96 %                             [======================---------------------------] ~ 44.63 %                             [======================---------------------------] ~ 45.29 %                             [======================---------------------------] ~ 45.96 %                             [=======================--------------------------] ~ 46.62 %                             [=======================--------------------------] ~ 47.29 %                             [=======================--------------------------] ~ 47.96 %                             [========================-------------------------] ~ 48.62 %                             [========================-------------------------] ~ 49.29 %                             [========================-------------------------] ~ 49.95 %                             [=========================------------------------] ~ 50.62 %                             [=========================------------------------] ~ 51.29 %                             [=========================------------------------] ~ 51.95 %                             [==========================-----------------------] ~ 52.62 %                             [==========================-----------------------] ~ 53.29 %                             [==========================-----------------------] ~ 53.95 %                             [===========================----------------------] ~ 54.62 %                             [===========================----------------------] ~ 55.28 %                             [===========================----------------------] ~ 55.95 %                             [============================---------------------] ~ 56.62 %                             [============================---------------------] ~ 57.28 %                             [============================---------------------] ~ 57.95 %                             [=============================--------------------] ~ 58.61 %                             [=============================--------------------] ~ 59.28 %                             [=============================--------------------] ~ 59.95 %                             [==============================-------------------] ~ 60.61 %                             [==============================-------------------] ~ 61.28 %                             [==============================-------------------] ~ 61.94 %                             [===============================------------------] ~ 62.61 %                             [===============================------------------] ~ 63.28 %                             [===============================------------------] ~ 63.94 %                             [================================-----------------] ~ 64.61 %                             [================================-----------------] ~ 65.27 %                             [================================-----------------] ~ 65.94 %                             [=================================----------------] ~ 66.61 %                             [=================================----------------] ~ 67.27 %                             [=================================----------------] ~ 67.94 %                             [==================================---------------] ~ 68.60 %                             [==================================---------------] ~ 69.27 %                             [==================================---------------] ~ 69.94 %                             [===================================--------------] ~ 70.60 %                             [===================================--------------] ~ 71.27 %                             [===================================--------------] ~ 71.93 %                             [====================================-------------] ~ 72.60 %                             [====================================-------------] ~ 73.27 %                             [====================================-------------] ~ 73.93 %                             [=====================================------------] ~ 74.60 %                             [=====================================------------] ~ 75.27 %                             [=====================================------------] ~ 75.93 %                             [======================================-----------] ~ 76.60 %                             [======================================-----------] ~ 77.26 %                             [======================================-----------] ~ 77.93 %                             [=======================================----------] ~ 78.60 %                             [=======================================----------] ~ 79.26 %                             [=======================================----------] ~ 79.93 %                             [========================================---------] ~ 80.59 %                             [========================================---------] ~ 81.26 %                             [========================================---------] ~ 81.93 %                             [=========================================--------] ~ 82.59 %                             [=========================================--------] ~ 83.26 %                             [=========================================--------] ~ 83.92 %                             [==========================================-------] ~ 84.59 %                             [==========================================-------] ~ 85.26 %                             [==========================================-------] ~ 85.92 %                             [===========================================------] ~ 86.59 %                             [===========================================------] ~ 87.25 %                             [===========================================------] ~ 87.92 %                             [============================================-----] ~ 88.59 %                             [============================================-----] ~ 89.25 %                             [============================================-----] ~ 89.92 %                             [=============================================----] ~ 90.58 %                             [=============================================----] ~ 91.25 %                             [=============================================----] ~ 91.92 %                             [==============================================---] ~ 92.58 %                             [==============================================---] ~ 93.25 %                             [==============================================---] ~ 93.92 %                             [===============================================--] ~ 94.58 %                             [===============================================--] ~ 95.25 %                             [===============================================--] ~ 95.91 %                             [================================================-] ~ 96.58 %                             [================================================-] ~ 97.25 %                             [================================================-] ~ 97.91 %                             [=================================================] ~ 98.58 %                             [=================================================] ~ 99.24 %                             [=================================================] ~ 99.91 %                             [2018-08-21 21:02:02] Print results to 'diffs/CAMI1h.diff.bins.assoc.corr.tsv'
[2018-08-21 21:02:03] check-taxo.pl done.
[2018-08-21 21:02:41] Evaluate complementarity
Le chargement a nécessité le package : permute
Le chargement a nécessité le package : lattice
This is vegan 2.5-2
[1] 96.95038
[1] "S"

***VECTORS

                MDS1     MDS2     r2 Pr(>r)
sensitivity -0.91446  0.40468 0.1390 0.5452
specificity -0.92733 -0.37423 0.3878 0.1139
precision   -0.94647 -0.32278 0.4041 0.1109
recall      -0.91446  0.40468 0.1390 0.5452
FDR         -0.25384 -0.96725 0.0301 0.8902
accuracy    -0.92432 -0.38163 0.3021 0.2380
F1score     -0.99133  0.13138 0.1242 0.5750
MCC         -0.99865  0.05188 0.1559 0.4985
FPR         -0.25384 -0.96725 0.0301 0.8902
TPR         -0.91446  0.40468 0.1390 0.5452
Permutation: free
Number of permutations: 9999


[1] 94.20044
[1] "M"

***VECTORS

                MDS1     MDS2     r2 Pr(>r)
sensitivity -0.82814 -0.56052 0.2030 0.3957
specificity -0.98445  0.17569 0.4445 0.1254
precision   -0.97713  0.21264 0.4621 0.1025
recall      -0.82814 -0.56052 0.2030 0.3957
FDR         -0.98664 -0.16293 0.0731 0.7404
accuracy    -0.99160  0.12935 0.4289 0.1548
F1score     -0.85480 -0.51896 0.2205 0.3705
MCC         -0.92410 -0.38216 0.2597 0.3144
FPR         -0.98664 -0.16293 0.0731 0.7404
TPR         -0.82814 -0.56052 0.2030 0.3957
Permutation: free
Number of permutations: 9999


[1] 88.61045
[1] "L"

***VECTORS

                MDS1     MDS2     r2 Pr(>r)
sensitivity -0.78909 -0.61428 0.1629 0.4426
specificity -0.95181  0.30670 0.4221 0.1194
precision   -0.93957  0.34237 0.4578 0.1049
recall      -0.78909 -0.61428 0.1629 0.4426
FDR         -0.99976  0.02189 0.0455 0.8247
accuracy    -0.95952  0.28166 0.4033 0.1648
F1score     -0.82644 -0.56303 0.1686 0.4589
MCC         -0.92333 -0.38402 0.1952 0.4121
FPR         -0.99976  0.02189 0.0455 0.8247
TPR         -0.78909 -0.61428 0.1629 0.4426
Permutation: free
Number of permutations: 9999


[1] 82.9828
[1] "CAMI1h"

***VECTORS

                MDS1     MDS2     r2 Pr(>r)  
sensitivity -0.55758  0.83012 0.0151 0.9243  
specificity -0.97809 -0.20817 0.5330 0.0426 *
precision   -0.93290 -0.36014 0.3994 0.1081  
recall      -0.55758  0.83012 0.0151 0.9243  
FDR         -0.96183  0.27366 0.1608 0.4190  
accuracy    -0.97794 -0.20887 0.5314 0.0534 .
F1score     -0.97626  0.21661 0.0184 0.9106  
MCC         -0.99962 -0.02751 0.0449 0.7935  
FPR         -0.96183  0.27366 0.1608 0.4190  
TPR         -0.55758  0.83012 0.0151 0.9243  
---
Signif. codes:  0 ‘***’ 0.001 ‘**’ 0.01 ‘*’ 0.05 ‘.’ 0.1 ‘ ’ 1
Permutation: free
Number of permutations: 9999


[2018-08-21 21:03:06] Packaging restults tp 'RESULTS_WITHOUT_UNBINNED'
mv: impossible d'évaluer 'data-with-unbinned': Aucun fichier ou dossier de ce type
