file	total	nclasse	ncluster	TP	FP	FN	TN	sensitivity	specificity	precision	recall	FDR	accuracy	F1score	MCC	FPR	TPR	dataset	tool
CAMI1h.binsanity.tsv	42038	1074	126	31697	10341	704306	44402468	0.043066400544563	0.999767161766327	0.754008278224464	0.043066400544563	0.000232838233672633	0.984171300011172	0.0814789966081479	0.17876795157773	0.000232838233672594	0.043066400544563	CAMI1h	binsanity
CAMI1h.binsanity.wf.tsv	42038	1074	446	28701	13337	562228	44544546	0.0485692866655723	0.999700681470886	0.682739426233408	0.0485692866655723	0.000299318529114141	0.987251824034705	0.0906871922232913	0.180933889421043	0.000299318529114134	0.0485692866655723	CAMI1h	binsanity.wf
CAMI1h.cocacola.tsv	42038	1074	572	23750	18288	155814	44950960	0.132264819228799	0.99959332208535	0.564965031638042	0.132264819228799	0.000406677914649585	0.996143818800814	0.214348245954459	0.272830730670598	0.000406677914649545	0.132264819228799	CAMI1h	cocacola
CAMI1h.concoct.tsv	42038	1074	285	24569	17469	990910	44115864	0.0241944934361026	0.999604176734171	0.584447404729055	0.0241944934361026	0.000395823265829481	0.977665436689674	0.0464654468911611	0.117576875724848	0.000395823265829431	0.0241944934361026	CAMI1h	concoct
CAMI1h.das_tool.tsv	42038	1074	587	21513	20525	12340309	32766465	0.00174027744453852	0.999373989500104	0.511751272658071	0.00174027744453852	0.000626010499896453	0.726220171640397	0.0034687589185947	0.0254275334174857	0.000626010499896412	0.00174027744453852	CAMI1h	das_tool
CAMI1h.maxbin20.tsv	42038	1074	343	14927	27111	16491649	28615125	0.000904306259517419	0.999053460770311	0.355083495884676	0.000904306259517419	0.000946539229688632	0.63412636416657	0.00180401814919364	0.014266290268069	0.000946539229688681	0.000904306259517419	CAMI1h	maxbin20
CAMI1h.maxbin22.tsv	42038	1074	332	14579	27459	16995481	28111293	0.000857081044981617	0.999024157148121	0.346805271421095	0.000857081044981617	0.000975842851879145	0.622959292926689	0.00170993622016481	0.0136043968633502	0.000975842851879127	0.000857081044981617	CAMI1h	maxbin22
CAMI1h.metabat2.w.abd.tsv	42038	1074	600	21146	20892	24388398	20718376	0.000866300492954723	0.99899263561279	0.50302107616918	0.000866300492954723	0.00100736438720981	0.459359196428026	0.00172962223875739	0.0141413099416606	0.00100736438720983	0.000866300492954723	CAMI1h	metabat2.w.abd
CAMI1h.metabat.w.abd.tsv	42038	1074	399	17909	24129	26735131	18371643	0.000669419251045862	0.99868833990767	0.426019315857082	0.000669419251045862	0.00131166009232991	0.407309764872662	0.00133673803823225	0.0107712747779823	0.00131166009232986	0.000669419251045862	CAMI1h	metabat.w.abd
CAMI1h.metawatt.tsv	42038	1074	1041	18693	23345	26387912	18718862	0.000707891074979158	0.998754415635256	0.44466910890147	0.000707891074979158	0.00124558436474424	0.415017675326651	0.001413531877609	0.0114230640868032	0.0012455843647442	0.000707891074979158	CAMI1h	metawatt
CAMI1h.mycc.tsv	42038	1074	443	21291	20747	2014077	43092697	0.0104605162309715	0.999518781195026	0.506470336362339	0.0104605162309715	0.000481218804974151	0.954930729960292	0.0204976783546404	0.0711264188448738	0.000481218804974204	0.0104605162309715	CAMI1h	mycc
CAMI1h.reference.tsv	42038	1074	1074	42038	0	0	45106774	1	1	1	1	0	1	1	1	0	1	CAMI1h	reference
L.cocacola.bins.tsv	57233	223	30	40834	16399	710233	11995493	0.0543679858121845	0.998634769609983	0.713469501860815	0.0543679858121845	0.00136523039001683	0.94306712103361	0.101036743783249	0.191237295535406	0.00136523039001679	0.0543679858121845	L	cocacola
L.concoct.bins.tsv	57233	223	124	47755	9478	245589	12460137	0.16279521653758	0.999239912379011	0.834396239931508	0.16279521653758	0.0007600876209891	0.980015057636713	0.272436583118687	0.364841064036563	0.000760087620989114	0.16279521653758	L	concoct
L.das_tool.bins.tsv	57233	223	33	11394	45839	8761997	3943729	0.0012986996704011	0.988510284822818	0.199080949801688	0.0012986996704011	0.0114897151771821	0.309890754957373	0.00258056508803908	0.00890836157328104	0.0114897151771821	0.0012986996704011	L	das_tool
L.maxbin22.bins.tsv	57233	223	90	38371	18862	506948	12198778	0.0703643188665717	0.99845616665739	0.670434888962661	0.0703643188665717	0.00154383334260954	0.9588018734527	0.127361621901512	0.212656138317479	0.00154383334260955	0.0703643188665717	L	maxbin22
L.metabat2.bins.tsv	57233	223	62	20540	36693	6541355	6164371	0.00313019333591897	0.994082789663193	0.35888386070973	0.00313019333591897	0.00591721033680672	0.484598516691936	0.00620625556719858	0.023277737956289	0.0059172103368067	0.00313019333591897	L	metabat2
L.metabat2.w.abd.bins.tsv	57233	223	66	19848	37385	6448457	6257269	0.00306850094421954	0.994060833208624	0.346792934146384	0.00306850094421954	0.00593916679137567	0.491823016903839	0.00608317659019072	0.0228254748104714	0.00593916679137563	0.00306850094421954	L	metabat2.w.abd
L.metabat.bins.tsv	57233	223	66	19849	37384	6397169	6308557	0.00309318128763235	0.994108990297893	0.346810406583614	0.00309318128763235	0.00589100970210722	0.495841599115064	0.00613167453656029	0.0230119317940232	0.00589100970210721	0.00309318128763235	L	metabat
L.metabat.w.abd.bins.tsv	57233	223	99	20070	37163	6480703	6225023	0.00308732515348559	0.994065490868524	0.350671815211504	0.00308732515348559	0.00593450913147581	0.489313880895488	0.00612076292702385	0.0229637204082002	0.00593450913147586	0.00308732515348559	L	metabat.w.abd
L.metaprob.bins.tsv	57233	223	83	44705	12528	475888	12229838	0.0858732253411014	0.998976668398903	0.781105306379187	0.0858732253411014	0.00102333160109737	0.961731758285833	0.154735162488362	0.25396410112204	0.00102333160109735	0.0858732253411014	L	metaprob
L.reference.tsv	57233	223	223	57233	0	0	12705726	1	1	1	1	0	1	1	1	0	1	L	reference
M.cocacola.bins.tsv	37519	132	28	29103	8416	247933	4667056	0.105051329069146	0.998199967832125	0.775686985260801	0.105051329069146	0.00180003216787524	0.948238549034146	0.185042361431228	0.277916160068742	0.00180003216787528	0.105051329069146	M	cocacola
M.concoct.bins.tsv	37519	132	81	34138	3381	47149	4867840	0.419968752691082	0.9993059235046	0.909885657933314	0.419968752691082	0.000694076495400229	0.989797088666995	0.574684780229955	0.614975928185627	0.000694076495400209	0.419968752691082	M	concoct
M.das_tool.bins.tsv	37519	132	20	7176	30343	3442715	1472274	0.00208006571801834	0.97980656414775	0.191263093366028	0.00208006571801834	0.0201934358522498	0.298727432646247	0.00411537502043063	0.0108093003238668	0.0201934358522498	0.00208006571801834	M	das_tool
M.maxbin22.bins.tsv	37519	132	65	28926	8593	379676	4535313	0.0707926050288545	0.9981088957386	0.770969375516405	0.0707926050288545	0.00189110426139977	0.921601540068184	0.129677822832819	0.22420487914851	0.00189110426139982	0.0707926050288545	M	maxbin22
M.metabat2.bins.tsv	37519	132	51	15577	21942	3126685	1788304	0.00495725690601229	0.987878995451447	0.415176310669261	0.00495725690601229	0.0121210045485531	0.364235857872415	0.00979753008147416	0.0272017391855876	0.012121004548553	0.00495725690601229	M	metabat2
M.metabat2.w.abd.bins.tsv	37519	132	50	15988	21531	3169567	1745422	0.00501890565380287	0.987814616461219	0.426130760414723	0.00501890565380287	0.0121853835387812	0.355660202870949	0.00992096365147061	0.0273937583205198	0.0121853835387812	0.00501890565380287	M	metabat2.w.abd
M.metabat.bins.tsv	37519	132	50	15988	21531	3169567	1745422	0.00501890565380287	0.987814616461219	0.426130760414723	0.00501890565380287	0.0121853835387812	0.355660202870949	0.00992096365147061	0.0273937583205198	0.0121853835387812	0.00501890565380287	M	metabat
M.metabat.w.abd.bins.tsv	37519	132	69	16570	20949	3068352	1846637	0.00537128653495939	0.988782845876977	0.441642900930195	0.00537128653495939	0.011217154123023	0.376214839027014	0.0106134911756539	0.029689165498084	0.0112171541230229	0.00537128653495939	M	metabat.w.abd
M.metaprob.bins.tsv	37519	132	65	32719	4800	95443	4819546	0.255294080928824	0.99900504648713	0.872064820490951	0.255294080928824	0.000994953512869931	0.979759144255799	0.394963816007871	0.467004039210686	0.000994953512869934	0.255294080928824	M	metaprob
M.reference.tsv	37519	132	132	37519	0	0	4914989	1	1	1	1	0	1	1	1	0	1	M	reference
S.cocacola.bins.tsv	15837	50	26	12335	3502	41163	734850	0.230569367079143	0.995257004789044	0.778872261160573	0.230569367079143	0.00474299521095629	0.943594115047042	0.355808754597245	0.411403705463042	0.00474299521095634	0.230569367079143	S	cocacola
S.concoct.bins.tsv	15837	50	46	14601	1236	9844	766169	0.597300061362242	0.998389377186753	0.921954915703732	0.597300061362242	0.00161062281324724	0.986007450906106	0.724939178789534	0.736765398359661	0.0016106228132472	0.597300061362242	S	concoct
S.das_tool.bins.tsv	15837	50	3	243	15594	728825	47188	0.000333302243412137	0.751616705425122	0.0153438151164993	0.000333302243412137	0.248383294574878	0.059898970764665	0.00065243218933958	0.000513536963820666	0.248383294574878	0.000333302243412137	S	das_tool
S.maxbin22.bins.tsv	15837	50	30	13328	2509	79147	696866	0.144125439307921	0.996412511170688	0.841573530340342	0.144125439307921	0.00358748882931189	0.896879459493591	0.246103848142403	0.329442530222804	0.00358748882931192	0.144125439307921	S	maxbin22
S.metabat2.bins.tsv	15837	50	30	7899	7938	389951	386062	0.0198542164132211	0.979852791878173	0.498768706194355	0.0198542164132211	0.0201472081218274	0.497519732272526	0.0381882921145697	0.0694872016066015	0.0201472081218275	0.0198542164132211	S	metabat2
S.metabat2.w.abd.bins.tsv	15837	50	32	7804	8033	392435	383578	0.0194983497360327	0.979487297343537	0.492770095346341	0.0194983497360327	0.0205127026564627	0.494262802298415	0.0375123775464098	0.0682132303994532	0.0205127026564627	0.0194983497360327	S	metabat2.w.abd
S.metabat.bins.tsv	15837	50	32	7804	8033	392435	383578	0.0194983497360327	0.979487297343537	0.492770095346341	0.0194983497360327	0.0205127026564627	0.494262802298415	0.0375123775464098	0.0682132303994532	0.0205127026564627	0.0194983497360327	S	metabat
S.metabat.w.abd.bins.tsv	15837	50	36	7914	7923	389058	386955	0.0199359148756084	0.979935575038366	0.49971585527562	0.0199359148756084	0.0200644249616337	0.498666414093578	0.0383421873069628	0.0697795546027711	0.0200644249616337	0.0199359148756084	S	metabat.w.abd
S.metaprob.bins.tsv	15837	50	39	13596	2241	15372	760641	0.469345484672742	0.997062455268311	0.858495927258951	0.469345484672742	0.00293754473168852	0.977757150975564	0.606896551724138	0.627527180916894	0.0029375447316885	0.469345484672742	S	metaprob
S.reference.tsv	15837	50	50	15837	0	0	776013	1	1	1	1	0	1	1	1	0	1	S	reference
