	Command being timed: "MetaProb -si input/M.Scaffolds.1kb+.split10kb.fasta -dirOutput output/M.bins/ -graphType 1 -feature 2 -m 45"
	User time (seconds): 207805.91
	System time (seconds): 2241.13
	Percent of CPU this job got: 6072%
	Elapsed (wall clock) time (h:mm:ss or m:ss): 57:39.25
	Average shared text size (kbytes): 0
	Average unshared data size (kbytes): 0
	Average stack size (kbytes): 0
	Average total size (kbytes): 0
	Maximum resident set size (kbytes): 20325548
	Average resident set size (kbytes): 0
	Major (requiring I/O) page faults: 5
	Minor (reclaiming a frame) page faults: 4852531
	Voluntary context switches: 97238677
	Involuntary context switches: 41350058
	Swaps: 0
	File system inputs: 4440
	File system outputs: 0
	Socket messages sent: 0
	Socket messages received: 0
	Signals delivered: 0
	Page size (bytes): 4096
	Exit status: 0
