1030770;bin.159.fa
1286_T;bin.367.fa
1021_Q;bin.217.fa
1286_AC;bin.537.fa
1036638;bin.299.fa
evo_1036569.002;bin.290.fa
1036794;bin.80.fa
1021_AN;UNBINNED
1285_AP;bin.368.fa
1035936;bin.522.fa
1139_CP;UNBINNED
evo_1036686.006;bin.130.fa
1030734;bin.346.fa
1287_AT;bin.545.fa
1048948;bin.260.fa
1286_CC;bin.541.fa
1139_CH;UNBINNED
1285_N;bin.127.fa
1036689;bin.415.fa
1036611;bin.280.fa
1287_BG;bin.413.fa
1287_BR;bin.580.fa
1285_CO;bin.165.fa
1048969;bin.256.fa
1220_BQ;bin.91.fa
evo_1220_Q.021;bin.248.fa
1030710;bin.587.fa
1286_I;UNBINNED
1286_Q;bin.91.fa
evo_1030719.021;bin.324.fa
1049041;bin.451.fa
1220_CD;bin.288.fa
1030773;bin.87.fa
1285_CN;bin.263.fa
1286_CJ;bin.365.fa
1021_R;UNBINNED
1021_L;bin.180.fa
1286_BR;UNBINNED
1030830;bin.128.fa
1139_Q;bin.293.fa
1030845;bin.32.fa
1021_AI;bin.434.fa
1285_C;bin.174.fa
1139_BE;UNBINNED
1220_M;bin.556.fa
1048951;bin.126.fa
evo_1030719.036;bin.194.fa
1220_CI;bin.50.fa
1287_B;bin.428.fa
1285_AJ;bin.7.fa
1030956;bin.265.fa
1139_BU;bin.189.fa
evo_1030827.025;bin.339.fa
1036572;bin.348.fa
1287_AL;UNBINNED
1048894;bin.452.fa
1285_AW;UNBINNED
1052989;bin.550.fa
1049002;bin.349.fa
1021_BD;UNBINNED
evo_1030719.013;bin.324.fa
1220_Z;bin.436.fa
1139_AH;bin.409.fa
1021_G;bin.552.fa
1030833;bin.333.fa
1287_CM;bin.439.fa
1036002;bin.111.fa
1286_CA;UNBINNED
1139_CK;bin.249.fa
1286_AN;bin.37.fa
evo_1030827.038;bin.215.fa
evo_1036662.016;bin.125.fa
1139_U;UNBINNED
1220_AK;bin.146.fa
evo_1048975.035;bin.364.fa
1049023;bin.561.fa
1052986;bin.550.fa
1139_CD;bin.379.fa
1021_BE;bin.444.fa
1052962;UNBINNED
Sample6_423;UNBINNED
1286_CN;bin.236.fa
1139_AR;bin.321.fa
1139_AX;bin.450.fa
evo_1036569.031;UNBINNED
1287_AA;bin.218.fa
1053010;bin.328.fa
1048957;bin.347.fa
1286_K;UNBINNED
1220_AZ;UNBINNED
1286_CG;UNBINNED
1220_BU;UNBINNED
1220_G;UNBINNED
1010920;bin.425.fa
evo_1052956.019;bin.76.fa
1052956;UNBINNED
1285_AM;UNBINNED
1036647;bin.155.fa
1048906;bin.162.fa
1021_H;bin.418.fa
1052980;bin.550.fa
evo_1220_W.027;bin.408.fa
1285_AR;bin.286.fa
1036617;bin.449.fa
1285_BZ;bin.397.fa
1035909;bin.312.fa
1036656;bin.322.fa
1220_CH;bin.496.fa
1220_BC;bin.590.fa
1030827;bin.215.fa
1030821;bin.29.fa
1048924;bin.406.fa
1286_BO;UNBINNED
1287_BF;bin.367.fa
1030911;bin.172.fa
1053052;bin.173.fa
1035978;bin.255.fa
1220_D;bin.496.fa
1220_BI;bin.181.fa
1036560;bin.59.fa
evo_1220_W.003;bin.408.fa
1048873;bin.93.fa
1139_BK;bin.241.fa
1021_AE;UNBINNED
1053007;bin.328.fa
1053043;bin.82.fa
Sample18_26;UNBINNED
1048954;bin.132.fa
1285_CB;bin.244.fa
1139_CC;bin.151.fa
1286_X;bin.200.fa
1139_BO;bin.374.fa
1036653;bin.559.fa
1035897;bin.269.fa
1285_Q;UNBINNED
evo_1052962.024;UNBINNED
1049086;UNBINNED
1285_CR;bin.208.fa
1220_BO;bin.356.fa
1035990;bin.60.fa
1021_U;UNBINNED
1285_AF;bin.538.fa
1021_O;bin.77.fa
1030809;bin.317.fa
Sample16_163;UNBINNED
1048999;bin.446.fa
1048765;bin.285.fa
evo_1052956.020;bin.76.fa
1285_Z;UNBINNED
1036581;bin.309.fa
1287_BZ;bin.160.fa
evo_1030827.033;bin.316.fa
1220_B;bin.434.fa
1286_AR;bin.236.fa
1139_AS;bin.223.fa
1036713;bin.462.fa
1036710;bin.152.fa
1048786;bin.420.fa
1052983;bin.550.fa
1220_V;bin.195.fa
1285_A;bin.482.fa
1220_CK;bin.50.fa
1048972;UNBINNED
1286_AS;bin.208.fa
1220_BL;bin.524.fa
1139_CI;bin.203.fa
1035996;bin.438.fa
1220_AI;bin.149.fa
1285_CI;UNBINNED
evo_1048963.008;bin.46.fa
1035945;bin.361.fa
1285_AI;UNBINNED
1036671;bin.454.fa
1286_U;bin.208.fa
evo_1030719.005;bin.324.fa
evo_1030719.009;bin.324.fa
1030839;bin.238.fa
1048888;bin.141.fa
1286_AW;bin.271.fa
1220_I;bin.261.fa
1030794;bin.39.fa
1036674;bin.318.fa
evo_1220_Q.019;bin.403.fa
1139_BD;bin.560.fa
1286_AK;UNBINNED
1139_BW;bin.203.fa
1285_CH;bin.61.fa
1287_CI;bin.198.fa
1036575;bin.35.fa
1287_AN;bin.381.fa
1036662;bin.166.fa
1048657;bin.359.fa
1220_R;UNBINNED
1049074;bin.251.fa
1021_AH;bin.363.fa
1049044;bin.142.fa
1220_H;bin.205.fa
1048576;bin.385.fa
1286_CE;UNBINNED
1286_W;UNBINNED
1286_CI;bin.302.fa
1036551;bin.301.fa
1030785;bin.509.fa
1030722;bin.335.fa
1049017;UNBINNED
1139_S;bin.418.fa
1049065;bin.306.fa
1049080;bin.337.fa
1030965;bin.239.fa
1036725;bin.376.fa
1285_AQ;bin.72.fa
1286_AH;bin.490.fa
1285_CA;bin.284.fa
1030818;bin.231.fa
1220_BM;bin.149.fa
1285_BQ;bin.519.fa
1285_AV;UNBINNED
1036752;bin.557.fa
1048768;bin.300.fa
evo_1036662.017;bin.277.fa
1021_M;bin.351.fa
1035948;UNBINNED
1021_AZ;UNBINNED
1287_AE;UNBINNED
evo_1220_Q.034;bin.594.fa
1285_G;bin.489.fa
1049068;bin.256.fa
1139_CG;UNBINNED
1285_CQ;bin.205.fa
1285_CC;bin.480.fa
1139_P;bin.170.fa
Sample19_247;UNBINNED
1287_CC;UNBINNED
1036548;bin.323.fa
1139_BL;bin.329.fa
1049062;bin.394.fa
1030791;bin.74.fa
1030797;bin.199.fa
1286_BL;UNBINNED
1030824;bin.257.fa
1139_J;bin.434.fa
1286_AB;bin.563.fa
1139_O;bin.502.fa
1285_CJ;UNBINNED
1139_AY;bin.106.fa
1220_AA;bin.353.fa
1220_AC;bin.97.fa
1286_BA;UNBINNED
evo_1030719.028;bin.324.fa
1286_CQ;bin.222.fa
1048780;bin.360.fa
1220_BP;bin.91.fa
1035999;bin.570.fa
1287_AF;bin.470.fa
1036692;bin.119.fa
1220_AH;bin.336.fa
evo_1048975.026;bin.307.fa
1220_AF;bin.234.fa
1286_E;bin.274.fa
1139_BN;bin.188.fa
1049077;bin.547.fa
Sample22_151;UNBINNED
1036587;bin.588.fa
1286_AJ;bin.121.fa
1021_A;bin.298.fa
1220_L;bin.404.fa
1285_BI;bin.529.fa
1287_F;bin.133.fa
1285_CP;bin.127.fa
1139_C;bin.293.fa
1365_O;bin.350.fa
1286_BI;UNBINNED
1286_AZ;bin.208.fa
1021_N;UNBINNED
1285_AE;UNBINNED
1287_CP;UNBINNED
1285_AZ;bin.497.fa
1286_BE;bin.28.fa
1285_O;bin.595.fa
1287_G;UNBINNED
1139_BC;bin.560.fa
1286_AG;bin.338.fa
1021_Y;UNBINNED
1021_T;bin.95.fa
1286_BY;bin.143.fa
1036677;bin.206.fa
1036659;bin.281.fa
1053046;bin.398.fa
1286_CD;UNBINNED
1048975;bin.364.fa
1035933;bin.460.fa
1048864;bin.542.fa
1285_BU;bin.90.fa
1035972;bin.79.fa
1285_CM;bin.196.fa
1220_AG;bin.191.fa
1139_AK;bin.479.fa
1139_AZ;bin.381.fa
1139_CA;bin.429.fa
evo_1036569.028;bin.378.fa
1287_CK;bin.382.fa
1220_Q;UNBINNED
1286_AU;bin.51.fa
evo_1052962.017;UNBINNED
1048981;bin.75.fa
1286_CO;bin.137.fa
1286_BC;bin.22.fa
1030890;bin.371.fa
evo_1048972.019;bin.343.fa
1139_BQ;bin.442.fa
1048867;bin.483.fa
1287_CG;UNBINNED
1030929;bin.237.fa
1139_BI;bin.504.fa
1036569;bin.254.fa
1036779;bin.253.fa
1286_BF;bin.402.fa
1220_U;bin.524.fa
1285_BL;bin.521.fa
1287_AW;bin.236.fa
1285_K;bin.273.fa
1021_S;UNBINNED
1036776;bin.232.fa
evo_1030719.037;bin.194.fa
1286_BN;bin.208.fa
1036542;bin.465.fa
evo_1220_W.025;bin.327.fa
Sample22_530;bin.547.fa
1036545;bin.491.fa
1286_BQ;UNBINNED
evo_1036686.021;bin.383.fa
1286_BP;bin.319.fa
1286_CF;bin.441.fa
1021_BA;bin.429.fa
1365_P;bin.350.fa
1030803;bin.182.fa
evo_1052962.015;UNBINNED
evo_1052956.014;bin.76.fa
Sample20_25;UNBINNED
1220_T;bin.133.fa
Sample20_40;UNBINNED
1285_BN;bin.48.fa
1286_AL;UNBINNED
1049008;bin.243.fa
1049059;bin.384.fa
evo_1048987.032;UNBINNED
1036605;bin.287.fa
1021_F;bin.101.fa
1049026;bin.370.fa
1286_CL;bin.566.fa
1049071;bin.320.fa
1036596;bin.458.fa
1036758;bin.426.fa
1286_CH;bin.139.fa
1048903;bin.586.fa
1053019;bin.328.fa
1286_L;UNBINNED
1139_M;bin.296.fa
1139_CB;bin.249.fa
evo_1048969.002;bin.332.fa
1286_AA;bin.508.fa
evo_1220_Q.030;bin.62.fa
Sample20_175;UNBINNED
1220_AU;bin.433.fa
1030947;bin.96.fa
1286_AM;bin.207.fa
1285_BJ;bin.63.fa
1048960;bin.113.fa
1287_CD;bin.490.fa
1139_AO;bin.70.fa
1285_BW;bin.175.fa
1285_BB;bin.490.fa
1139_BG;bin.164.fa
1036761;bin.120.fa
1030917;bin.313.fa
1287_AO;bin.205.fa
1048855;bin.81.fa
1287_CH;bin.293.fa
1365_E;bin.597.fa
1030935;bin.235.fa
1048933;UNBINNED
Sample23_189;UNBINNED
1285_BC;UNBINNED
1036719;bin.49.fa
1035984;bin.311.fa
1220_Y;bin.187.fa
1030815;UNBINNED
1036584;bin.485.fa
Sample18_281;UNBINNED
evo_1030719.003;bin.355.fa
1287_BL;bin.405.fa
1139_BM;UNBINNED
1139_R;UNBINNED
1220_AM;bin.473.fa
Sample24_320;UNBINNED
1220_W;UNBINNED
1139_BZ;bin.198.fa
1048915;bin.150.fa
Sample23_215;UNBINNED
1139_AQ;bin.220.fa
1030758;bin.488.fa
evo_1036569.006;bin.304.fa
1036602;bin.201.fa
evo_1052962.028;UNBINNED
1285_AO;UNBINNED
1036665;bin.86.fa
1048918;bin.530.fa
1030872;bin.380.fa
1048984;bin.373.fa
1030719;bin.194.fa
1139_AC;bin.272.fa
Sample23_316;UNBINNED
1285_Y;UNBINNED
1035975;bin.352.fa
evo_1048963.038;bin.11.fa
1036620;bin.190.fa
1286_BH;bin.431.fa
1285_BY;bin.165.fa
1287_O;bin.264.fa
evo_1048987.039;UNBINNED
1036008;bin.178.fa
1220_CE;bin.310.fa
Sample18_209;UNBINNED
1220_CC;UNBINNED
1048930;bin.136.fa
1287_BV;bin.144.fa
1220_BH;UNBINNED
1286_AY;bin.531.fa
1036686;bin.383.fa
1021_I;bin.418.fa
1286_BJ;bin.205.fa
1036764;bin.161.fa
1139_AP;UNBINNED
1365_H;bin.527.fa
1286_BG;bin.278.fa
1285_BP;bin.508.fa
1048936;bin.216.fa
1286_H;bin.492.fa
1139_BT;bin.308.fa
1287_C;UNBINNED
1036722;bin.443.fa
evo_1030719.017;bin.324.fa
1048879;bin.393.fa
1048582;bin.549.fa
1285_L;bin.487.fa
evo_1036686.005;bin.130.fa
1285_F;bin.20.fa
evo_1036686.032;bin.107.fa
1030788;bin.158.fa
1286_AD;bin.258.fa
1286_BK;bin.362.fa
1048891;bin.578.fa
1053016;bin.328.fa
1049053;bin.134.fa
1048771;bin.510.fa
1285_U;bin.584.fa
1139_AJ;bin.188.fa
Sample24_74;UNBINNED
1220_BA;bin.448.fa
Sample23_398;UNBINNED
1286_V;bin.41.fa
1036770;bin.221.fa
1220_AQ;bin.131.fa
Sample18_25;UNBINNED
1030761;bin.598.fa
Sample23_496;UNBINNED
1220_BV;bin.418.fa
1035924;bin.325.fa
1030707;bin.463.fa
1285_AG;UNBINNED
evo_1048969.022;bin.168.fa
1139_BS;bin.388.fa
1287_BM;bin.413.fa
1365_F;bin.78.fa
1286_AX;bin.19.fa
1139_G;UNBINNED
1285_AT;bin.314.fa
1030875;bin.341.fa
1048990;bin.468.fa
evo_1036569.014;UNBINNED
evo_1048963.035;bin.83.fa
1220_AB;bin.108.fa
Sample16_269;UNBINNED
1287_D;bin.179.fa
1285_BS;UNBINNED
1286_BT;bin.98.fa
evo_1030719.011;bin.324.fa
1030713;bin.599.fa
1286_CK;UNBINNED
1036650;bin.176.fa
1139_BY;bin.23.fa
1220_AV;UNBINNED
1220_AL;bin.447.fa
Sample18_138;UNBINNED
1048963;bin.211.fa
1287_CL;bin.386.fa
1286_AE;bin.295.fa
Sample19_280;UNBINNED
evo_1048975.038;bin.100.fa
Sample18_5;UNBINNED
1048912;bin.169.fa
1035915;bin.392.fa
1036563;bin.66.fa
1285_CD;bin.245.fa
1036593;bin.477.fa
1036797;bin.535.fa
1139_CL;UNBINNED
1030764;bin.210.fa
Sample18_91;UNBINNED
1036698;bin.138.fa
1285_I;bin.10.fa
1030704;bin.412.fa
1021_AC;bin.264.fa
1220_AP;UNBINNED
1030857;bin.105.fa
1220_C;UNBINNED
1036578;bin.532.fa
Sample19_254;UNBINNED
1220_BE;UNBINNED
1287_AG;UNBINNED
1036734;bin.528.fa
1285_BE;UNBINNED
evo_1048972.030;bin.453.fa
evo_1036569.020;UNBINNED
1220_N;UNBINNED
1286_BX;bin.455.fa
1035987;bin.345.fa
1287_I;bin.236.fa
Sample18_82;UNBINNED
Sample19_366;UNBINNED
1285_BX;bin.456.fa
1285_X;UNBINNED
Sample16_138;UNBINNED
1365_D;bin.276.fa
1048876;bin.340.fa
1139_I;bin.53.fa
1285_CL;bin.245.fa
1036632;UNBINNED
Sample6_306;UNBINNED
1048987;UNBINNED
1285_BT;UNBINNED
1285_M;bin.432.fa
Sample15_48;UNBINNED
Sample23_195;UNBINNED
1021_BF;UNBINNED
1048909;bin.150.fa
1286_N;bin.233.fa
Sample6_391;UNBINNED
1036599;UNBINNED
1220_BT;bin.472.fa
1049014;bin.26.fa
Sample23_434;UNBINNED
1036623;bin.291.fa
1030860;bin.568.fa
1021_W;bin.534.fa
evo_1036569.038;UNBINNED
1286_CR;UNBINNED
1030749;bin.52.fa
Sample22_252;UNBINNED
1285_W;bin.540.fa
1139_BH;bin.246.fa
1285_H;bin.526.fa
1036806;bin.40.fa
evo_1036674.014;bin.518.fa
1035912;bin.31.fa
1285_T;bin.543.fa
Sample23_447;UNBINNED
1049047;UNBINNED
Sample18_83;UNBINNED
Sample19_19;UNBINNED
1049038;bin.399.fa
Sample22_34;UNBINNED
1030893;bin.592.fa
Sample23_107;UNBINNED
1139_F;bin.171.fa
Sample16_207;UNBINNED
1285_AN;UNBINNED
1030767;UNBINNED
1048777;bin.577.fa
1048774;bin.474.fa
1036773;bin.202.fa
1286_M;bin.562.fa
1139_BV;bin.156.fa
1021_AR;UNBINNED
Sample23_17;UNBINNED
Sample23_392;UNBINNED
Sample18_332;UNBINNED
1220_AS;UNBINNED
Sample22_40;UNBINNED
1139_CM;bin.551.fa
1048762;bin.110.fa
1139_CE;bin.50.fa
Sample23_253;UNBINNED
Sample9_102;UNBINNED
Sample24_64;UNBINNED
1286_AQ;bin.480.fa
1285_AY;bin.554.fa
Sample15_7;UNBINNED
Sample18_154;UNBINNED
1030731;bin.481.fa
1053013;bin.328.fa
1139_AN;UNBINNED
Sample18_14;UNBINNED
1286_CB;bin.410.fa
Sample15_6;UNBINNED
1286_C;UNBINNED
1030746;bin.555.fa
1287_Y;bin.292.fa
Sample9_68;UNBINNED
1048900;bin.407.fa
1287_BW;bin.157.fa
Sample22_240;UNBINNED
1285_D;bin.302.fa
1048882;bin.542.fa
1036590;bin.25.fa
Sample20_101;UNBINNED
1285_BG;bin.99.fa
1036668;bin.124.fa
1365_B;UNBINNED
1139_V;bin.377.fa
1365_I;bin.177.fa
Sample9_78;UNBINNED
Sample19_367;bin.187.fa
Sample9_189;UNBINNED
Sample9_122;UNBINNED
Sample16_27;UNBINNED
Sample22_700;UNBINNED
Sample6_863;UNBINNED
1285_BK;bin.357.fa
1286_CM;bin.596.fa
1286_AT;bin.17.fa
Sample22_575;UNBINNED
1287_P;UNBINNED
1287_AV;bin.564.fa
Sample18_58;UNBINNED
1220_F;bin.241.fa
1285_AH;bin.85.fa
Sample23_349;UNBINNED
Sample23_303;UNBINNED
1365_G;bin.282.fa
Sample23_346;UNBINNED
Sample18_35;UNBINNED
Sample6_333;UNBINNED
Sample15_99;UNBINNED
Sample9_179;UNBINNED
1030743;bin.1.fa
Sample18_11;UNBINNED
1286_A;bin.157.fa
Sample9_183;UNBINNED
1285_AB;bin.42.fa
Sample23_106;UNBINNED
1036746;bin.250.fa
1220_BK;bin.117.fa
1285_E;UNBINNED
1049029;bin.536.fa
Sample18_369;UNBINNED
Sample6_553;UNBINNED
Sample23_387;UNBINNED
Sample19_242;UNBINNED
Sample19_77;UNBINNED
Sample23_339;UNBINNED
Sample6_94;UNBINNED
evo_1048972.034;bin.204.fa
Sample23_112;UNBINNED
Sample23_59;UNBINNED
Sample18_225;UNBINNED
Sample22_519;UNBINNED
Sample23_169;UNBINNED
Sample22_22;UNBINNED
1049211;bin.506.fa
Sample24_145;UNBINNED
Sample20_80;UNBINNED
Sample15_60;UNBINNED
Sample18_364;UNBINNED
Sample24_101;UNBINNED
1287_BU;bin.368.fa
Sample20_1;UNBINNED
1286_AV;bin.520.fa
1030725;bin.493.fa
Sample18_127;UNBINNED
1285_BA;bin.484.fa
Sample9_156;UNBINNED
Sample23_394;UNBINNED
Sample6_39;UNBINNED
Sample15_18;UNBINNED
Sample16_127;UNBINNED
Sample18_224;UNBINNED
1048927;bin.523.fa
Sample24_41;UNBINNED
Sample6_173;UNBINNED
Sample22_478;UNBINNED
Sample23_45;UNBINNED
Sample16_136;UNBINNED
1021_B;UNBINNED
Sample9_91;UNBINNED
Sample9_190;UNBINNED
Sample15_36;UNBINNED
Sample23_340;UNBINNED
Sample18_291;UNBINNED
Sample23_543;UNBINNED
Sample6_273;UNBINNED
Sample18_45;UNBINNED
1287_H;bin.572.fa
Sample16_169;UNBINNED
Sample19_32;UNBINNED
Sample23_102;UNBINNED
Sample6_389;UNBINNED
Sample23_64;UNBINNED
Sample23_155;UNBINNED
Sample23_319;UNBINNED
Sample23_50;UNBINNED
Sample23_520;UNBINNED
Sample6_634;UNBINNED
Sample18_238;UNBINNED
Sample20_24;UNBINNED
Sample16_174;UNBINNED
Sample20_131;UNBINNED
Sample6_566;UNBINNED
Sample9_226;UNBINNED
Sample19_392;UNBINNED
Sample18_306;UNBINNED
Sample15_114;UNBINNED
Sample23_62;UNBINNED
Sample15_94;UNBINNED
Sample18_167;UNBINNED
Sample19_293;UNBINNED
Sample15_33;UNBINNED
Sample18_273;UNBINNED
Sample19_175;UNBINNED
Sample23_477;UNBINNED
Sample22_473;UNBINNED
Sample9_20;UNBINNED
Sample6_16;UNBINNED
Sample6_183;UNBINNED
Sample6_72;UNBINNED
Sample9_93;UNBINNED
Sample18_309;UNBINNED
Sample15_71;UNBINNED
Sample23_307;UNBINNED
Sample18_59;UNBINNED
Sample9_104;UNBINNED
Sample22_456;UNBINNED
Sample18_90;UNBINNED
Sample9_180;UNBINNED
Sample20_136;UNBINNED
Sample15_81;UNBINNED
Sample9_188;UNBINNED
Sample23_291;UNBINNED
Sample22_90;UNBINNED
Sample18_24;UNBINNED
1286_F;bin.208.fa
Sample15_19;UNBINNED
Sample19_105;UNBINNED
Sample18_334;UNBINNED
Sample23_179;UNBINNED
Sample16_21;UNBINNED
Sample15_8;UNBINNED
Sample22_836;UNBINNED
Sample9_74;UNBINNED
Sample6_171;UNBINNED
Sample16_196;UNBINNED
Sample22_167;UNBINNED
Sample9_22;UNBINNED
Sample18_131;UNBINNED
Sample23_221;UNBINNED
Sample6_670;UNBINNED
Sample6_35;UNBINNED
Sample9_170;UNBINNED
1220_CG;UNBINNED
Sample16_83;UNBINNED
Sample19_391;UNBINNED
Sample9_82;UNBINNED
Sample23_325;UNBINNED
Sample6_84;UNBINNED
Sample6_96;UNBINNED
Sample22_306;UNBINNED
Sample9_207;UNBINNED
Sample19_21;UNBINNED
Sample15_123;UNBINNED
Sample23_336;UNBINNED
Sample23_343;UNBINNED
Sample19_146;UNBINNED
Sample23_589;UNBINNED
Sample16_212;UNBINNED
1220_K;bin.495.fa
Sample23_230;UNBINNED
Sample18_363;UNBINNED
Sample9_64;UNBINNED
Sample19_117;UNBINNED
Sample18_227;UNBINNED
Sample18_54;UNBINNED
Sample18_87;UNBINNED
Sample23_153;UNBINNED
Sample15_35;UNBINNED
Sample20_33;UNBINNED
Sample23_54;UNBINNED
1220_BW;bin.533.fa
Sample18_308;UNBINNED
Sample15_109;UNBINNED
Sample9_57;UNBINNED
Sample18_301;UNBINNED
Sample18_296;UNBINNED
Sample22_168;UNBINNED
Sample18_176;UNBINNED
Sample18_1;UNBINNED
Sample6_89;UNBINNED
Sample16_58;UNBINNED
Sample22_404;UNBINNED
Sample16_319;UNBINNED
Sample6_843;UNBINNED
Sample18_280;UNBINNED
Sample16_195;UNBINNED
Sample16_56;UNBINNED
Sample6_936;UNBINNED
Sample18_358;UNBINNED
Sample18_70;UNBINNED
Sample15_27;UNBINNED
Sample20_94;UNBINNED
Sample23_441;UNBINNED
Sample18_335;UNBINNED
Sample19_209;UNBINNED
Sample16_87;UNBINNED
Sample18_2;UNBINNED
Sample18_213;UNBINNED
Sample6_260;UNBINNED
Sample23_136;UNBINNED
Sample23_532;UNBINNED
Sample22_149;UNBINNED
Sample24_92;UNBINNED
Sample18_69;UNBINNED
Sample9_98;UNBINNED
Sample22_187;UNBINNED
Sample6_102;UNBINNED
Sample6_188;UNBINNED
Sample6_180;UNBINNED
Sample9_109;UNBINNED
Sample22_596;UNBINNED
Sample16_112;UNBINNED
Sample6_33;UNBINNED
Sample9_200;UNBINNED
Sample18_293;UNBINNED
Sample23_443;UNBINNED
Sample19_220;UNBINNED
Sample9_33;UNBINNED
Sample15_82;UNBINNED
Sample19_75;UNBINNED
Sample6_746;UNBINNED
Sample6_130;UNBINNED
Sample23_324;UNBINNED
Sample18_97;UNBINNED
Sample18_214;UNBINNED
Sample24_56;UNBINNED
Sample9_37;UNBINNED
Sample19_180;UNBINNED
Sample23_311;UNBINNED
Sample18_55;UNBINNED
Sample18_236;UNBINNED
Sample15_78;UNBINNED
Sample18_41;UNBINNED
Sample20_43;UNBINNED
Sample6_632;UNBINNED
Sample9_119;UNBINNED
Sample9_128;UNBINNED
Sample24_100;UNBINNED
Sample18_294;UNBINNED
Sample9_73;UNBINNED
Sample9_124;UNBINNED
Sample16_339;UNBINNED
Sample19_37;UNBINNED
Sample23_176;UNBINNED
Sample15_65;UNBINNED
Sample9_172;UNBINNED
Sample15_84;UNBINNED
Sample19_315;UNBINNED
Sample16_335;UNBINNED
Sample23_329;UNBINNED
Sample6_608;UNBINNED
Sample9_39;UNBINNED
Sample20_122;UNBINNED
Sample23_101;UNBINNED
Sample19_39;UNBINNED
Sample9_134;UNBINNED
Sample20_124;UNBINNED
Sample19_350;UNBINNED
Sample9_32;bin.350.fa
Sample22_408;UNBINNED
Sample22_770;UNBINNED
Sample15_28;UNBINNED
Sample9_63;UNBINNED
Sample19_62;UNBINNED
Sample16_72;UNBINNED
Sample18_341;UNBINNED
Sample20_78;UNBINNED
Sample6_224;UNBINNED
Sample9_139;UNBINNED
Sample6_421;UNBINNED
Sample22_482;UNBINNED
Sample23_295;UNBINNED
Sample6_40;UNBINNED
Sample18_370;UNBINNED
Sample6_47;UNBINNED
Sample19_153;UNBINNED
Sample9_147;UNBINNED
Sample6_823;UNBINNED
Sample6_485;UNBINNED
Sample22_102;UNBINNED
Sample16_289;UNBINNED
Sample23_601;UNBINNED
Sample19_215;UNBINNED
Sample18_179;UNBINNED
Sample18_278;UNBINNED
Sample6_894;UNBINNED
Sample23_206;UNBINNED
1021_AG;bin.315.fa
Sample22_373;UNBINNED
Sample9_115;UNBINNED
Sample20_145;UNBINNED
Sample23_32;bin.547.fa
Sample6_588;UNBINNED
Sample9_110;UNBINNED
Sample18_52;UNBINNED
Sample20_130;UNBINNED
Sample15_29;UNBINNED
Sample22_30;UNBINNED
Sample6_590;UNBINNED
Sample23_519;UNBINNED
Sample16_194;UNBINNED
Sample23_315;UNBINNED
Sample23_76;UNBINNED
Sample15_105;UNBINNED
Sample23_122;UNBINNED
Sample23_236;UNBINNED
Sample23_358;UNBINNED
Sample6_752;UNBINNED
Sample16_37;UNBINNED
Sample23_269;UNBINNED
Sample23_455;UNBINNED
Sample18_316;UNBINNED
Sample23_557;UNBINNED
Sample23_184;UNBINNED
Sample15_69;UNBINNED
Sample19_275;UNBINNED
Sample23_111;UNBINNED
Sample15_115;UNBINNED
Sample16_57;UNBINNED
Sample6_227;UNBINNED
Sample19_212;UNBINNED
Sample19_241;UNBINNED
Sample23_304;UNBINNED
Sample9_232;UNBINNED
Sample9_213;UNBINNED
Sample15_25;UNBINNED
Sample18_356;UNBINNED
Sample16_184;UNBINNED
Sample20_158;UNBINNED
Sample16_144;UNBINNED
Sample9_6;UNBINNED
Sample9_145;UNBINNED
Sample18_302;UNBINNED
Sample18_159;bin.244.fa
Sample15_67;UNBINNED
Sample19_286;UNBINNED
Sample23_74;UNBINNED
Sample19_89;UNBINNED
Sample9_125;UNBINNED
Sample16_271;UNBINNED
Sample20_58;UNBINNED
Sample6_837;UNBINNED
Sample24_20;UNBINNED
Sample16_78;bin.547.fa
Sample15_50;UNBINNED
Sample9_224;UNBINNED
Sample18_121;UNBINNED
Sample9_157;UNBINNED
Sample9_96;UNBINNED
Sample9_149;UNBINNED
Sample18_300;UNBINNED
Sample18_360;UNBINNED
Sample20_85;UNBINNED
Sample23_156;UNBINNED
Sample16_29;UNBINNED
Sample6_125;UNBINNED
Sample22_305;UNBINNED
Sample23_87;UNBINNED
Sample22_101;UNBINNED
Sample9_144;UNBINNED
Sample9_221;UNBINNED
Sample18_3;UNBINNED
Sample23_245;UNBINNED
Sample15_1;UNBINNED
Sample23_167;UNBINNED
Sample22_77;UNBINNED
Sample23_84;UNBINNED
Sample18_265;UNBINNED
Sample24_72;UNBINNED
Sample22_235;UNBINNED
Sample18_336;UNBINNED
Sample9_70;UNBINNED
Sample15_4;UNBINNED
Sample20_37;UNBINNED
Sample9_3;UNBINNED
Sample18_241;UNBINNED
Sample6_506;UNBINNED
Sample16_211;UNBINNED
Sample23_42;UNBINNED
Sample18_310;UNBINNED
Sample16_110;UNBINNED
Sample19_67;UNBINNED
Sample18_94;UNBINNED
Sample9_9;UNBINNED
Sample6_107;UNBINNED
Sample18_324;UNBINNED
Sample6_564;UNBINNED
Sample20_70;UNBINNED
Sample24_37;UNBINNED
Sample23_267;UNBINNED
Sample6_206;UNBINNED
Sample18_195;UNBINNED
Sample16_342;UNBINNED
Sample15_17;UNBINNED
Sample15_85;UNBINNED
Sample6_110;UNBINNED
Sample9_212;UNBINNED
Sample23_138;UNBINNED
Sample6_217;UNBINNED
Sample19_106;UNBINNED
Sample23_243;UNBINNED
Sample18_86;UNBINNED
Sample23_314;UNBINNED
Sample20_20;UNBINNED
Sample18_307;UNBINNED
Sample22_221;UNBINNED
Sample22_397;UNBINNED
Sample6_342;UNBINNED
Sample6_793;UNBINNED
Sample20_154;UNBINNED
Sample22_241;UNBINNED
Sample15_22;UNBINNED
Sample9_99;UNBINNED
Sample22_264;UNBINNED
Sample23_454;UNBINNED
Sample9_35;UNBINNED
Sample9_40;UNBINNED
Sample24_215;UNBINNED
Sample20_10;UNBINNED
Sample24_45;UNBINNED
Sample15_3;UNBINNED
Sample18_249;bin.475.fa
Sample9_177;UNBINNED
Sample19_78;UNBINNED
Sample23_242;UNBINNED
Sample6_508;UNBINNED
Sample23_327;UNBINNED
Sample15_119;UNBINNED
Sample23_194;UNBINNED
Sample20_5;UNBINNED
Sample6_535;UNBINNED
Sample20_108;UNBINNED
Sample6_219;UNBINNED
Sample15_54;UNBINNED
Sample15_98;UNBINNED
Sample19_13;UNBINNED
Sample6_186;UNBINNED
Sample22_416;UNBINNED
Sample18_248;UNBINNED
Sample15_86;UNBINNED
Sample18_285;UNBINNED
Sample16_25;UNBINNED
Sample9_217;UNBINNED
Sample15_95;UNBINNED
Sample18_153;UNBINNED
Sample23_58;UNBINNED
Sample9_24;UNBINNED
Sample20_79;UNBINNED
