NZ_CP012937.1;3
NC_004722.1;4
NC_000913.3;14
NC_013131.1;23
NZ_CP011078.1;29
NC_011026.1;0
NC_003030.1;9
NC_014355.1;21
NC_014623.1;35
NC_004344.2;12
NC_000964.3;25
NC_012225.1;11
NC_003911.12;20
NC_011831.1;1
NC_015873.1;28
NC_008229.1;34
NC_022664.1;31
NZ_CP007773.1;6
NC_015681.1;32
NC_015732.1;2
NC_007498.2;27
NC_012660.1;17
NC_016026.1;26
NZ_CP010423.1;29
NZ_CP008802.1;18
NC_019382.1;20
NC_017080.1;22
NC_015738.1;19
NC_008530.1;15
NC_019949.1;10
NC_000908.2;7
NC_000117.1;8
NZ_CP011072.1;20
NC_017861.1;4
NC_018721.1;5
NC_017860.1;4
NC_007795.1;5
NC_006834.1;17
NC_009481.1;36
NC_003242.2;5
NC_002205.1;5
NC_002207.1;5
NZ_AP012547.1;20
NC_002210.1;5
NZ_CP007229.1;0
NC_002211.1;5
NC_003231.1;3
NC_002209.1;5
NC_002204.1;5
NC_003235.1;3
