NZ_CP014161.1;48
NC_015277.1;4
NC_003236.1;42
NZ_CM001437.1;9
NZ_CP012329.1;25
NC_007712.1;26
NZ_CP012371.1;30
NC_003143.1;23
NC_017770.1;22
NC_016603.1;62
NZ_CP014056.1;28
NC_017098.1;34
NC_010981.1;2
NC_009901.1;75
NC_006300.1;40
NC_013171.1;53
NC_020515.1;33
NC_019682.1;5
NZ_CP011494.1;47
NZ_CP013106.1;15
NZ_CP009291.1;10
NC_019771.1;5
NZ_CP009122.1;10
NC_010163.1;2
NC_012490.1;1
NC_021081.1;32
NC_007964.1;14
NC_000913.3;16
NZ_CP007152.1;67
NC_013385.1;59
NC_010794.1;39
NZ_CP007739.1;8
NC_013522.1;49
NC_017586.1;12
NZ_CM001773.1;22
NC_018868.3;21
NZ_CP011254.1;47
NC_004722.1;4
NZ_CP007446.1;68
NZ_CP013067.1;44
NC_015214.1;56
NZ_CP009687.1;2
NZ_CP011366.1;56
NZ_CP011265.1;29
NZ_CP015882.1;14
NC_011901.1;31
NC_007802.1;9
NZ_LN907858.1;57
NZ_CP008953.1;3
NC_009617.1;2
NZ_CP015881.1;14
NC_015172.1;27
NC_021663.1;50
NZ_LN869922.1;9
NZ_CP009215.1;58
NZ_CP015880.1;14
NC_010296.1;9
NZ_CM001859.1;73
NC_018681.1;9
NZ_AP014568.1;38
NC_014633.1;2
NC_004917.1;77
NC_003888.3;6
NZ_CP010799.1;20
NC_016751.1;13
NZ_CP012076.1;17
NZ_CP010800.1;20
NC_014759.1;2
NC_010511.1;12
NZ_CP011078.1;9
NC_013771.1;2
NC_015425.1;9
NZ_LN515532.1;9
NC_018027.1;3
NC_003233.1;42
NC_004557.1;2
NZ_CP009123.1;9
NC_014166.1;9
NC_015656.1;6
NZ_CP009761.1;2
NZ_LN827929.1;9
NC_014632.1;2
NC_015637.1;9
NC_016078.1;20
NC_003903.1;6
NZ_CP012504.1;7
NC_021082.1;9
NC_017585.1;6
NC_017958.1;9
NC_008260.1;9
NC_017956.1;9
NC_017957.2;9
NZ_CP015230.1;9
NC_018022.1;1
NC_010617.1;9
NC_014924.1;37
NC_012108.1;11
NZ_LN831049.1;2
NC_015060.1;72
NC_007959.1;14
NC_007947.1;35
NC_015577.1;24
NC_019552.1;9
NZ_CP015736.1;9
NC_014011.1;46
NZ_CP009292.1;10
NC_003238.2;42
NC_003234.1;42
NC_003231.1;42
NC_003235.1;42
NC_019772.1;5
NZ_CP006837.1;8
NC_003237.1;42
NC_014762.1;36
NC_015058.1;72
NZ_CP004389.1;90
NC_003242.2;42
NZ_CP014164.1;60
NZ_CP011308.1;41
NZ_CP014055.1;28
NC_015059.1;72
NZ_CP004388.1;18
NC_001498.1;9
NC_029055.1;9
NZ_CP007640.1;27
NC_003232.1;42
NC_014754.1;97
NC_003229.1;42
NC_015057.1;89
NC_015555.1;2
NZ_CM000776.2;51
NC_003230.1;42
NC_013930.1;19
NC_015564.1;1
NZ_CP007521.1;69
NC_013889.1;19
NC_019773.1;5
NC_013740.1;43
NC_006432.1;9
NZ_CP009295.1;10
NC_001608.3;9
NC_014634.1;2
NZ_AP014657.1;13
NC_001575.2;9
NC_008817.1;13
NC_007795.1;2
NC_007961.1;14
NC_007491.1;1
NC_020294.1;61
NZ_CP009293.1;10
NZ_CP011856.1;55
NC_013164.1;2
NC_018023.1;1
NC_006067.1;9
NC_018420.1;54
NZ_CP009294.1;10
NZ_CP010801.1;20
NC_014932.1;25
NC_014372.1;9
NC_001460.1;9
NC_015703.1;9
NC_015633.1;9
NZ_CP015231.1;9
NC_007960.1;14
NC_012559.1;9
NZ_CP012897.1;9
NC_007486.1;1
NC_017966.1;9
NZ_CP015232.1;9
NC_013949.1;9
NC_014909.2;54
NC_019774.1;9
NC_014974.1;9
NC_018524.1;9
NC_018691.1;9
NZ_CM002285.1;9
NC_010519.1;9
NC_015693.1;9
NC_002568.2;9
NC_015417.1;9
NC_009138.1;9
NC_019904.1;9
NC_000911.1;9
NZ_LN831048.1;64
NZ_CP015741.1;9
NC_015064.1;9
NZ_CM002286.1;9
NC_022546.1;26
NC_015722.1;9
NC_005232.1;9
NZ_CP015233.1;9
NC_014654.1;9
NC_006069.1;9
NC_007519.1;9
NZ_CP015743.1;9
NC_015561.1;1
NC_011203.1;9
NC_006068.1;9
NC_002946.2;9
NC_019978.1;9
NC_018016.1;9
NZ_CP009216.1;9
NC_002942.5;9
NC_022873.1;9
NC_007973.1;17
NC_010337.2;9
NZ_CP015746.1;14
NC_014664.1;9
NC_014752.1;9
NC_015732.1;9
NC_011202.1;9
NZ_CP015738.1;9
NC_015460.1;9
NC_018828.1;9
NC_012751.1;9
NZ_CP015742.1;9
NZ_CM001440.1;9
NC_008508.1;9
NC_013211.1;9
NC_012779.2;9
NC_007971.2;9
NC_020157.1;5
NZ_CP009488.1;9
