NZ_CP014161.1;39
NC_015277.1;1
NC_003236.1;30
NZ_CM001437.1;1
NZ_CP012329.1;12
NC_007712.1;16
NZ_CP012371.1;23
NC_003143.1;10
NC_017770.1;1
NC_016603.1;1
NZ_CP014056.1;10
NC_017098.1;22
NC_010981.1;1
NC_009901.1;53
NC_006300.1;34
NC_013171.1;7
NC_020515.1;35
NC_019682.1;11
NZ_CP011494.1;4
NZ_CP013106.1;14
NZ_CP009291.1;8
NC_019771.1;1
NZ_CP009122.1;8
NC_010163.1;45
NC_012490.1;3
NC_021081.1;19
NC_007964.1;8
NC_000913.3;4
NZ_CP007152.1;46
NC_013385.1;43
NC_010794.1;29
NZ_CP007739.1;1
NC_013522.1;37
NC_017586.1;2
NZ_CM001773.1;1
NC_018868.3;4
NZ_CP011254.1;4
NC_004722.1;1
NZ_CP007446.1;48
NZ_CP013067.1;9
NC_015214.1;31
NZ_CP009687.1;7
NZ_CP011366.1;1
NZ_CP011265.1;20
NZ_CP015882.1;42
NC_011901.1;21
NC_007802.1;58
NZ_LN907858.1;17
NZ_CP008953.1;2
NC_009617.1;7
NZ_CP015881.1;8
NC_015172.1;52
NC_021663.1;2
NZ_LN869922.1;9
NZ_CP009215.1;3
NZ_CP015880.1;8
NC_010296.1;9
NZ_CM001859.1;54
NC_018681.1;3
NZ_AP014568.1;27
NC_014633.1;7
NC_004917.1;17
NC_003888.3;2
NZ_CP010799.1;5
NC_016751.1;38
NZ_CP012076.1;5
NZ_CP010800.1;5
NC_014759.1;1
NC_010511.1;2
NZ_CP011078.1;57
NC_013771.1;6
NC_015425.1;9
NZ_LN515532.1;1
NC_018027.1;2
NC_003233.1;30
NC_004557.1;6
NZ_CP009123.1;9
NC_014166.1;9
NC_015656.1;2
NZ_CP009761.1;9
NZ_LN827929.1;1
NC_014632.1;7
NC_015637.1;9
NC_016078.1;58
NC_003903.1;2
NZ_CP012504.1;9
NC_021082.1;35
NC_017585.1;2
NC_017958.1;9
NC_008260.1;4
NC_017956.1;9
NC_017957.2;9
NZ_CP015230.1;9
NC_018022.1;2
NC_010617.1;9
NC_014924.1;5
NC_012108.1;13
NZ_LN831049.1;1
NC_015060.1;49
NC_007959.1;8
NC_007947.1;28
NC_015577.1;18
NC_019552.1;9
NZ_CP015736.1;9
NC_014011.1;36
NZ_CP009292.1;8
NC_003238.2;30
NC_003234.1;30
NC_003231.1;30
NC_003235.1;30
NC_019772.1;1
NZ_CP006837.1;1
NC_003237.1;30
NC_014762.1;25
NC_015058.1;49
NZ_CP004389.1;62
NC_003242.2;30
NZ_CP014164.1;31
NZ_CP011308.1;32
NZ_CP014055.1;10
NC_015059.1;49
NZ_CP004388.1;15
NC_001498.1;9
NC_029055.1;9
NZ_CP007640.1;12
NC_003232.1;30
NC_014754.1;25
NC_003229.1;30
NC_015057.1;59
NC_015555.1;1
NZ_CM000776.2;17
NC_003230.1;30
NC_013930.1;63
NC_015564.1;3
NZ_CP007521.1;6
NC_013889.1;3
NC_019773.1;1
NC_013740.1;33
NC_006432.1;9
NZ_CP009295.1;8
NC_001608.3;9
NC_014634.1;7
NZ_AP014657.1;6
NC_001575.2;9
NC_008817.1;6
NC_007795.1;1
NC_007961.1;8
NC_007491.1;3
NC_020294.1;6
NZ_CP009293.1;8
NZ_CP011856.1;6
NC_013164.1;7
NC_018023.1;2
NC_006067.1;9
NC_018420.1;6
NZ_CP009294.1;8
NZ_CP010801.1;5
NC_014932.1;1
NC_014372.1;9
NC_001460.1;9
NC_015703.1;9
NC_015633.1;9
NZ_CP015231.1;9
NC_007960.1;8
NC_012559.1;9
NZ_CP012897.1;9
NC_007486.1;3
NC_017966.1;9
NZ_CP015232.1;9
NC_013949.1;9
NC_014909.2;6
NC_019774.1;11
NC_014974.1;9
NC_018524.1;9
NC_018691.1;9
NZ_CM002285.1;9
NC_010519.1;9
NC_015693.1;9
NC_002568.2;9
NC_015417.1;9
NC_009138.1;9
NC_019904.1;9
NC_000911.1;9
NZ_LN831048.1;1
NZ_CP015741.1;9
NC_015064.1;9
NZ_CM002286.1;2
NC_022546.1;16
NC_015722.1;9
NC_005232.1;9
NZ_CP015233.1;9
NC_014654.1;9
NC_006069.1;9
NC_007519.1;9
NZ_CP015743.1;8
NC_015561.1;3
NC_011203.1;9
NC_006068.1;9
NC_002946.2;9
NC_019978.1;9
NC_018016.1;1
NZ_CP009216.1;9
NC_002942.5;9
NC_022873.1;9
NC_007973.1;5
NC_010337.2;9
NZ_CP015746.1;58
NC_014664.1;9
NC_014752.1;9
NC_015732.1;9
NC_011202.1;9
NZ_CP015738.1;9
NC_015460.1;9
NC_018828.1;9
NC_012751.1;9
NZ_CP015742.1;8
NZ_CM001440.1;9
NC_008508.1;9
NC_013211.1;9
NC_012779.2;9
NC_007971.2;9
NC_020157.1;1
NZ_CP009488.1;9
