NC_008344.1;1
NC_008709.1;26
NC_004193.1;39
NZ_CP011382.1;20
NC_015222.1;25
NZ_HF545616.1;15
NC_015977.1;34
NZ_CP011058.1;39
NC_010161.1;13
NZ_CP007511.1;23
NZ_CP007203.1;20
NZ_CP009283.1;18
NC_016638.1;47
NC_021171.1;39
NC_000866.4;39
NC_016147.2;4
NC_013192.1;33
NC_011144.1;43
NC_009921.1;40
NC_023036.2;21
NZ_CP012601.1;39
NC_012490.1;21
NZ_AP012334.1;30
NZ_CP015736.1;28
NZ_CP007452.1;39
NC_010572.1;35
NZ_CP007773.1;33
NZ_CP009553.2;3
NC_000908.2;9
NC_008786.1;23
NC_021741.1;22
NC_019427.1;39
NZ_CP013729.1;23
NC_014618.1;39
NC_002947.4;29
NZ_CP012697.1;49
NZ_CP012195.1;46
NC_019439.1;9
NZ_AP014683.1;27
NZ_CP011144.1;9
NZ_CP012897.1;43
NZ_CP014475.1;21
NZ_CP009238.1;39
NZ_CP009313.1;35
NC_004722.1;39
NC_016112.1;9
NC_013209.1;10
NZ_CP015739.1;9
NC_005945.1;9
NZ_LN829119.1;11
NC_009925.1;24
NZ_CP010820.1;39
NC_014148.1;19
NC_014098.1;14
NZ_CP011542.1;38
NC_002942.5;39
NC_000911.1;7
NZ_CP015840.1;32
NZ_CP010429.1;41
NC_012881.1;37
NC_012968.1;42
NC_013385.1;17
NZ_CP003915.1;2
NC_016620.1;44
NZ_CP012288.1;39
NC_008229.1;50
NC_015185.1;36
NZ_CP006911.1;39
NZ_CP007726.1;5
NC_018673.1;31
NZ_CP011544.1;9
NC_001608.3;9
NC_000902.1;9
NC_018887.1;33
NC_003231.1;9
NZ_CP007029.1;9
NZ_HF545617.1;15
NC_014926.1;9
NC_003232.1;9
NC_003230.1;9
NC_003238.2;9
NC_003237.1;9
NC_007382.1;9
NZ_CP014608.1;9
NC_003233.1;9
NC_003236.1;9
NC_022657.1;9
NC_017094.1;9
NC_003229.1;9
NZ_AP013294.1;9
NC_004061.1;33
NC_008025.1;9
NC_003234.1;9
NC_026425.1;9
NC_003242.2;9
NC_003424.3;9
NC_003235.1;9
NC_026434.1;9
NC_011096.1;9
NZ_LM655252.1;9
NC_000913.3;9
NC_007374.1;9
NZ_CP007453.1;9
NZ_CP012698.1;21
NZ_CP009454.1;9
NC_009515.1;9
NC_007090.3;9
NC_014377.1;9
NC_026437.1;9
NZ_LN681225.1;9
NC_011143.1;9
NC_026433.1;9
NC_007381.1;9
NC_003421.2;9
NC_007088.5;9
NC_026426.1;9
NC_009930.1;9
NC_026438.1;9
NC_008526.1;9
NC_007092.3;9
NC_007376.1;9
NC_007378.1;9
NC_007375.1;9
NZ_CM001402.1;9
NC_007795.1;9
NC_007087.3;9
NW_003102058.1;9
NZ_CP015742.1;9
NC_026436.1;9
NZ_CP015748.1;9
NC_026435.1;9
NC_007377.1;9
