NC_008344.1;NC_008344.1
NC_008709.1;NC_008709.1
NC_004193.1;NC_004193.1
NZ_CP011382.1;NZ_CP011382.1
NC_015222.1;NC_015222.1
NZ_HF545616.1;NZ_HF545616.1
NC_015977.1;NC_015977.1
NZ_CP011058.1;NZ_CP011058.1
NC_010161.1;NC_010161.1
NZ_CP007511.1;NZ_CP007511.1
NZ_CP007203.1;NZ_CP007203.1
NZ_CP009283.1;NZ_CP009283.1
NC_016638.1;NC_016638.1
NC_021171.1;NC_021171.1
NC_000866.4;NC_000866.4
NC_016147.2;NC_016147.2
NC_013192.1;NC_013192.1
NC_011144.1;NC_011144.1
NC_009921.1;NC_009921.1
NC_023036.2;NC_023036.2
NZ_CP012601.1;NZ_CP012601.1
NC_012490.1;NC_012490.1
NZ_AP012334.1;NZ_AP012334.1
NZ_CP015736.1;NZ_CP015736.1
NZ_CP007452.1;NZ_CP007452.1
NC_010572.1;NC_010572.1
NZ_CP007773.1;NZ_CP007773.1
NZ_CP009553.2;NZ_CP009553.2
NC_000908.2;NC_000908.2
NC_008786.1;NC_008786.1
NC_021741.1;NC_021741.1
NC_019427.1;NC_019427.1
NZ_CP013729.1;NZ_CP013729.1
NC_014618.1;NC_014618.1
NC_002947.4;NC_002947.4
NZ_CP012697.1;NZ_CP012697.1
NZ_CP012195.1;NZ_CP012195.1
NC_019439.1;NC_019439.1
NZ_AP014683.1;NZ_AP014683.1
NZ_CP011144.1;NZ_CP011144.1
NZ_CP012897.1;NZ_CP012897.1
NZ_CP014475.1;NZ_CP014475.1
NZ_CP009238.1;NZ_CP009238.1
NZ_CP009313.1;NZ_CP009313.1
NC_004722.1;NC_004722.1
NC_016112.1;NC_016112.1
NC_013209.1;NC_013209.1
NZ_CP015739.1;NZ_CP015739.1
NC_005945.1;NC_005945.1
NZ_LN829119.1;NZ_LN829119.1
NC_009925.1;NC_009925.1
NZ_CP010820.1;NZ_CP010820.1
NC_014148.1;NC_014148.1
NC_014098.1;NC_014098.1
NZ_CP011542.1;NZ_CP011542.1
NC_002942.5;NC_002942.5
NC_000911.1;NC_000911.1
NZ_CP015840.1;NZ_CP015840.1
NZ_CP010429.1;NZ_CP010429.1
NC_012881.1;NC_012881.1
NC_012968.1;NC_012968.1
NC_013385.1;NC_013385.1
NZ_CP003915.1;NZ_CP003915.1
NC_016620.1;NC_016620.1
NZ_CP012288.1;NZ_CP012288.1
NC_008229.1;NC_008229.1
NC_015185.1;NC_015185.1
NZ_CP006911.1;NZ_CP006911.1
NZ_CP007726.1;NZ_CP007726.1
NC_018673.1;NC_018673.1
NZ_CP011544.1;NZ_CP011544.1
NC_001608.3;NC_001608.3
NC_000902.1;NC_000902.1
NC_018887.1;NC_018887.1
NC_003231.1;NC_003231.1
NZ_CP007029.1;NZ_CP007029.1
NZ_HF545617.1;NZ_HF545617.1
NC_014926.1;NC_014926.1
NC_003232.1;NC_003232.1
NC_003230.1;NC_003230.1
NC_003238.2;NC_003238.2
NC_003237.1;NC_003237.1
NC_007382.1;NC_007382.1
NZ_CP014608.1;NZ_CP014608.1
NC_003233.1;NC_003233.1
NC_003236.1;NC_003236.1
NC_022657.1;NC_022657.1
NC_017094.1;NC_017094.1
NC_003229.1;NC_003229.1
NZ_AP013294.1;NZ_AP013294.1
NC_004061.1;NC_004061.1
NC_008025.1;NC_008025.1
NC_003234.1;NC_003234.1
NC_026425.1;NC_026425.1
NC_003242.2;NC_003242.2
NC_003424.3;NC_003424.3
NC_003235.1;NC_003235.1
NC_026434.1;NC_026434.1
NC_011096.1;NC_011096.1
NZ_LM655252.1;NZ_LM655252.1
NC_000913.3;NC_000913.3
NC_007374.1;NC_007374.1
NZ_CP007453.1;NZ_CP007453.1
NZ_CP012698.1;NZ_CP012698.1
NZ_CP009454.1;NZ_CP009454.1
NC_009515.1;NC_009515.1
NC_007090.3;NC_007090.3
NC_014377.1;NC_014377.1
NC_026437.1;NC_026437.1
NZ_LN681225.1;NZ_LN681225.1
NC_011143.1;NC_011143.1
NC_026433.1;NC_026433.1
NC_007381.1;NC_007381.1
NC_003421.2;NC_003421.2
NC_007088.5;NC_007088.5
NC_026426.1;NC_026426.1
NC_009930.1;NC_009930.1
NC_026438.1;NC_026438.1
NC_008526.1;NC_008526.1
NC_007092.3;NC_007092.3
NC_007376.1;NC_007376.1
NC_007378.1;NC_007378.1
NC_007375.1;NC_007375.1
NZ_CM001402.1;NZ_CM001402.1
NC_007795.1;NC_007795.1
NC_007087.3;NC_007087.3
NW_003102058.1;NW_003102058.1
NZ_CP015742.1;NZ_CP015742.1
NC_026436.1;NC_026436.1
NZ_CP015748.1;NZ_CP015748.1
NC_026435.1;NC_026435.1
NC_007377.1;NC_007377.1
