cluster	nb	tool
1	1970	bwa
2	1958	bwa
3	1890	bwa
4	1820	bwa
5	1810	bwa
6	1700	bwa
7	1654	bwa
8	1620	bwa
9	1579	bwa
10	1531	bwa
11	1523	bwa
12	1513	bwa
13	1506	bwa
14	1382	bwa
15	1374	bwa
16	1358	bwa
17	1239	bwa
18	1189	bwa
19	1131	bwa
20	1068	bwa
21	1035	bwa
22	957	bwa
23	947	bwa
24	941	bwa
25	930	bwa
26	915	bwa
27	883	bwa
28	880	bwa
29	867	bwa
30	860	bwa
31	829	bwa
32	745	bwa
33	737	bwa
34	721	bwa
35	716	bwa
36	714	bwa
37	656	bwa
38	650	bwa
39	646	bwa
40	640	bwa
41	571	bwa
42	559	bwa
43	551	bwa
44	538	bwa
45	442	bwa
46	416	bwa
47	412	bwa
48	403	bwa
49	398	bwa
50	364	bwa
51	363	bwa
52	276	bwa
53	247	bwa
54	237	bwa
55	230	bwa
56	205	bwa
57	113	bwa
58	41	bwa
59	14	bwa
60	9	bwa
61	6	bwa
62	6	bwa
63	6	bwa
64	4	bwa
65	4	bwa
66	4	bwa
67	3	bwa
68	3	bwa
69	3	bwa
70	3	bwa
71	3	bwa
72	3	bwa
73	2	bwa
74	2	bwa
75	2	bwa
76	2	bwa
77	2	bwa
78	2	bwa
79	2	bwa
80	1	bwa
81	1	bwa
82	1	bwa
83	1	bwa
84	1	bwa
85	1	bwa
86	1	bwa
87	1	bwa
88	1	bwa
89	1	bwa
90	1	bwa
91	1	bwa
92	1	bwa
93	1	bwa
94	1	bwa
95	1	bwa
96	1	bwa
97	1	bwa
98	1	bwa
99	1	bwa
100	1	bwa
101	1	bwa
102	1	bwa
103	1	bwa
104	1	bwa
105	1	bwa
106	1	bwa
107	1	bwa
108	1	bwa
109	1	bwa
1	9240	cocacola
2	5725	cocacola
3	5566	cocacola
4	5364	cocacola
5	4224	cocacola
6	4076	cocacola
7	2746	cocacola
8	1844	cocacola
9	1388	cocacola
10	1327	cocacola
11	1160	cocacola
12	1140	cocacola
13	1135	cocacola
14	964	cocacola
15	920	cocacola
16	904	cocacola
17	702	cocacola
18	620	cocacola
19	532	cocacola
20	523	cocacola
21	523	cocacola
22	516	cocacola
23	504	cocacola
24	478	cocacola
25	440	cocacola
26	399	cocacola
27	334	cocacola
28	271	cocacola
1	4564	concoct
2	4146	concoct
3	2280	concoct
4	2140	concoct
5	1936	concoct
6	1831	concoct
7	1763	concoct
8	1746	concoct
9	1577	concoct
10	1523	concoct
11	1408	concoct
12	1377	concoct
13	1375	concoct
14	1192	concoct
15	1160	concoct
16	1048	concoct
17	1026	concoct
18	1002	concoct
19	999	concoct
20	973	concoct
21	910	concoct
22	910	concoct
23	892	concoct
24	883	concoct
25	862	concoct
26	854	concoct
27	830	concoct
28	753	concoct
29	702	concoct
30	698	concoct
31	673	concoct
32	650	concoct
33	607	concoct
34	590	concoct
35	590	concoct
36	589	concoct
37	586	concoct
38	573	concoct
39	547	concoct
40	487	concoct
41	484	concoct
42	428	concoct
43	401	concoct
44	395	concoct
45	384	concoct
46	382	concoct
47	339	concoct
48	332	concoct
49	232	concoct
50	221	concoct
51	215	concoct
52	171	concoct
53	134	concoct
54	41	concoct
55	25	concoct
56	15	concoct
57	11	concoct
58	9	concoct
59	5	concoct
60	5	concoct
61	2	concoct
62	2	concoct
63	1	concoct
64	1	concoct
65	1	concoct
66	1	concoct
67	1	concoct
68	1	concoct
69	1	concoct
70	1	concoct
71	1	concoct
72	1	concoct
73	1	concoct
1	3946	maxbin
2	3517	maxbin
3	3192	maxbin
4	2795	maxbin
5	2301	maxbin
6	2052	maxbin
7	1984	maxbin
8	1976	maxbin
9	1938	maxbin
10	1920	maxbin
11	1819	maxbin
12	1814	maxbin
13	1516	maxbin
14	1429	maxbin
15	1407	maxbin
16	1372	maxbin
17	1366	maxbin
18	1320	maxbin
19	1294	maxbin
20	1161	maxbin
21	1130	maxbin
22	1063	maxbin
23	1051	maxbin
24	1032	maxbin
25	987	maxbin
26	934	maxbin
27	910	maxbin
28	883	maxbin
29	763	maxbin
30	679	maxbin
31	663	maxbin
32	613	maxbin
33	514	maxbin
34	425	maxbin
35	383	maxbin
36	324	maxbin
37	300	maxbin
1	4054	metabat
2	832	metabat
3	778	metabat
4	632	metabat
5	632	metabat
6	630	metabat
7	556	metabat
8	550	metabat
9	469	metabat
10	452	metabat
11	451	metabat
12	434	metabat
13	431	metabat
14	417	metabat
15	407	metabat
16	386	metabat
17	323	metabat
18	295	metabat
19	280	metabat
20	264	metabat
21	211	metabat
22	197	metabat
23	195	metabat
24	194	metabat
25	192	metabat
26	161	metabat
27	132	metabat
28	132	metabat
29	85	metabat
30	85	metabat
31	82	metabat
32	79	metabat
33	57	metabat
34	56	metabat
35	50	metabat
36	47	metabat
37	32	metabat
1	1511	metabat.w.abd
2	859	metabat.w.abd
3	825	metabat.w.abd
4	745	metabat.w.abd
5	636	metabat.w.abd
6	620	metabat.w.abd
7	553	metabat.w.abd
8	532	metabat.w.abd
9	495	metabat.w.abd
10	491	metabat.w.abd
11	489	metabat.w.abd
12	480	metabat.w.abd
13	451	metabat.w.abd
14	426	metabat.w.abd
15	396	metabat.w.abd
16	385	metabat.w.abd
17	361	metabat.w.abd
18	351	metabat.w.abd
19	255	metabat.w.abd
20	254	metabat.w.abd
21	243	metabat.w.abd
22	228	metabat.w.abd
23	197	metabat.w.abd
24	197	metabat.w.abd
25	196	metabat.w.abd
26	193	metabat.w.abd
27	185	metabat.w.abd
28	173	metabat.w.abd
29	165	metabat.w.abd
30	163	metabat.w.abd
31	157	metabat.w.abd
32	155	metabat.w.abd
33	145	metabat.w.abd
34	142	metabat.w.abd
35	139	metabat.w.abd
36	130	metabat.w.abd
37	121	metabat.w.abd
38	102	metabat.w.abd
39	86	metabat.w.abd
40	68	metabat.w.abd
41	66	metabat.w.abd
42	66	metabat.w.abd
43	65	metabat.w.abd
44	65	metabat.w.abd
45	65	metabat.w.abd
46	58	metabat.w.abd
47	47	metabat.w.abd
48	38	metabat.w.abd
1	7774	metaprob
2	4166	metaprob
3	3596	metaprob
4	1846	metaprob
5	1745	metaprob
6	1682	metaprob
7	1619	metaprob
8	1616	metaprob
9	1599	metaprob
10	1325	metaprob
11	1304	metaprob
12	1222	metaprob
13	1173	metaprob
14	1149	metaprob
15	1094	metaprob
16	1047	metaprob
17	923	metaprob
18	879	metaprob
19	848	metaprob
20	827	metaprob
21	797	metaprob
22	786	metaprob
23	751	metaprob
24	746	metaprob
25	689	metaprob
26	680	metaprob
27	677	metaprob
28	637	metaprob
29	623	metaprob
30	608	metaprob
31	595	metaprob
32	591	metaprob
33	586	metaprob
34	584	metaprob
35	562	metaprob
36	478	metaprob
37	460	metaprob
38	449	metaprob
39	374	metaprob
40	372	metaprob
41	362	metaprob
42	354	metaprob
43	349	metaprob
44	345	metaprob
45	338	metaprob
46	321	metaprob
47	318	metaprob
48	299	metaprob
49	238	metaprob
50	221	metaprob
51	219	metaprob
52	217	metaprob
53	178	metaprob
54	134	metaprob
55	98	metaprob
56	95	metaprob
