bin	uniqueBacSCGs	redundantBacSCGs	uniqueArcSCGs	redundantArcSCGs	bacRatio	arcRatio	size	contigs	N50	binScore	SCG_completeness	SCG_redundancy
L.097	51	1	15	1	1	0.394736842105263	5637338	553	10000	0.9784	100	2.63
L.100	50	3	14	3	0.980392156862745	0.368421052631579	2196202	214	10000	0.915	98.04	7.89
L.096	51	4	15	3	1	0.394736842105263	1581395	161	10000	0.9137	100	7.89
L.092	51	13	20	4	1	0.526315789473684	2752961	264	10000	0.7196	100	25.49
L.085	51	10	17	8	1	0.447368421052632	6789172	2326	4891	0.7059	100	21.05
L.053	51	18	19	9	1	0.5	3880286	750	10000	0.5627	100	35.29
L.038	51	20	18	9	1	0.473684210526316	9681878	1768	10000	0.5098	100	39.22
L.060	51	16	15	6	1	0.394736842105263	6436939	867	10335	0.6059	100	31.37
L.074	51	10	17	2	1	0.447368421052632	2340994	317	10000	0.7843	100	19.61
L.054	51	10	16	7	1	0.421052631578947	5420435	1416	10000	0.7255	100	19.61
L.070	51	19	17	3	1	0.447368421052632	5627913	650	10000	0.5902	100	37.25
L.041	50	6	16	4	0.980392156862745	0.421052631578947	2392520	379	10000	0.8398	98.04	11.76
L.050	51	8	16	6	1	0.421052631578947	3958036	790	10000	0.8275	100	15.79
L.029	49	8	16	1	0.96078431372549	0.421052631578947	6674825	625	10000	0.7844	96.08	15.69
L.098	51	21	18	5	1	0.473684210526316	4830534	458	10000	0.5373	100	41.18
L.052	45	14	14	1	0.882352941176471	0.368421052631579	2514116	452	10000	0.5192	88.24	27.45
L.058	49	18	17	7	0.96078431372549	0.447368421052632	4069649	517	10000	0.5149	96.08	35.29
L.073	40	2	11	0	0.784313725490196	0.289473684210526	975763	104	10000	0.7347	78.43	3.92
L.010	51	18	17	12	1	0.447368421052632	7967623	998	10000	0.5725	100	35.29
L.016	51	17	17	2	1	0.447368421052632	4063938	435	10000	0.6039	100	33.33
L.014	51	17	16	2	1	0.421052631578947	4898370	567	10000	0.6333	100	33.33
L.005	34	5	16	2	0.666666666666667	0.421052631578947	10691875	1144	10853	0.5294	66.67	9.8
L.057	44	6	11	2	0.862745098039216	0.289473684210526	4363927	1237	10000	0.7221	86.27	11.76
L.064	50	16	17	7	0.980392156862745	0.447368421052632	5983191	660	10000	0.6119	98.04	31.37
L.004	42	10	14	1	0.823529411764706	0.368421052631579	2419431	403	10000	0.5532	82.35	19.61
L.023	44	9	15	5	0.862745098039216	0.394736842105263	3395483	585	10000	0.6322	86.27	17.65
L.055	44	3	16	2	0.862745098039216	0.421052631578947	1346244	156	10000	0.7924	86.27	5.88
L.045	30	1	9	1	0.588235294117647	0.236842105263158	1524136	317	5203	0.5584	58.82	2.63
L.051	43	7	13	3	0.843137254901961	0.342105263157895	1716489	574	4002	0.667	84.31	13.73
L.024	42	2	8	0	0.823529411764706	0.210526315789474	1552922	245	10000	0.7754	82.35	3.92
L.075	31	1	8	0	0.607843137254902	0.210526315789474	685588	88	10000	0.5787	60.78	1.96
L.022	42	10	15	3	0.823529411764706	0.394736842105263	7270245	1112	8000	0.5532	82.35	19.61
