<?xml version="1.0" encoding="UTF-8"?>
<svg xmlns="http://www.w3.org/2000/svg" xmlns:xlink="http://www.w3.org/1999/xlink" width="504pt" height="576pt" viewBox="0 0 504 576" version="1.1">
<defs>
<g>
<symbol overflow="visible" id="glyph0-0">
<path style="stroke:none;" d=""/>
</symbol>
<symbol overflow="visible" id="glyph0-1">
<path style="stroke:none;" d="M 2.421875 -6.359375 C 1.84375 -6.359375 1.3125 -6.09375 0.984375 -5.671875 C 0.578125 -5.109375 0.375 -4.25 0.375 -3.078125 C 0.375 -0.9375 1.078125 0.203125 2.421875 0.203125 C 3.734375 0.203125 4.453125 -0.9375 4.453125 -3.03125 C 4.453125 -4.25 4.265625 -5.078125 3.859375 -5.671875 C 3.53125 -6.109375 3.015625 -6.359375 2.421875 -6.359375 Z M 2.421875 -5.671875 C 3.25 -5.671875 3.671875 -4.828125 3.671875 -3.09375 C 3.671875 -1.28125 3.265625 -0.4375 2.40625 -0.4375 C 1.578125 -0.4375 1.171875 -1.3125 1.171875 -3.0625 C 1.171875 -4.828125 1.578125 -5.671875 2.421875 -5.671875 Z M 2.421875 -5.671875 "/>
</symbol>
<symbol overflow="visible" id="glyph0-2">
<path style="stroke:none;" d="M 1.6875 -0.921875 L 0.765625 -0.921875 L 0.765625 0 L 1.6875 0 Z M 1.6875 -0.921875 "/>
</symbol>
<symbol overflow="visible" id="glyph0-3">
<path style="stroke:none;" d="M 4.453125 -0.765625 L 1.171875 -0.765625 C 1.25 -1.296875 1.53125 -1.625 2.296875 -2.09375 L 3.171875 -2.59375 C 4.046875 -3.0625 4.5 -3.71875 4.5 -4.5 C 4.5 -5.03125 4.28125 -5.53125 3.921875 -5.875 C 3.546875 -6.203125 3.09375 -6.359375 2.5 -6.359375 C 1.703125 -6.359375 1.125 -6.078125 0.78125 -5.53125 C 0.546875 -5.203125 0.453125 -4.796875 0.4375 -4.15625 L 1.21875 -4.15625 C 1.234375 -4.59375 1.296875 -4.84375 1.40625 -5.0625 C 1.59375 -5.4375 2 -5.6875 2.46875 -5.6875 C 3.171875 -5.6875 3.703125 -5.171875 3.703125 -4.484375 C 3.703125 -3.96875 3.40625 -3.53125 2.859375 -3.21875 L 2.046875 -2.75 C 0.75 -2 0.375 -1.40625 0.296875 -0.015625 L 4.453125 -0.015625 Z M 4.453125 -0.765625 "/>
</symbol>
<symbol overflow="visible" id="glyph0-4">
<path style="stroke:none;" d="M 4.1875 -6.234375 L 0.96875 -6.234375 L 0.5 -2.84375 L 1.21875 -2.84375 C 1.578125 -3.265625 1.875 -3.421875 2.359375 -3.421875 C 3.203125 -3.421875 3.71875 -2.84375 3.71875 -1.921875 C 3.71875 -1.03125 3.203125 -0.484375 2.359375 -0.484375 C 1.6875 -0.484375 1.265625 -0.828125 1.078125 -1.53125 L 0.3125 -1.53125 C 0.40625 -1.015625 0.5 -0.78125 0.6875 -0.546875 C 1.03125 -0.078125 1.671875 0.203125 2.375 0.203125 C 3.640625 0.203125 4.515625 -0.71875 4.515625 -2.03125 C 4.515625 -3.265625 3.6875 -4.109375 2.5 -4.109375 C 2.0625 -4.109375 1.703125 -4 1.34375 -3.734375 L 1.59375 -5.46875 L 4.1875 -5.46875 Z M 4.1875 -6.234375 "/>
</symbol>
<symbol overflow="visible" id="glyph0-5">
<path style="stroke:none;" d="M 4.578125 -6.234375 L 0.40625 -6.234375 L 0.40625 -5.46875 L 3.78125 -5.46875 C 2.28125 -3.359375 1.6875 -2.046875 1.21875 0 L 2.046875 0 C 2.390625 -2 3.171875 -3.71875 4.578125 -5.59375 Z M 4.578125 -6.234375 "/>
</symbol>
<symbol overflow="visible" id="glyph0-6">
<path style="stroke:none;" d="M 2.28125 -4.53125 L 2.28125 0 L 3.046875 0 L 3.046875 -6.359375 L 2.546875 -6.359375 C 2.265625 -5.390625 2.09375 -5.25 0.890625 -5.09375 L 0.890625 -4.53125 Z M 2.28125 -4.53125 "/>
</symbol>
<symbol overflow="visible" id="glyph0-7">
<path style="stroke:none;" d="M 5.828125 -4.421875 C 5.5625 -5.828125 4.765625 -6.515625 3.359375 -6.515625 C 2.484375 -6.515625 1.796875 -6.25 1.3125 -5.71875 C 0.734375 -5.078125 0.421875 -4.171875 0.421875 -3.125 C 0.421875 -2.078125 0.75 -1.171875 1.34375 -0.546875 C 1.84375 -0.03125 2.484375 0.203125 3.3125 0.203125 C 4.875 0.203125 5.765625 -0.640625 5.953125 -2.34375 L 5.109375 -2.34375 C 5.046875 -1.90625 4.953125 -1.59375 4.828125 -1.34375 C 4.5625 -0.8125 4.015625 -0.515625 3.328125 -0.515625 C 2.046875 -0.515625 1.234375 -1.546875 1.234375 -3.140625 C 1.234375 -4.78125 2 -5.796875 3.25 -5.796875 C 3.78125 -5.796875 4.25 -5.640625 4.515625 -5.390625 C 4.765625 -5.171875 4.890625 -4.90625 4.984375 -4.421875 Z M 5.828125 -4.421875 "/>
</symbol>
<symbol overflow="visible" id="glyph0-8">
<path style="stroke:none;" d="M 4.171875 -1.921875 L 4.828125 0 L 5.75 0 L 3.5 -6.40625 L 2.4375 -6.40625 L 0.15625 0 L 1.015625 0 L 1.703125 -1.921875 Z M 3.9375 -2.609375 L 1.90625 -2.609375 L 2.953125 -5.53125 Z M 3.9375 -2.609375 "/>
</symbol>
<symbol overflow="visible" id="glyph0-9">
<path style="stroke:none;" d="M 4.109375 0 L 5.921875 -5.375 L 5.921875 0 L 6.6875 0 L 6.6875 -6.40625 L 5.5625 -6.40625 L 3.6875 -0.828125 L 1.796875 -6.40625 L 0.65625 -6.40625 L 0.65625 0 L 1.4375 0 L 1.4375 -5.375 L 3.25 0 Z M 4.109375 0 "/>
</symbol>
<symbol overflow="visible" id="glyph0-10">
<path style="stroke:none;" d="M 1.703125 -6.40625 L 0.875 -6.40625 L 0.875 0 L 1.703125 0 Z M 1.703125 -6.40625 "/>
</symbol>
<symbol overflow="visible" id="glyph0-11">
<path style="stroke:none;" d="M 0.609375 -6.40625 L 0.609375 0 L 1.34375 0 L 1.34375 -2.546875 C 1.34375 -3.484375 1.84375 -4.09375 2.59375 -4.09375 C 2.84375 -4.09375 3.0625 -4.03125 3.25 -3.890625 C 3.453125 -3.734375 3.546875 -3.515625 3.546875 -3.1875 L 3.546875 0 L 4.28125 0 L 4.28125 -3.484375 C 4.28125 -4.25 3.71875 -4.734375 2.828125 -4.734375 C 2.171875 -4.734375 1.78125 -4.546875 1.34375 -3.96875 L 1.34375 -6.40625 Z M 0.609375 -6.40625 "/>
</symbol>
<symbol overflow="visible" id="glyph0-12">
<path style="stroke:none;" d="M 1.515625 -6.40625 L 0.703125 -6.40625 L 0.703125 0 L 4.6875 0 L 4.6875 -0.71875 L 1.515625 -0.71875 Z M 1.515625 -6.40625 "/>
</symbol>
<symbol overflow="visible" id="glyph0-13">
<path style="stroke:none;" d="M 5.25 -4.53125 C 5.25 -4.96875 5.21875 -5.09375 5.078125 -5.390625 C 4.71875 -6.125 3.96875 -6.515625 2.890625 -6.515625 C 1.484375 -6.515625 0.609375 -5.796875 0.609375 -4.640625 C 0.609375 -3.859375 1.03125 -3.359375 1.875 -3.140625 L 3.46875 -2.71875 C 4.28125 -2.5 4.640625 -2.1875 4.640625 -1.6875 C 4.640625 -1.34375 4.453125 -0.984375 4.1875 -0.796875 C 3.9375 -0.609375 3.53125 -0.515625 3.015625 -0.515625 C 2.3125 -0.515625 1.84375 -0.6875 1.53125 -1.0625 C 1.296875 -1.34375 1.1875 -1.640625 1.203125 -2.046875 L 0.421875 -2.046875 C 0.4375 -1.453125 0.546875 -1.0625 0.796875 -0.71875 C 1.234375 -0.109375 1.984375 0.203125 2.953125 0.203125 C 3.71875 0.203125 4.34375 0.03125 4.765625 -0.296875 C 5.1875 -0.640625 5.46875 -1.203125 5.46875 -1.765625 C 5.46875 -2.546875 4.96875 -3.125 4.09375 -3.375 L 2.484375 -3.796875 C 1.71875 -4.015625 1.4375 -4.25 1.4375 -4.75 C 1.4375 -5.40625 2 -5.828125 2.875 -5.828125 C 3.890625 -5.828125 4.453125 -5.375 4.46875 -4.53125 Z M 5.25 -4.53125 "/>
</symbol>
<symbol overflow="visible" id="glyph0-14">
<path style="stroke:none;" d="M 4.140625 -3.0625 C 4.109375 -3.515625 4.015625 -3.796875 3.828125 -4.0625 C 3.515625 -4.484375 2.96875 -4.734375 2.328125 -4.734375 C 1.078125 -4.734375 0.265625 -3.75 0.265625 -2.21875 C 0.265625 -0.734375 1.0625 0.203125 2.3125 0.203125 C 3.40625 0.203125 4.109375 -0.453125 4.203125 -1.578125 L 3.453125 -1.578125 C 3.328125 -0.84375 2.953125 -0.46875 2.328125 -0.46875 C 1.515625 -0.46875 1.03125 -1.140625 1.03125 -2.21875 C 1.03125 -3.375 1.515625 -4.0625 2.3125 -4.0625 C 2.921875 -4.0625 3.3125 -3.703125 3.40625 -3.0625 Z M 4.140625 -3.0625 "/>
</symbol>
<symbol overflow="visible" id="glyph0-15">
<path style="stroke:none;" d="M 2.390625 -4.734375 C 1.09375 -4.734375 0.3125 -3.8125 0.3125 -2.265625 C 0.3125 -0.71875 1.09375 0.203125 2.40625 0.203125 C 3.703125 0.203125 4.484375 -0.71875 4.484375 -2.234375 C 4.484375 -3.828125 3.734375 -4.734375 2.390625 -4.734375 Z M 2.40625 -4.0625 C 3.234375 -4.0625 3.71875 -3.390625 3.71875 -2.25 C 3.71875 -1.15625 3.203125 -0.46875 2.40625 -0.46875 C 1.578125 -0.46875 1.078125 -1.15625 1.078125 -2.265625 C 1.078125 -3.390625 1.578125 -4.0625 2.40625 -4.0625 Z M 2.40625 -4.0625 "/>
</symbol>
<symbol overflow="visible" id="glyph0-16">
<path style="stroke:none;" d="M 4.703125 -0.4375 C 4.625 -0.40625 4.59375 -0.40625 4.546875 -0.40625 C 4.296875 -0.40625 4.15625 -0.546875 4.15625 -0.78125 L 4.15625 -3.484375 C 4.15625 -4.296875 3.546875 -4.734375 2.421875 -4.734375 C 1.734375 -4.734375 1.203125 -4.546875 0.890625 -4.203125 C 0.671875 -3.96875 0.59375 -3.703125 0.578125 -3.25 L 1.3125 -3.25 C 1.375 -3.8125 1.703125 -4.0625 2.390625 -4.0625 C 3.0625 -4.0625 3.421875 -3.8125 3.421875 -3.375 L 3.421875 -3.1875 C 3.40625 -2.875 3.25 -2.75 2.65625 -2.671875 C 1.625 -2.546875 1.453125 -2.5 1.171875 -2.390625 C 0.640625 -2.15625 0.375 -1.765625 0.375 -1.15625 C 0.375 -0.328125 0.953125 0.203125 1.875 0.203125 C 2.46875 0.203125 2.921875 0 3.453125 -0.46875 C 3.5 0 3.734375 0.203125 4.203125 0.203125 C 4.359375 0.203125 4.453125 0.1875 4.703125 0.125 Z M 3.421875 -1.453125 C 3.421875 -1.203125 3.359375 -1.0625 3.125 -0.859375 C 2.828125 -0.578125 2.46875 -0.4375 2.046875 -0.4375 C 1.46875 -0.4375 1.140625 -0.71875 1.140625 -1.171875 C 1.140625 -1.65625 1.453125 -1.90625 2.25 -2.015625 C 3.03125 -2.125 3.171875 -2.15625 3.421875 -2.28125 Z M 3.421875 -1.453125 "/>
</symbol>
<symbol overflow="visible" id="glyph0-17">
<path style="stroke:none;" d="M 1.34375 -6.40625 L 0.59375 -6.40625 L 0.59375 0 L 1.34375 0 Z M 1.34375 -6.40625 "/>
</symbol>
<symbol overflow="visible" id="glyph0-18">
<path style="stroke:none;" d="M 0.609375 -4.609375 L 0.609375 0 L 1.359375 0 L 1.359375 -2.546875 C 1.359375 -3.484375 1.84375 -4.09375 2.609375 -4.09375 C 3.1875 -4.09375 3.546875 -3.75 3.546875 -3.1875 L 3.546875 0 L 4.28125 0 L 4.28125 -3.484375 C 4.28125 -4.25 3.71875 -4.734375 2.828125 -4.734375 C 2.140625 -4.734375 1.703125 -4.484375 1.296875 -3.828125 L 1.296875 -4.609375 Z M 0.609375 -4.609375 "/>
</symbol>
<symbol overflow="visible" id="glyph0-19">
<path style="stroke:none;" d="M 2.234375 -4.609375 L 1.484375 -4.609375 L 1.484375 -5.875 L 0.75 -5.875 L 0.75 -4.609375 L 0.125 -4.609375 L 0.125 -4.015625 L 0.75 -4.015625 L 0.75 -0.53125 C 0.75 -0.046875 1.0625 0.203125 1.640625 0.203125 C 1.828125 0.203125 1.984375 0.1875 2.234375 0.140625 L 2.234375 -0.46875 C 2.125 -0.453125 2.03125 -0.4375 1.875 -0.4375 C 1.5625 -0.4375 1.484375 -0.53125 1.484375 -0.859375 L 1.484375 -4.015625 L 2.234375 -4.015625 Z M 2.234375 -4.609375 "/>
</symbol>
<symbol overflow="visible" id="glyph0-20">
<path style="stroke:none;" d="M 4.359375 -6.40625 L 3.625 -6.40625 L 3.625 -4.03125 C 3.3125 -4.5 2.828125 -4.734375 2.203125 -4.734375 C 1.015625 -4.734375 0.234375 -3.78125 0.234375 -2.3125 C 0.234375 -0.75 0.984375 0.203125 2.234375 0.203125 C 2.875 0.203125 3.3125 -0.03125 3.703125 -0.609375 L 3.703125 0 L 4.359375 0 Z M 2.328125 -4.0625 C 3.125 -4.0625 3.625 -3.359375 3.625 -2.25 C 3.625 -1.1875 3.109375 -0.484375 2.34375 -0.484375 C 1.53125 -0.484375 1 -1.203125 1 -2.265625 C 1 -3.34375 1.53125 -4.0625 2.328125 -4.0625 Z M 2.328125 -4.0625 "/>
</symbol>
<symbol overflow="visible" id="glyph0-21">
<path style="stroke:none;" d="M 3.859375 -3.328125 C 3.84375 -4.234375 3.25 -4.734375 2.1875 -4.734375 C 1.109375 -4.734375 0.40625 -4.1875 0.40625 -3.328125 C 0.40625 -2.609375 0.78125 -2.265625 1.875 -2 L 2.5625 -1.84375 C 3.0625 -1.71875 3.265625 -1.53125 3.265625 -1.203125 C 3.265625 -0.765625 2.84375 -0.46875 2.203125 -0.46875 C 1.796875 -0.46875 1.46875 -0.59375 1.28125 -0.78125 C 1.171875 -0.921875 1.125 -1.046875 1.078125 -1.375 L 0.296875 -1.375 C 0.328125 -0.3125 0.9375 0.203125 2.140625 0.203125 C 3.296875 0.203125 4.03125 -0.375 4.03125 -1.265625 C 4.03125 -1.9375 3.65625 -2.328125 2.734375 -2.546875 L 2.03125 -2.703125 C 1.4375 -2.84375 1.171875 -3.046875 1.171875 -3.375 C 1.171875 -3.796875 1.5625 -4.0625 2.15625 -4.0625 C 2.75 -4.0625 3.0625 -3.8125 3.078125 -3.328125 Z M 3.859375 -3.328125 "/>
</symbol>
<symbol overflow="visible" id="glyph0-22">
<path style="stroke:none;" d="M 5.078125 1.109375 L -0.1875 1.109375 L -0.1875 1.546875 L 5.078125 1.546875 Z M 5.078125 1.109375 "/>
</symbol>
<symbol overflow="visible" id="glyph0-23">
<path style="stroke:none;" d="M 0.609375 -4.609375 L 0.609375 0 L 1.359375 0 L 1.359375 -2.890625 C 1.359375 -3.5625 1.84375 -4.09375 2.4375 -4.09375 C 2.984375 -4.09375 3.296875 -3.765625 3.296875 -3.171875 L 3.296875 0 L 4.03125 0 L 4.03125 -2.890625 C 4.03125 -3.5625 4.515625 -4.09375 5.109375 -4.09375 C 5.640625 -4.09375 5.96875 -3.75 5.96875 -3.171875 L 5.96875 0 L 6.703125 0 L 6.703125 -3.453125 C 6.703125 -4.28125 6.234375 -4.734375 5.359375 -4.734375 C 4.75 -4.734375 4.375 -4.5625 3.953125 -4.03125 C 3.671875 -4.53125 3.3125 -4.734375 2.703125 -4.734375 C 2.09375 -4.734375 1.6875 -4.515625 1.296875 -3.953125 L 1.296875 -4.609375 Z M 0.609375 -4.609375 "/>
</symbol>
<symbol overflow="visible" id="glyph0-24">
<path style="stroke:none;" d="M 2.5625 -2.390625 L 4.109375 -4.609375 L 3.296875 -4.609375 L 2.1875 -2.9375 L 1.078125 -4.609375 L 0.234375 -4.609375 L 1.78125 -2.34375 L 0.15625 0 L 0.984375 0 L 2.15625 -1.765625 L 3.3125 0 L 4.15625 0 Z M 2.5625 -2.390625 "/>
</symbol>
<symbol overflow="visible" id="glyph0-25">
<path style="stroke:none;" d="M 0.46875 -6.40625 L 0.46875 0 L 1.140625 0 L 1.140625 -0.59375 C 1.484375 -0.046875 1.953125 0.203125 2.59375 0.203125 C 3.8125 0.203125 4.59375 -0.796875 4.59375 -2.328125 C 4.59375 -3.8125 3.859375 -4.734375 2.625 -4.734375 C 2 -4.734375 1.546875 -4.5 1.203125 -3.984375 L 1.203125 -6.40625 Z M 2.484375 -4.0625 C 3.3125 -4.0625 3.828125 -3.34375 3.828125 -2.25 C 3.828125 -1.203125 3.296875 -0.484375 2.484375 -0.484375 C 1.703125 -0.484375 1.203125 -1.1875 1.203125 -2.265625 C 1.203125 -3.359375 1.703125 -4.0625 2.484375 -4.0625 Z M 2.484375 -4.0625 "/>
</symbol>
<symbol overflow="visible" id="glyph0-26">
<path style="stroke:none;" d="M 1.3125 -4.609375 L 0.59375 -4.609375 L 0.59375 0 L 1.3125 0 Z M 1.3125 -6.40625 L 0.578125 -6.40625 L 0.578125 -5.484375 L 1.3125 -5.484375 Z M 1.3125 -6.40625 "/>
</symbol>
<symbol overflow="visible" id="glyph0-27">
<path style="stroke:none;" d="M 4.515625 -2.0625 C 4.515625 -2.765625 4.453125 -3.1875 4.328125 -3.53125 C 4.03125 -4.28125 3.328125 -4.734375 2.46875 -4.734375 C 1.171875 -4.734375 0.359375 -3.765625 0.359375 -2.25 C 0.359375 -0.71875 1.140625 0.203125 2.453125 0.203125 C 3.5 0.203125 4.234375 -0.390625 4.421875 -1.40625 L 3.671875 -1.40625 C 3.46875 -0.796875 3.0625 -0.46875 2.46875 -0.46875 C 2 -0.46875 1.609375 -0.6875 1.359375 -1.078125 C 1.1875 -1.34375 1.125 -1.59375 1.125 -2.0625 Z M 1.140625 -2.65625 C 1.203125 -3.515625 1.71875 -4.0625 2.453125 -4.0625 C 3.203125 -4.0625 3.71875 -3.484375 3.71875 -2.65625 Z M 1.140625 -2.65625 "/>
</symbol>
<symbol overflow="visible" id="glyph0-28">
<path style="stroke:none;" d="M 4.875 0 L 6.234375 -4.609375 L 5.40625 -4.609375 L 4.484375 -1.015625 L 3.578125 -4.609375 L 2.6875 -4.609375 L 1.796875 -1.015625 L 0.859375 -4.609375 L 0.046875 -4.609375 L 1.390625 0 L 2.21875 0 L 3.109375 -3.609375 L 4.03125 0 Z M 4.875 0 "/>
</symbol>
<symbol overflow="visible" id="glyph0-29">
<path style="stroke:none;" d="M 0.46875 1.921875 L 1.21875 1.921875 L 1.21875 -0.484375 C 1.59375 -0.015625 2.03125 0.203125 2.625 0.203125 C 3.828125 0.203125 4.59375 -0.75 4.59375 -2.21875 C 4.59375 -3.78125 3.84375 -4.734375 2.625 -4.734375 C 2 -4.734375 1.5 -4.453125 1.15625 -3.921875 L 1.15625 -4.609375 L 0.46875 -4.609375 Z M 2.5 -4.0625 C 3.3125 -4.0625 3.828125 -3.34375 3.828125 -2.25 C 3.828125 -1.203125 3.296875 -0.484375 2.5 -0.484375 C 1.71875 -0.484375 1.21875 -1.1875 1.21875 -2.265625 C 1.21875 -3.359375 1.71875 -4.0625 2.5 -4.0625 Z M 2.5 -4.0625 "/>
</symbol>
<symbol overflow="visible" id="glyph0-30">
<path style="stroke:none;" d="M 0.609375 -4.609375 L 0.609375 0 L 1.34375 0 L 1.34375 -2.390625 C 1.359375 -3.5 1.8125 -4 2.828125 -3.96875 L 2.828125 -4.71875 C 2.703125 -4.734375 2.625 -4.734375 2.546875 -4.734375 C 2.0625 -4.734375 1.703125 -4.453125 1.28125 -3.78125 L 1.28125 -4.609375 Z M 0.609375 -4.609375 "/>
</symbol>
<symbol overflow="visible" id="glyph0-31">
<path style="stroke:none;" d="M 2.265625 -4.609375 L 1.5 -4.609375 L 1.5 -5.328125 C 1.5 -5.640625 1.671875 -5.796875 2.015625 -5.796875 C 2.078125 -5.796875 2.109375 -5.796875 2.265625 -5.78125 L 2.265625 -6.390625 C 2.109375 -6.4375 2 -6.4375 1.859375 -6.4375 C 1.171875 -6.4375 0.78125 -6.046875 0.78125 -5.390625 L 0.78125 -4.609375 L 0.15625 -4.609375 L 0.15625 -4.015625 L 0.78125 -4.015625 L 0.78125 0 L 1.5 0 L 1.5 -4.015625 L 2.265625 -4.015625 Z M 2.265625 -4.609375 "/>
</symbol>
<symbol overflow="visible" id="glyph1-0">
<path style="stroke:none;" d=""/>
</symbol>
<symbol overflow="visible" id="glyph1-1">
<path style="stroke:none;" d="M 5.21875 -2.40625 L 6.03125 0 L 7.1875 0 L 4.359375 -8.015625 L 3.046875 -8.015625 L 0.1875 0 L 1.28125 0 L 2.125 -2.40625 Z M 4.921875 -3.265625 L 2.375 -3.265625 L 3.703125 -6.921875 Z M 4.921875 -3.265625 "/>
</symbol>
<symbol overflow="visible" id="glyph1-2">
<path style="stroke:none;" d="M 3.140625 0 L 5.34375 -5.765625 L 4.3125 -5.765625 L 2.6875 -1.09375 L 1.140625 -5.765625 L 0.109375 -5.765625 L 2.140625 0 Z M 3.140625 0 "/>
</symbol>
<symbol overflow="visible" id="glyph1-3">
<path style="stroke:none;" d="M 5.640625 -2.578125 C 5.640625 -3.453125 5.578125 -3.984375 5.40625 -4.40625 C 5.03125 -5.359375 4.15625 -5.921875 3.078125 -5.921875 C 1.46875 -5.921875 0.4375 -4.703125 0.4375 -2.8125 C 0.4375 -0.90625 1.4375 0.25 3.0625 0.25 C 4.375 0.25 5.296875 -0.5 5.515625 -1.75 L 4.59375 -1.75 C 4.34375 -0.984375 3.828125 -0.59375 3.09375 -0.59375 C 2.515625 -0.59375 2.015625 -0.859375 1.703125 -1.34375 C 1.484375 -1.671875 1.40625 -2 1.390625 -2.578125 Z M 1.421875 -3.328125 C 1.5 -4.390625 2.140625 -5.078125 3.0625 -5.078125 C 4 -5.078125 4.65625 -4.359375 4.65625 -3.328125 Z M 1.421875 -3.328125 "/>
</symbol>
<symbol overflow="visible" id="glyph1-4">
<path style="stroke:none;" d="M 0.765625 -5.765625 L 0.765625 0 L 1.6875 0 L 1.6875 -2.984375 C 1.6875 -4.375 2.265625 -5 3.53125 -4.96875 L 3.53125 -5.890625 C 3.375 -5.921875 3.28125 -5.921875 3.171875 -5.921875 C 2.578125 -5.921875 2.140625 -5.578125 1.609375 -4.71875 L 1.609375 -5.765625 Z M 0.765625 -5.765625 "/>
</symbol>
<symbol overflow="visible" id="glyph1-5">
<path style="stroke:none;" d="M 5.890625 -0.53125 C 5.78125 -0.515625 5.734375 -0.515625 5.6875 -0.515625 C 5.375 -0.515625 5.1875 -0.6875 5.1875 -0.96875 L 5.1875 -4.359375 C 5.1875 -5.375 4.4375 -5.921875 3.03125 -5.921875 C 2.171875 -5.921875 1.5 -5.6875 1.109375 -5.265625 C 0.84375 -4.96875 0.734375 -4.625 0.71875 -4.0625 L 1.640625 -4.0625 C 1.71875 -4.765625 2.140625 -5.078125 2.984375 -5.078125 C 3.828125 -5.078125 4.28125 -4.78125 4.28125 -4.21875 L 4.28125 -3.984375 C 4.265625 -3.59375 4.0625 -3.4375 3.328125 -3.34375 C 2.03125 -3.171875 1.828125 -3.140625 1.46875 -2.984375 C 0.796875 -2.703125 0.46875 -2.203125 0.46875 -1.453125 C 0.46875 -0.40625 1.1875 0.25 2.359375 0.25 C 3.078125 0.25 3.65625 0 4.3125 -0.59375 C 4.375 0 4.65625 0.25 5.265625 0.25 C 5.453125 0.25 5.578125 0.234375 5.890625 0.15625 Z M 4.28125 -1.8125 C 4.28125 -1.5 4.1875 -1.3125 3.921875 -1.0625 C 3.546875 -0.71875 3.09375 -0.546875 2.546875 -0.546875 C 1.84375 -0.546875 1.421875 -0.890625 1.421875 -1.46875 C 1.421875 -2.078125 1.8125 -2.390625 2.8125 -2.53125 C 3.78125 -2.65625 3.96875 -2.703125 4.28125 -2.84375 Z M 4.28125 -1.8125 "/>
</symbol>
<symbol overflow="visible" id="glyph1-6">
<path style="stroke:none;" d="M 4.4375 -5.765625 L 4.4375 -4.921875 C 3.984375 -5.625 3.46875 -5.921875 2.75 -5.921875 C 1.359375 -5.921875 0.390625 -4.625 0.390625 -2.78125 C 0.390625 -1.8125 0.609375 -1.109375 1.109375 -0.53125 C 1.546875 -0.015625 2.09375 0.25 2.6875 0.25 C 3.375 0.25 3.875 -0.0625 4.359375 -0.78125 L 4.359375 -0.484375 C 4.359375 1.0625 3.921875 1.625 2.78125 1.625 C 2 1.625 1.59375 1.3125 1.5 0.65625 L 0.578125 0.65625 C 0.65625 1.734375 1.5 2.390625 2.765625 2.390625 C 3.609375 2.390625 4.3125 2.125 4.6875 1.65625 C 5.125 1.125 5.296875 0.40625 5.296875 -0.953125 L 5.296875 -5.765625 Z M 2.84375 -5.078125 C 3.8125 -5.078125 4.359375 -4.265625 4.359375 -2.8125 C 4.359375 -1.40625 3.796875 -0.59375 2.84375 -0.59375 C 1.890625 -0.59375 1.34375 -1.421875 1.34375 -2.84375 C 1.34375 -4.25 1.890625 -5.078125 2.84375 -5.078125 Z M 2.84375 -5.078125 "/>
</symbol>
<symbol overflow="visible" id="glyph1-7">
<path style="stroke:none;" d=""/>
</symbol>
<symbol overflow="visible" id="glyph1-8">
<path style="stroke:none;" d="M 0.59375 2.390625 L 1.515625 2.390625 L 1.515625 -0.609375 C 2 -0.015625 2.546875 0.25 3.28125 0.25 C 4.78125 0.25 5.75 -0.953125 5.75 -2.78125 C 5.75 -4.71875 4.8125 -5.921875 3.28125 -5.921875 C 2.5 -5.921875 1.875 -5.578125 1.4375 -4.890625 L 1.4375 -5.765625 L 0.59375 -5.765625 Z M 3.125 -5.078125 C 4.140625 -5.078125 4.796875 -4.1875 4.796875 -2.8125 C 4.796875 -1.5 4.125 -0.609375 3.125 -0.609375 C 2.140625 -0.609375 1.515625 -1.484375 1.515625 -2.84375 C 1.515625 -4.1875 2.140625 -5.078125 3.125 -5.078125 Z M 3.125 -5.078125 "/>
</symbol>
<symbol overflow="visible" id="glyph1-9">
<path style="stroke:none;" d="M 5.1875 -3.828125 C 5.140625 -4.390625 5.015625 -4.75 4.796875 -5.078125 C 4.40625 -5.609375 3.703125 -5.921875 2.90625 -5.921875 C 1.34375 -5.921875 0.34375 -4.703125 0.34375 -2.78125 C 0.34375 -0.921875 1.328125 0.25 2.890625 0.25 C 4.265625 0.25 5.140625 -0.578125 5.25 -1.984375 L 4.328125 -1.984375 C 4.171875 -1.0625 3.703125 -0.59375 2.921875 -0.59375 C 1.90625 -0.59375 1.296875 -1.421875 1.296875 -2.78125 C 1.296875 -4.21875 1.890625 -5.078125 2.890625 -5.078125 C 3.65625 -5.078125 4.140625 -4.625 4.25 -3.828125 Z M 5.1875 -3.828125 "/>
</symbol>
<symbol overflow="visible" id="glyph1-10">
<path style="stroke:none;" d="M 1.65625 -5.765625 L 0.734375 -5.765625 L 0.734375 0 L 1.65625 0 Z M 1.65625 -8.015625 L 0.71875 -8.015625 L 0.71875 -6.859375 L 1.65625 -6.859375 Z M 1.65625 -8.015625 "/>
</symbol>
<symbol overflow="visible" id="glyph1-11">
<path style="stroke:none;" d="M 4.8125 -4.15625 C 4.8125 -5.296875 4.0625 -5.921875 2.734375 -5.921875 C 1.390625 -5.921875 0.515625 -5.234375 0.515625 -4.171875 C 0.515625 -3.265625 0.984375 -2.84375 2.34375 -2.515625 L 3.203125 -2.296875 C 3.84375 -2.140625 4.09375 -1.90625 4.09375 -1.5 C 4.09375 -0.953125 3.546875 -0.59375 2.75 -0.59375 C 2.25 -0.59375 1.84375 -0.734375 1.609375 -0.984375 C 1.46875 -1.140625 1.390625 -1.3125 1.34375 -1.71875 L 0.375 -1.71875 C 0.421875 -0.390625 1.171875 0.25 2.671875 0.25 C 4.125 0.25 5.046875 -0.46875 5.046875 -1.578125 C 5.046875 -2.4375 4.5625 -2.90625 3.421875 -3.171875 L 2.546875 -3.390625 C 1.796875 -3.5625 1.46875 -3.8125 1.46875 -4.21875 C 1.46875 -4.75 1.953125 -5.078125 2.6875 -5.078125 C 3.4375 -5.078125 3.828125 -4.765625 3.84375 -4.15625 Z M 4.8125 -4.15625 "/>
</symbol>
<symbol overflow="visible" id="glyph1-12">
<path style="stroke:none;" d="M 2.984375 -5.921875 C 1.359375 -5.921875 0.390625 -4.78125 0.390625 -2.84375 C 0.390625 -0.890625 1.359375 0.25 3 0.25 C 4.625 0.25 5.609375 -0.90625 5.609375 -2.796875 C 5.609375 -4.796875 4.65625 -5.921875 2.984375 -5.921875 Z M 3 -5.078125 C 4.03125 -5.078125 4.65625 -4.234375 4.65625 -2.8125 C 4.65625 -1.4375 4.015625 -0.59375 3 -0.59375 C 1.984375 -0.59375 1.359375 -1.4375 1.359375 -2.84375 C 1.359375 -4.234375 1.984375 -5.078125 3 -5.078125 Z M 3 -5.078125 "/>
</symbol>
<symbol overflow="visible" id="glyph1-13">
<path style="stroke:none;" d="M 0.765625 -5.765625 L 0.765625 0 L 1.6875 0 L 1.6875 -3.171875 C 1.6875 -4.359375 2.3125 -5.125 3.25 -5.125 C 3.984375 -5.125 4.4375 -4.6875 4.4375 -4 L 4.4375 0 L 5.359375 0 L 5.359375 -4.359375 C 5.359375 -5.3125 4.640625 -5.921875 3.53125 -5.921875 C 2.671875 -5.921875 2.125 -5.59375 1.609375 -4.796875 L 1.609375 -5.765625 Z M 0.765625 -5.765625 "/>
</symbol>
<symbol overflow="visible" id="glyph1-14">
<path style="stroke:none;" d="M 5.4375 -8.015625 L 4.53125 -8.015625 L 4.53125 -5.03125 C 4.140625 -5.625 3.53125 -5.921875 2.765625 -5.921875 C 1.265625 -5.921875 0.28125 -4.734375 0.28125 -2.890625 C 0.28125 -0.953125 1.234375 0.25 2.796875 0.25 C 3.59375 0.25 4.140625 -0.046875 4.625 -0.765625 L 4.625 0 L 5.4375 0 Z M 2.921875 -5.078125 C 3.90625 -5.078125 4.53125 -4.203125 4.53125 -2.8125 C 4.53125 -1.484375 3.890625 -0.609375 2.921875 -0.609375 C 1.90625 -0.609375 1.25 -1.5 1.25 -2.84375 C 1.25 -4.1875 1.90625 -5.078125 2.921875 -5.078125 Z M 2.921875 -5.078125 "/>
</symbol>
<symbol overflow="visible" id="glyph1-15">
<path style="stroke:none;" d="M 2.796875 -5.765625 L 1.84375 -5.765625 L 1.84375 -7.34375 L 0.9375 -7.34375 L 0.9375 -5.765625 L 0.15625 -5.765625 L 0.15625 -5.015625 L 0.9375 -5.015625 L 0.9375 -0.65625 C 0.9375 -0.0625 1.328125 0.25 2.046875 0.25 C 2.28125 0.25 2.484375 0.234375 2.796875 0.171875 L 2.796875 -0.59375 C 2.65625 -0.5625 2.546875 -0.546875 2.359375 -0.546875 C 1.953125 -0.546875 1.84375 -0.65625 1.84375 -1.0625 L 1.84375 -5.015625 L 2.796875 -5.015625 Z M 2.796875 -5.765625 "/>
</symbol>
<symbol overflow="visible" id="glyph1-16">
<path style="stroke:none;" d="M 1.671875 -8.015625 L 0.75 -8.015625 L 0.75 0 L 1.671875 0 Z M 1.671875 -8.015625 "/>
</symbol>
<symbol overflow="visible" id="glyph2-0">
<path style="stroke:none;" d=""/>
</symbol>
<symbol overflow="visible" id="glyph2-1">
<path style="stroke:none;" d="M -2.40625 -5.21875 L 0 -6.03125 L 0 -7.1875 L -8.015625 -4.359375 L -8.015625 -3.046875 L 0 -0.1875 L 0 -1.28125 L -2.40625 -2.125 Z M -3.265625 -4.921875 L -3.265625 -2.375 L -6.921875 -3.703125 Z M -3.265625 -4.921875 "/>
</symbol>
<symbol overflow="visible" id="glyph2-2">
<path style="stroke:none;" d="M 0 -3.140625 L -5.765625 -5.34375 L -5.765625 -4.3125 L -1.09375 -2.6875 L -5.765625 -1.140625 L -5.765625 -0.109375 L 0 -2.140625 Z M 0 -3.140625 "/>
</symbol>
<symbol overflow="visible" id="glyph2-3">
<path style="stroke:none;" d="M -2.578125 -5.640625 C -3.453125 -5.640625 -3.984375 -5.578125 -4.40625 -5.40625 C -5.359375 -5.03125 -5.921875 -4.15625 -5.921875 -3.078125 C -5.921875 -1.46875 -4.703125 -0.4375 -2.8125 -0.4375 C -0.90625 -0.4375 0.25 -1.4375 0.25 -3.0625 C 0.25 -4.375 -0.5 -5.296875 -1.75 -5.515625 L -1.75 -4.59375 C -0.984375 -4.34375 -0.59375 -3.828125 -0.59375 -3.09375 C -0.59375 -2.515625 -0.859375 -2.015625 -1.34375 -1.703125 C -1.671875 -1.484375 -2 -1.40625 -2.578125 -1.390625 Z M -3.328125 -1.421875 C -4.390625 -1.5 -5.078125 -2.140625 -5.078125 -3.0625 C -5.078125 -4 -4.359375 -4.65625 -3.328125 -4.65625 Z M -3.328125 -1.421875 "/>
</symbol>
<symbol overflow="visible" id="glyph2-4">
<path style="stroke:none;" d="M -5.765625 -0.765625 L 0 -0.765625 L 0 -1.6875 L -2.984375 -1.6875 C -4.375 -1.6875 -5 -2.265625 -4.96875 -3.53125 L -5.890625 -3.53125 C -5.921875 -3.375 -5.921875 -3.28125 -5.921875 -3.171875 C -5.921875 -2.578125 -5.578125 -2.140625 -4.71875 -1.609375 L -5.765625 -1.609375 Z M -5.765625 -0.765625 "/>
</symbol>
<symbol overflow="visible" id="glyph2-5">
<path style="stroke:none;" d="M -0.53125 -5.890625 C -0.515625 -5.78125 -0.515625 -5.734375 -0.515625 -5.6875 C -0.515625 -5.375 -0.6875 -5.1875 -0.96875 -5.1875 L -4.359375 -5.1875 C -5.375 -5.1875 -5.921875 -4.4375 -5.921875 -3.03125 C -5.921875 -2.171875 -5.6875 -1.5 -5.265625 -1.109375 C -4.96875 -0.84375 -4.625 -0.734375 -4.0625 -0.71875 L -4.0625 -1.640625 C -4.765625 -1.71875 -5.078125 -2.140625 -5.078125 -2.984375 C -5.078125 -3.828125 -4.78125 -4.28125 -4.21875 -4.28125 L -3.984375 -4.28125 C -3.59375 -4.265625 -3.4375 -4.0625 -3.34375 -3.328125 C -3.171875 -2.03125 -3.140625 -1.828125 -2.984375 -1.46875 C -2.703125 -0.796875 -2.203125 -0.46875 -1.453125 -0.46875 C -0.40625 -0.46875 0.25 -1.1875 0.25 -2.359375 C 0.25 -3.078125 0 -3.65625 -0.59375 -4.3125 C 0 -4.375 0.25 -4.65625 0.25 -5.265625 C 0.25 -5.453125 0.234375 -5.578125 0.15625 -5.890625 Z M -1.8125 -4.28125 C -1.5 -4.28125 -1.3125 -4.1875 -1.0625 -3.921875 C -0.71875 -3.546875 -0.546875 -3.09375 -0.546875 -2.546875 C -0.546875 -1.84375 -0.890625 -1.421875 -1.46875 -1.421875 C -2.078125 -1.421875 -2.390625 -1.8125 -2.53125 -2.8125 C -2.65625 -3.78125 -2.703125 -3.96875 -2.84375 -4.28125 Z M -1.8125 -4.28125 "/>
</symbol>
<symbol overflow="visible" id="glyph2-6">
<path style="stroke:none;" d="M -5.765625 -4.4375 L -4.921875 -4.4375 C -5.625 -3.984375 -5.921875 -3.46875 -5.921875 -2.75 C -5.921875 -1.359375 -4.625 -0.390625 -2.78125 -0.390625 C -1.8125 -0.390625 -1.109375 -0.609375 -0.53125 -1.109375 C -0.015625 -1.546875 0.25 -2.09375 0.25 -2.6875 C 0.25 -3.375 -0.0625 -3.875 -0.78125 -4.359375 L -0.484375 -4.359375 C 1.0625 -4.359375 1.625 -3.921875 1.625 -2.78125 C 1.625 -2 1.3125 -1.59375 0.65625 -1.5 L 0.65625 -0.578125 C 1.734375 -0.65625 2.390625 -1.5 2.390625 -2.765625 C 2.390625 -3.609375 2.125 -4.3125 1.65625 -4.6875 C 1.125 -5.125 0.40625 -5.296875 -0.953125 -5.296875 L -5.765625 -5.296875 Z M -5.078125 -2.84375 C -5.078125 -3.8125 -4.265625 -4.359375 -2.8125 -4.359375 C -1.40625 -4.359375 -0.59375 -3.796875 -0.59375 -2.84375 C -0.59375 -1.890625 -1.421875 -1.34375 -2.84375 -1.34375 C -4.25 -1.34375 -5.078125 -1.890625 -5.078125 -2.84375 Z M -5.078125 -2.84375 "/>
</symbol>
<symbol overflow="visible" id="glyph2-7">
<path style="stroke:none;" d=""/>
</symbol>
<symbol overflow="visible" id="glyph2-8">
<path style="stroke:none;" d="M -3.828125 -5.1875 C -4.390625 -5.140625 -4.75 -5.015625 -5.078125 -4.796875 C -5.609375 -4.40625 -5.921875 -3.703125 -5.921875 -2.90625 C -5.921875 -1.34375 -4.703125 -0.34375 -2.78125 -0.34375 C -0.921875 -0.34375 0.25 -1.328125 0.25 -2.890625 C 0.25 -4.265625 -0.578125 -5.140625 -1.984375 -5.25 L -1.984375 -4.328125 C -1.0625 -4.171875 -0.59375 -3.703125 -0.59375 -2.921875 C -0.59375 -1.90625 -1.421875 -1.296875 -2.78125 -1.296875 C -4.21875 -1.296875 -5.078125 -1.890625 -5.078125 -2.890625 C -5.078125 -3.65625 -4.625 -4.140625 -3.828125 -4.25 Z M -3.828125 -5.1875 "/>
</symbol>
<symbol overflow="visible" id="glyph2-9">
<path style="stroke:none;" d="M 0 -5.296875 L -5.765625 -5.296875 L -5.765625 -4.390625 L -2.5 -4.390625 C -1.3125 -4.390625 -0.546875 -3.765625 -0.546875 -2.8125 C -0.546875 -2.09375 -0.984375 -1.625 -1.6875 -1.625 L -5.765625 -1.625 L -5.765625 -0.71875 L -1.3125 -0.71875 C -0.359375 -0.71875 0.25 -1.4375 0.25 -2.546875 C 0.25 -3.40625 -0.046875 -3.9375 -0.796875 -4.484375 L 0 -4.484375 Z M 0 -5.296875 "/>
</symbol>
<symbol overflow="visible" id="glyph2-10">
<path style="stroke:none;" d="M -5.765625 -4.265625 L -1.28125 -2.671875 L -5.765625 -1.203125 L -5.765625 -0.21875 L 0.015625 -2.171875 L 0.9375 -1.8125 C 1.34375 -1.65625 1.5 -1.46875 1.5 -1.078125 C 1.5 -0.921875 1.46875 -0.796875 1.4375 -0.59375 L 2.25 -0.59375 C 2.359375 -0.78125 2.390625 -0.96875 2.390625 -1.203125 C 2.390625 -1.5 2.296875 -1.828125 2.125 -2.0625 C 1.90625 -2.359375 1.671875 -2.515625 1.203125 -2.6875 L -5.765625 -5.265625 Z M -5.765625 -4.265625 "/>
</symbol>
</g>
<clipPath id="clip1">
  <path d="M 43.152344 455 L 392.84375 455 L 392.84375 456 L 43.152344 456 Z M 43.152344 455 "/>
</clipPath>
<clipPath id="clip2">
  <path d="M 43.152344 333 L 392.84375 333 L 392.84375 335 L 43.152344 335 Z M 43.152344 333 "/>
</clipPath>
<clipPath id="clip3">
  <path d="M 43.152344 212 L 392.84375 212 L 392.84375 213 L 43.152344 213 Z M 43.152344 212 "/>
</clipPath>
<clipPath id="clip4">
  <path d="M 43.152344 90 L 392.84375 90 L 392.84375 91 L 43.152344 91 Z M 43.152344 90 "/>
</clipPath>
<clipPath id="clip5">
  <path d="M 98 5.480469 L 99 5.480469 L 99 541.851562 L 98 541.851562 Z M 98 5.480469 "/>
</clipPath>
<clipPath id="clip6">
  <path d="M 177 5.480469 L 179 5.480469 L 179 541.851562 L 177 541.851562 Z M 177 5.480469 "/>
</clipPath>
<clipPath id="clip7">
  <path d="M 256 5.480469 L 258 5.480469 L 258 541.851562 L 256 541.851562 Z M 256 5.480469 "/>
</clipPath>
<clipPath id="clip8">
  <path d="M 336 5.480469 L 337 5.480469 L 337 541.851562 L 336 541.851562 Z M 336 5.480469 "/>
</clipPath>
<clipPath id="clip9">
  <path d="M 43.152344 515 L 392.84375 515 L 392.84375 518 L 43.152344 518 Z M 43.152344 515 "/>
</clipPath>
<clipPath id="clip10">
  <path d="M 43.152344 394 L 392.84375 394 L 392.84375 396 L 43.152344 396 Z M 43.152344 394 "/>
</clipPath>
<clipPath id="clip11">
  <path d="M 43.152344 272 L 392.84375 272 L 392.84375 274 L 43.152344 274 Z M 43.152344 272 "/>
</clipPath>
<clipPath id="clip12">
  <path d="M 43.152344 150 L 392.84375 150 L 392.84375 153 L 43.152344 153 Z M 43.152344 150 "/>
</clipPath>
<clipPath id="clip13">
  <path d="M 43.152344 29 L 392.84375 29 L 392.84375 31 L 43.152344 31 Z M 43.152344 29 "/>
</clipPath>
<clipPath id="clip14">
  <path d="M 58 5.480469 L 60 5.480469 L 60 541.851562 L 58 541.851562 Z M 58 5.480469 "/>
</clipPath>
<clipPath id="clip15">
  <path d="M 137 5.480469 L 139 5.480469 L 139 541.851562 L 137 541.851562 Z M 137 5.480469 "/>
</clipPath>
<clipPath id="clip16">
  <path d="M 216 5.480469 L 219 5.480469 L 219 541.851562 L 216 541.851562 Z M 216 5.480469 "/>
</clipPath>
<clipPath id="clip17">
  <path d="M 296 5.480469 L 298 5.480469 L 298 541.851562 L 296 541.851562 Z M 296 5.480469 "/>
</clipPath>
<clipPath id="clip18">
  <path d="M 375 5.480469 L 377 5.480469 L 377 541.851562 L 375 541.851562 Z M 375 5.480469 "/>
</clipPath>
</defs>
<g id="surface2104">
<rect x="0" y="0" width="504" height="576" style="fill:rgb(100%,100%,100%);fill-opacity:1;stroke:none;"/>
<g clip-path="url(#clip1)" clip-rule="nonzero">
<path style="fill:none;stroke-width:0.533489;stroke-linecap:butt;stroke-linejoin:round;stroke:rgb(92.156863%,92.156863%,92.156863%);stroke-opacity:1;stroke-miterlimit:10;" d="M 43.152344 455.675781 L 391.84375 455.675781 "/>
</g>
<g clip-path="url(#clip2)" clip-rule="nonzero">
<path style="fill:none;stroke-width:0.533489;stroke-linecap:butt;stroke-linejoin:round;stroke:rgb(92.156863%,92.156863%,92.156863%);stroke-opacity:1;stroke-miterlimit:10;" d="M 43.152344 334 L 391.84375 334 "/>
</g>
<g clip-path="url(#clip3)" clip-rule="nonzero">
<path style="fill:none;stroke-width:0.533489;stroke-linecap:butt;stroke-linejoin:round;stroke:rgb(92.156863%,92.156863%,92.156863%);stroke-opacity:1;stroke-miterlimit:10;" d="M 43.152344 212.328125 L 391.84375 212.328125 "/>
</g>
<g clip-path="url(#clip4)" clip-rule="nonzero">
<path style="fill:none;stroke-width:0.533489;stroke-linecap:butt;stroke-linejoin:round;stroke:rgb(92.156863%,92.156863%,92.156863%);stroke-opacity:1;stroke-miterlimit:10;" d="M 43.152344 90.652344 L 391.84375 90.652344 "/>
</g>
<g clip-path="url(#clip5)" clip-rule="nonzero">
<path style="fill:none;stroke-width:0.533489;stroke-linecap:butt;stroke-linejoin:round;stroke:rgb(92.156863%,92.156863%,92.156863%);stroke-opacity:1;stroke-miterlimit:10;" d="M 98.625 540.847656 L 98.625 5.480469 "/>
</g>
<g clip-path="url(#clip6)" clip-rule="nonzero">
<path style="fill:none;stroke-width:0.533489;stroke-linecap:butt;stroke-linejoin:round;stroke:rgb(92.156863%,92.156863%,92.156863%);stroke-opacity:1;stroke-miterlimit:10;" d="M 177.871094 540.847656 L 177.871094 5.480469 "/>
</g>
<g clip-path="url(#clip7)" clip-rule="nonzero">
<path style="fill:none;stroke-width:0.533489;stroke-linecap:butt;stroke-linejoin:round;stroke:rgb(92.156863%,92.156863%,92.156863%);stroke-opacity:1;stroke-miterlimit:10;" d="M 257.121094 540.847656 L 257.121094 5.480469 "/>
</g>
<g clip-path="url(#clip8)" clip-rule="nonzero">
<path style="fill:none;stroke-width:0.533489;stroke-linecap:butt;stroke-linejoin:round;stroke:rgb(92.156863%,92.156863%,92.156863%);stroke-opacity:1;stroke-miterlimit:10;" d="M 336.371094 540.847656 L 336.371094 5.480469 "/>
</g>
<g clip-path="url(#clip9)" clip-rule="nonzero">
<path style="fill:none;stroke-width:1.066978;stroke-linecap:butt;stroke-linejoin:round;stroke:rgb(92.156863%,92.156863%,92.156863%);stroke-opacity:1;stroke-miterlimit:10;" d="M 43.152344 516.515625 L 391.84375 516.515625 "/>
</g>
<g clip-path="url(#clip10)" clip-rule="nonzero">
<path style="fill:none;stroke-width:1.066978;stroke-linecap:butt;stroke-linejoin:round;stroke:rgb(92.156863%,92.156863%,92.156863%);stroke-opacity:1;stroke-miterlimit:10;" d="M 43.152344 394.839844 L 391.84375 394.839844 "/>
</g>
<g clip-path="url(#clip11)" clip-rule="nonzero">
<path style="fill:none;stroke-width:1.066978;stroke-linecap:butt;stroke-linejoin:round;stroke:rgb(92.156863%,92.156863%,92.156863%);stroke-opacity:1;stroke-miterlimit:10;" d="M 43.152344 273.164062 L 391.84375 273.164062 "/>
</g>
<g clip-path="url(#clip12)" clip-rule="nonzero">
<path style="fill:none;stroke-width:1.066978;stroke-linecap:butt;stroke-linejoin:round;stroke:rgb(92.156863%,92.156863%,92.156863%);stroke-opacity:1;stroke-miterlimit:10;" d="M 43.152344 151.488281 L 391.84375 151.488281 "/>
</g>
<g clip-path="url(#clip13)" clip-rule="nonzero">
<path style="fill:none;stroke-width:1.066978;stroke-linecap:butt;stroke-linejoin:round;stroke:rgb(92.156863%,92.156863%,92.156863%);stroke-opacity:1;stroke-miterlimit:10;" d="M 43.152344 29.8125 L 391.84375 29.8125 "/>
</g>
<g clip-path="url(#clip14)" clip-rule="nonzero">
<path style="fill:none;stroke-width:1.066978;stroke-linecap:butt;stroke-linejoin:round;stroke:rgb(92.156863%,92.156863%,92.156863%);stroke-opacity:1;stroke-miterlimit:10;" d="M 59 540.847656 L 59 5.480469 "/>
</g>
<g clip-path="url(#clip15)" clip-rule="nonzero">
<path style="fill:none;stroke-width:1.066978;stroke-linecap:butt;stroke-linejoin:round;stroke:rgb(92.156863%,92.156863%,92.156863%);stroke-opacity:1;stroke-miterlimit:10;" d="M 138.25 540.847656 L 138.25 5.480469 "/>
</g>
<g clip-path="url(#clip16)" clip-rule="nonzero">
<path style="fill:none;stroke-width:1.066978;stroke-linecap:butt;stroke-linejoin:round;stroke:rgb(92.156863%,92.156863%,92.156863%);stroke-opacity:1;stroke-miterlimit:10;" d="M 217.496094 540.847656 L 217.496094 5.480469 "/>
</g>
<g clip-path="url(#clip17)" clip-rule="nonzero">
<path style="fill:none;stroke-width:1.066978;stroke-linecap:butt;stroke-linejoin:round;stroke:rgb(92.156863%,92.156863%,92.156863%);stroke-opacity:1;stroke-miterlimit:10;" d="M 296.746094 540.847656 L 296.746094 5.480469 "/>
</g>
<g clip-path="url(#clip18)" clip-rule="nonzero">
<path style="fill:none;stroke-width:1.066978;stroke-linecap:butt;stroke-linejoin:round;stroke:rgb(92.156863%,92.156863%,92.156863%);stroke-opacity:1;stroke-miterlimit:10;" d="M 375.992188 540.847656 L 375.992188 5.480469 "/>
</g>
<path style="fill:none;stroke-width:1.275591;stroke-linecap:round;stroke-linejoin:round;stroke:rgb(97.254902%,46.27451%,42.745098%);stroke-opacity:1;stroke-miterlimit:10;" d="M 241.929688 31.691406 C 241.929688 36.808594 234.25 36.808594 234.25 31.691406 C 234.25 26.574219 241.929688 26.574219 241.929688 31.691406 "/>
<path style="fill:none;stroke-width:1.275591;stroke-linecap:round;stroke-linejoin:round;stroke:rgb(97.254902%,46.27451%,42.745098%);stroke-opacity:1;stroke-miterlimit:10;" d="M 244.265625 34.714844 L 249.4375 43.667969 L 239.097656 43.667969 L 244.265625 34.714844 "/>
<path style="fill:none;stroke-width:1.275591;stroke-linecap:round;stroke-linejoin:round;stroke:rgb(97.254902%,46.27451%,42.745098%);stroke-opacity:1;stroke-miterlimit:10;" d="M 215.792969 163.0625 L 226.652344 163.0625 "/>
<path style="fill:none;stroke-width:1.275591;stroke-linecap:round;stroke-linejoin:round;stroke:rgb(97.254902%,46.27451%,42.745098%);stroke-opacity:1;stroke-miterlimit:10;" d="M 221.222656 168.492188 L 221.222656 157.632812 "/>
<path style="fill:none;stroke-width:1.275591;stroke-linecap:round;stroke-linejoin:round;stroke:rgb(97.254902%,46.27451%,42.745098%);stroke-opacity:1;stroke-miterlimit:10;" d="M 165.097656 217.160156 L 172.773438 209.480469 "/>
<path style="fill:none;stroke-width:1.275591;stroke-linecap:round;stroke-linejoin:round;stroke:rgb(97.254902%,46.27451%,42.745098%);stroke-opacity:1;stroke-miterlimit:10;" d="M 165.097656 209.480469 L 172.773438 217.160156 "/>
<path style="fill:none;stroke-width:1.275591;stroke-linecap:round;stroke-linejoin:round;stroke:rgb(97.254902%,46.27451%,42.745098%);stroke-opacity:1;stroke-miterlimit:10;" d="M 214.617188 296.78125 L 222.292969 289.105469 "/>
<path style="fill:none;stroke-width:1.275591;stroke-linecap:round;stroke-linejoin:round;stroke:rgb(97.254902%,46.27451%,42.745098%);stroke-opacity:1;stroke-miterlimit:10;" d="M 214.617188 289.105469 L 222.292969 296.78125 "/>
<path style="fill:none;stroke-width:1.275591;stroke-linecap:round;stroke-linejoin:round;stroke:rgb(97.254902%,46.27451%,42.745098%);stroke-opacity:1;stroke-miterlimit:10;" d="M 213.027344 292.945312 L 223.882812 292.945312 "/>
<path style="fill:none;stroke-width:1.275591;stroke-linecap:round;stroke-linejoin:round;stroke:rgb(97.254902%,46.27451%,42.745098%);stroke-opacity:1;stroke-miterlimit:10;" d="M 218.453125 298.371094 L 218.453125 287.515625 "/>
<path style="fill:none;stroke-width:1.275591;stroke-linecap:round;stroke-linejoin:round;stroke:rgb(97.254902%,46.27451%,42.745098%);stroke-opacity:1;stroke-miterlimit:10;" d="M 194.046875 324.246094 L 199.214844 315.292969 L 188.875 315.292969 L 194.046875 324.246094 "/>
<path style="fill:none;stroke-width:1.275591;stroke-linecap:round;stroke-linejoin:round;stroke:rgb(97.254902%,46.27451%,42.745098%);stroke-opacity:1;stroke-miterlimit:10;" d="M 379.832031 29.8125 C 379.832031 34.933594 372.15625 34.933594 372.15625 29.8125 C 372.15625 24.695312 379.832031 24.695312 379.832031 29.8125 "/>
<path style="fill:none;stroke-width:1.275591;stroke-linecap:round;stroke-linejoin:round;stroke:rgb(97.254902%,46.27451%,42.745098%);stroke-opacity:1;stroke-miterlimit:10;" d="M 372.15625 29.8125 L 379.832031 29.8125 "/>
<path style="fill:none;stroke-width:1.275591;stroke-linecap:round;stroke-linejoin:round;stroke:rgb(97.254902%,46.27451%,42.745098%);stroke-opacity:1;stroke-miterlimit:10;" d="M 375.992188 33.652344 L 375.992188 25.976562 "/>
<path style="fill:none;stroke-width:1.275591;stroke-linecap:round;stroke-linejoin:round;stroke:rgb(48.627451%,68.235294%,0%);stroke-opacity:1;stroke-miterlimit:10;" d="M 289.003906 57.523438 C 289.003906 62.640625 281.328125 62.640625 281.328125 57.523438 C 281.328125 52.40625 289.003906 52.40625 289.003906 57.523438 "/>
<path style="fill:none;stroke-width:1.275591;stroke-linecap:round;stroke-linejoin:round;stroke:rgb(48.627451%,68.235294%,0%);stroke-opacity:1;stroke-miterlimit:10;" d="M 323.5 33.570312 L 328.667969 42.527344 L 318.328125 42.527344 L 323.5 33.570312 "/>
<path style="fill:none;stroke-width:1.275591;stroke-linecap:round;stroke-linejoin:round;stroke:rgb(48.627451%,68.235294%,0%);stroke-opacity:1;stroke-miterlimit:10;" d="M 116.679688 365.691406 L 127.535156 365.691406 "/>
<path style="fill:none;stroke-width:1.275591;stroke-linecap:round;stroke-linejoin:round;stroke:rgb(48.627451%,68.235294%,0%);stroke-opacity:1;stroke-miterlimit:10;" d="M 122.109375 371.121094 L 122.109375 360.261719 "/>
<path style="fill:none;stroke-width:1.275591;stroke-linecap:round;stroke-linejoin:round;stroke:rgb(48.627451%,68.235294%,0%);stroke-opacity:1;stroke-miterlimit:10;" d="M 267.683594 53.703125 L 275.363281 46.027344 "/>
<path style="fill:none;stroke-width:1.275591;stroke-linecap:round;stroke-linejoin:round;stroke:rgb(48.627451%,68.235294%,0%);stroke-opacity:1;stroke-miterlimit:10;" d="M 267.683594 46.027344 L 275.363281 53.703125 "/>
<path style="fill:none;stroke-width:1.275591;stroke-linecap:round;stroke-linejoin:round;stroke:rgb(48.627451%,68.235294%,0%);stroke-opacity:1;stroke-miterlimit:10;" d="M 168.925781 284.5 L 176.601562 284.5 L 176.601562 276.824219 L 168.925781 276.824219 Z M 168.925781 284.5 "/>
<path style="fill:none;stroke-width:1.275591;stroke-linecap:round;stroke-linejoin:round;stroke:rgb(48.627451%,68.235294%,0%);stroke-opacity:1;stroke-miterlimit:10;" d="M 168.925781 284.5 L 176.601562 276.820312 "/>
<path style="fill:none;stroke-width:1.275591;stroke-linecap:round;stroke-linejoin:round;stroke:rgb(48.627451%,68.235294%,0%);stroke-opacity:1;stroke-miterlimit:10;" d="M 168.925781 276.820312 L 176.601562 284.5 "/>
<path style="fill:none;stroke-width:1.275591;stroke-linecap:round;stroke-linejoin:round;stroke:rgb(48.627451%,68.235294%,0%);stroke-opacity:1;stroke-miterlimit:10;" d="M 165.09375 280.984375 L 172.769531 273.304688 "/>
<path style="fill:none;stroke-width:1.275591;stroke-linecap:round;stroke-linejoin:round;stroke:rgb(48.627451%,68.235294%,0%);stroke-opacity:1;stroke-miterlimit:10;" d="M 165.09375 273.304688 L 172.769531 280.984375 "/>
<path style="fill:none;stroke-width:1.275591;stroke-linecap:round;stroke-linejoin:round;stroke:rgb(48.627451%,68.235294%,0%);stroke-opacity:1;stroke-miterlimit:10;" d="M 163.503906 277.144531 L 174.359375 277.144531 "/>
<path style="fill:none;stroke-width:1.275591;stroke-linecap:round;stroke-linejoin:round;stroke:rgb(48.627451%,68.235294%,0%);stroke-opacity:1;stroke-miterlimit:10;" d="M 168.929688 282.574219 L 168.929688 271.714844 "/>
<path style="fill:none;stroke-width:1.275591;stroke-linecap:round;stroke-linejoin:round;stroke:rgb(48.627451%,68.235294%,0%);stroke-opacity:1;stroke-miterlimit:10;" d="M 163.507812 275.1875 L 168.9375 269.757812 L 174.367188 275.1875 L 168.9375 280.617188 L 163.507812 275.1875 "/>
<path style="fill:none;stroke-width:1.275591;stroke-linecap:round;stroke-linejoin:round;stroke:rgb(48.627451%,68.235294%,0%);stroke-opacity:1;stroke-miterlimit:10;" d="M 170.160156 284.335938 L 175.332031 275.378906 L 164.992188 275.378906 L 170.160156 284.335938 "/>
<path style="fill:none;stroke-width:1.275591;stroke-linecap:round;stroke-linejoin:round;stroke:rgb(48.627451%,68.235294%,0%);stroke-opacity:1;stroke-miterlimit:10;" d="M 301.175781 48.441406 L 312.035156 48.441406 "/>
<path style="fill:none;stroke-width:1.275591;stroke-linecap:round;stroke-linejoin:round;stroke:rgb(48.627451%,68.235294%,0%);stroke-opacity:1;stroke-miterlimit:10;" d="M 306.605469 53.867188 L 306.605469 43.011719 "/>
<path style="fill:none;stroke-width:1.275591;stroke-linecap:round;stroke-linejoin:round;stroke:rgb(48.627451%,68.235294%,0%);stroke-opacity:1;stroke-miterlimit:10;" d="M 301.175781 48.441406 L 306.605469 43.011719 L 312.035156 48.441406 L 306.605469 53.867188 L 301.175781 48.441406 "/>
<path style="fill:none;stroke-width:1.275591;stroke-linecap:round;stroke-linejoin:round;stroke:rgb(48.627451%,68.235294%,0%);stroke-opacity:1;stroke-miterlimit:10;" d="M 379.832031 29.8125 C 379.832031 34.933594 372.15625 34.933594 372.15625 29.8125 C 372.15625 24.695312 379.832031 24.695312 379.832031 29.8125 "/>
<path style="fill:none;stroke-width:1.275591;stroke-linecap:round;stroke-linejoin:round;stroke:rgb(48.627451%,68.235294%,0%);stroke-opacity:1;stroke-miterlimit:10;" d="M 372.15625 29.8125 L 379.832031 29.8125 "/>
<path style="fill:none;stroke-width:1.275591;stroke-linecap:round;stroke-linejoin:round;stroke:rgb(48.627451%,68.235294%,0%);stroke-opacity:1;stroke-miterlimit:10;" d="M 375.992188 33.652344 L 375.992188 25.976562 "/>
<path style="fill:none;stroke-width:1.275591;stroke-linecap:round;stroke-linejoin:round;stroke:rgb(0%,74.901961%,76.862745%);stroke-opacity:1;stroke-miterlimit:10;" d="M 308.726562 55.007812 C 308.726562 60.125 301.050781 60.125 301.050781 55.007812 C 301.050781 49.886719 308.726562 49.886719 308.726562 55.007812 "/>
<path style="fill:none;stroke-width:1.275591;stroke-linecap:round;stroke-linejoin:round;stroke:rgb(0%,74.901961%,76.862745%);stroke-opacity:1;stroke-miterlimit:10;" d="M 347.429688 28.808594 L 352.597656 37.765625 L 342.257812 37.765625 L 347.429688 28.808594 "/>
<path style="fill:none;stroke-width:1.275591;stroke-linecap:round;stroke-linejoin:round;stroke:rgb(0%,74.901961%,76.862745%);stroke-opacity:1;stroke-miterlimit:10;" d="M 114.199219 371.125 L 125.058594 371.125 "/>
<path style="fill:none;stroke-width:1.275591;stroke-linecap:round;stroke-linejoin:round;stroke:rgb(0%,74.901961%,76.862745%);stroke-opacity:1;stroke-miterlimit:10;" d="M 119.628906 376.550781 L 119.628906 365.695312 "/>
<path style="fill:none;stroke-width:1.275591;stroke-linecap:round;stroke-linejoin:round;stroke:rgb(0%,74.901961%,76.862745%);stroke-opacity:1;stroke-miterlimit:10;" d="M 299.554688 71.808594 L 307.230469 64.132812 "/>
<path style="fill:none;stroke-width:1.275591;stroke-linecap:round;stroke-linejoin:round;stroke:rgb(0%,74.901961%,76.862745%);stroke-opacity:1;stroke-miterlimit:10;" d="M 299.554688 64.132812 L 307.230469 71.808594 "/>
<path style="fill:none;stroke-width:1.275591;stroke-linecap:round;stroke-linejoin:round;stroke:rgb(0%,74.901961%,76.862745%);stroke-opacity:1;stroke-miterlimit:10;" d="M 186.769531 343.078125 L 194.445312 343.078125 L 194.445312 335.402344 L 186.769531 335.402344 Z M 186.769531 343.078125 "/>
<path style="fill:none;stroke-width:1.275591;stroke-linecap:round;stroke-linejoin:round;stroke:rgb(0%,74.901961%,76.862745%);stroke-opacity:1;stroke-miterlimit:10;" d="M 186.769531 343.078125 L 194.445312 335.402344 "/>
<path style="fill:none;stroke-width:1.275591;stroke-linecap:round;stroke-linejoin:round;stroke:rgb(0%,74.901961%,76.862745%);stroke-opacity:1;stroke-miterlimit:10;" d="M 186.769531 335.402344 L 194.445312 343.078125 "/>
<path style="fill:none;stroke-width:1.275591;stroke-linecap:round;stroke-linejoin:round;stroke:rgb(0%,74.901961%,76.862745%);stroke-opacity:1;stroke-miterlimit:10;" d="M 190.242188 347.253906 L 197.917969 339.574219 "/>
<path style="fill:none;stroke-width:1.275591;stroke-linecap:round;stroke-linejoin:round;stroke:rgb(0%,74.901961%,76.862745%);stroke-opacity:1;stroke-miterlimit:10;" d="M 190.242188 339.574219 L 197.917969 347.253906 "/>
<path style="fill:none;stroke-width:1.275591;stroke-linecap:round;stroke-linejoin:round;stroke:rgb(0%,74.901961%,76.862745%);stroke-opacity:1;stroke-miterlimit:10;" d="M 188.652344 343.414062 L 199.507812 343.414062 "/>
<path style="fill:none;stroke-width:1.275591;stroke-linecap:round;stroke-linejoin:round;stroke:rgb(0%,74.901961%,76.862745%);stroke-opacity:1;stroke-miterlimit:10;" d="M 194.082031 348.84375 L 194.082031 337.984375 "/>
<path style="fill:none;stroke-width:1.275591;stroke-linecap:round;stroke-linejoin:round;stroke:rgb(0%,74.901961%,76.862745%);stroke-opacity:1;stroke-miterlimit:10;" d="M 188.652344 343.414062 L 194.082031 337.984375 L 199.507812 343.414062 L 194.082031 348.84375 L 188.652344 343.414062 "/>
<path style="fill:none;stroke-width:1.275591;stroke-linecap:round;stroke-linejoin:round;stroke:rgb(0%,74.901961%,76.862745%);stroke-opacity:1;stroke-miterlimit:10;" d="M 199 339.378906 L 204.167969 330.425781 L 193.828125 330.425781 L 199 339.378906 "/>
<path style="fill:none;stroke-width:1.275591;stroke-linecap:round;stroke-linejoin:round;stroke:rgb(0%,74.901961%,76.862745%);stroke-opacity:1;stroke-miterlimit:10;" d="M 330.011719 39.664062 L 340.867188 39.664062 "/>
<path style="fill:none;stroke-width:1.275591;stroke-linecap:round;stroke-linejoin:round;stroke:rgb(0%,74.901961%,76.862745%);stroke-opacity:1;stroke-miterlimit:10;" d="M 335.4375 45.09375 L 335.4375 34.238281 "/>
<path style="fill:none;stroke-width:1.275591;stroke-linecap:round;stroke-linejoin:round;stroke:rgb(0%,74.901961%,76.862745%);stroke-opacity:1;stroke-miterlimit:10;" d="M 330.011719 39.664062 L 335.4375 34.238281 L 340.867188 39.664062 L 335.4375 45.09375 L 330.011719 39.664062 "/>
<path style="fill:none;stroke-width:1.275591;stroke-linecap:round;stroke-linejoin:round;stroke:rgb(0%,74.901961%,76.862745%);stroke-opacity:1;stroke-miterlimit:10;" d="M 379.832031 29.8125 C 379.832031 34.933594 372.15625 34.933594 372.15625 29.8125 C 372.15625 24.695312 379.832031 24.695312 379.832031 29.8125 "/>
<path style="fill:none;stroke-width:1.275591;stroke-linecap:round;stroke-linejoin:round;stroke:rgb(0%,74.901961%,76.862745%);stroke-opacity:1;stroke-miterlimit:10;" d="M 372.15625 29.8125 L 379.832031 29.8125 "/>
<path style="fill:none;stroke-width:1.275591;stroke-linecap:round;stroke-linejoin:round;stroke:rgb(0%,74.901961%,76.862745%);stroke-opacity:1;stroke-miterlimit:10;" d="M 375.992188 33.652344 L 375.992188 25.976562 "/>
<path style="fill:none;stroke-width:1.275591;stroke-linecap:round;stroke-linejoin:round;stroke:rgb(78.039216%,48.627451%,100%);stroke-opacity:1;stroke-miterlimit:10;" d="M 309.738281 57.265625 C 309.738281 62.386719 302.058594 62.386719 302.058594 57.265625 C 302.058594 52.148438 309.738281 52.148438 309.738281 57.265625 "/>
<path style="fill:none;stroke-width:1.275591;stroke-linecap:round;stroke-linejoin:round;stroke:rgb(78.039216%,48.627451%,100%);stroke-opacity:1;stroke-miterlimit:10;" d="M 351.253906 30.65625 L 356.421875 39.609375 L 346.082031 39.609375 L 351.253906 30.65625 "/>
<path style="fill:none;stroke-width:1.275591;stroke-linecap:round;stroke-linejoin:round;stroke:rgb(78.039216%,48.627451%,100%);stroke-opacity:1;stroke-miterlimit:10;" d="M 58.433594 487.363281 L 69.292969 487.363281 "/>
<path style="fill:none;stroke-width:1.275591;stroke-linecap:round;stroke-linejoin:round;stroke:rgb(78.039216%,48.627451%,100%);stroke-opacity:1;stroke-miterlimit:10;" d="M 63.863281 492.789062 L 63.863281 481.933594 "/>
<path style="fill:none;stroke-width:1.275591;stroke-linecap:round;stroke-linejoin:round;stroke:rgb(78.039216%,48.627451%,100%);stroke-opacity:1;stroke-miterlimit:10;" d="M 321.933594 83.84375 L 329.613281 76.164062 "/>
<path style="fill:none;stroke-width:1.275591;stroke-linecap:round;stroke-linejoin:round;stroke:rgb(78.039216%,48.627451%,100%);stroke-opacity:1;stroke-miterlimit:10;" d="M 321.933594 76.164062 L 329.613281 83.84375 "/>
<path style="fill:none;stroke-width:1.275591;stroke-linecap:round;stroke-linejoin:round;stroke:rgb(78.039216%,48.627451%,100%);stroke-opacity:1;stroke-miterlimit:10;" d="M 213.269531 278.210938 L 220.945312 278.210938 L 220.945312 270.535156 L 213.269531 270.535156 Z M 213.269531 278.210938 "/>
<path style="fill:none;stroke-width:1.275591;stroke-linecap:round;stroke-linejoin:round;stroke:rgb(78.039216%,48.627451%,100%);stroke-opacity:1;stroke-miterlimit:10;" d="M 213.269531 278.210938 L 220.945312 270.53125 "/>
<path style="fill:none;stroke-width:1.275591;stroke-linecap:round;stroke-linejoin:round;stroke:rgb(78.039216%,48.627451%,100%);stroke-opacity:1;stroke-miterlimit:10;" d="M 213.269531 270.53125 L 220.945312 278.210938 "/>
<path style="fill:none;stroke-width:1.275591;stroke-linecap:round;stroke-linejoin:round;stroke:rgb(78.039216%,48.627451%,100%);stroke-opacity:1;stroke-miterlimit:10;" d="M 211.367188 279.796875 L 219.042969 272.117188 "/>
<path style="fill:none;stroke-width:1.275591;stroke-linecap:round;stroke-linejoin:round;stroke:rgb(78.039216%,48.627451%,100%);stroke-opacity:1;stroke-miterlimit:10;" d="M 211.367188 272.117188 L 219.042969 279.796875 "/>
<path style="fill:none;stroke-width:1.275591;stroke-linecap:round;stroke-linejoin:round;stroke:rgb(78.039216%,48.627451%,100%);stroke-opacity:1;stroke-miterlimit:10;" d="M 209.777344 275.957031 L 220.632812 275.957031 "/>
<path style="fill:none;stroke-width:1.275591;stroke-linecap:round;stroke-linejoin:round;stroke:rgb(78.039216%,48.627451%,100%);stroke-opacity:1;stroke-miterlimit:10;" d="M 215.207031 281.386719 L 215.207031 270.527344 "/>
<path style="fill:none;stroke-width:1.275591;stroke-linecap:round;stroke-linejoin:round;stroke:rgb(78.039216%,48.627451%,100%);stroke-opacity:1;stroke-miterlimit:10;" d="M 209.777344 275.957031 L 215.207031 270.527344 L 220.632812 275.957031 L 215.207031 281.386719 L 209.777344 275.957031 "/>
<path style="fill:none;stroke-width:1.275591;stroke-linecap:round;stroke-linejoin:round;stroke:rgb(78.039216%,48.627451%,100%);stroke-opacity:1;stroke-miterlimit:10;" d="M 217.40625 279.78125 L 222.578125 270.828125 L 212.238281 270.828125 L 217.40625 279.78125 "/>
<path style="fill:none;stroke-width:1.275591;stroke-linecap:round;stroke-linejoin:round;stroke:rgb(78.039216%,48.627451%,100%);stroke-opacity:1;stroke-miterlimit:10;" d="M 325.710938 40.640625 L 336.566406 40.640625 "/>
<path style="fill:none;stroke-width:1.275591;stroke-linecap:round;stroke-linejoin:round;stroke:rgb(78.039216%,48.627451%,100%);stroke-opacity:1;stroke-miterlimit:10;" d="M 331.136719 46.070312 L 331.136719 35.210938 "/>
<path style="fill:none;stroke-width:1.275591;stroke-linecap:round;stroke-linejoin:round;stroke:rgb(78.039216%,48.627451%,100%);stroke-opacity:1;stroke-miterlimit:10;" d="M 325.710938 40.640625 L 331.136719 35.210938 L 336.566406 40.640625 L 331.136719 46.070312 L 325.710938 40.640625 "/>
<path style="fill:none;stroke-width:1.275591;stroke-linecap:round;stroke-linejoin:round;stroke:rgb(78.039216%,48.627451%,100%);stroke-opacity:1;stroke-miterlimit:10;" d="M 379.832031 29.8125 C 379.832031 34.933594 372.15625 34.933594 372.15625 29.8125 C 372.15625 24.695312 379.832031 24.695312 379.832031 29.8125 "/>
<path style="fill:none;stroke-width:1.275591;stroke-linecap:round;stroke-linejoin:round;stroke:rgb(78.039216%,48.627451%,100%);stroke-opacity:1;stroke-miterlimit:10;" d="M 372.15625 29.8125 L 379.832031 29.8125 "/>
<path style="fill:none;stroke-width:1.275591;stroke-linecap:round;stroke-linejoin:round;stroke:rgb(78.039216%,48.627451%,100%);stroke-opacity:1;stroke-miterlimit:10;" d="M 375.992188 33.652344 L 375.992188 25.976562 "/>
<g style="fill:rgb(30.196078%,30.196078%,30.196078%);fill-opacity:1;">
  <use xlink:href="#glyph0-1" x="20.21875" y="519.430664"/>
  <use xlink:href="#glyph0-2" x="25.111328" y="519.430664"/>
  <use xlink:href="#glyph0-1" x="27.557617" y="519.430664"/>
  <use xlink:href="#glyph0-1" x="32.450195" y="519.430664"/>
</g>
<g style="fill:rgb(30.196078%,30.196078%,30.196078%);fill-opacity:1;">
  <use xlink:href="#glyph0-1" x="20.21875" y="397.754883"/>
  <use xlink:href="#glyph0-2" x="25.111328" y="397.754883"/>
  <use xlink:href="#glyph0-3" x="27.557617" y="397.754883"/>
  <use xlink:href="#glyph0-4" x="32.450195" y="397.754883"/>
</g>
<g style="fill:rgb(30.196078%,30.196078%,30.196078%);fill-opacity:1;">
  <use xlink:href="#glyph0-1" x="20.21875" y="276.079102"/>
  <use xlink:href="#glyph0-2" x="25.111328" y="276.079102"/>
  <use xlink:href="#glyph0-4" x="27.557617" y="276.079102"/>
  <use xlink:href="#glyph0-1" x="32.450195" y="276.079102"/>
</g>
<g style="fill:rgb(30.196078%,30.196078%,30.196078%);fill-opacity:1;">
  <use xlink:href="#glyph0-1" x="20.21875" y="154.40332"/>
  <use xlink:href="#glyph0-2" x="25.111328" y="154.40332"/>
  <use xlink:href="#glyph0-5" x="27.557617" y="154.40332"/>
  <use xlink:href="#glyph0-4" x="32.450195" y="154.40332"/>
</g>
<g style="fill:rgb(30.196078%,30.196078%,30.196078%);fill-opacity:1;">
  <use xlink:href="#glyph0-6" x="20.21875" y="32.727539"/>
  <use xlink:href="#glyph0-2" x="25.111328" y="32.727539"/>
  <use xlink:href="#glyph0-1" x="27.557617" y="32.727539"/>
  <use xlink:href="#glyph0-1" x="32.450195" y="32.727539"/>
</g>
<g style="fill:rgb(30.196078%,30.196078%,30.196078%);fill-opacity:1;">
  <use xlink:href="#glyph0-1" x="50" y="552.196289"/>
  <use xlink:href="#glyph0-2" x="54.892578" y="552.196289"/>
  <use xlink:href="#glyph0-1" x="57.338867" y="552.196289"/>
  <use xlink:href="#glyph0-1" x="62.231445" y="552.196289"/>
</g>
<g style="fill:rgb(30.196078%,30.196078%,30.196078%);fill-opacity:1;">
  <use xlink:href="#glyph0-1" x="129.25" y="552.196289"/>
  <use xlink:href="#glyph0-2" x="134.142578" y="552.196289"/>
  <use xlink:href="#glyph0-3" x="136.588867" y="552.196289"/>
  <use xlink:href="#glyph0-4" x="141.481445" y="552.196289"/>
</g>
<g style="fill:rgb(30.196078%,30.196078%,30.196078%);fill-opacity:1;">
  <use xlink:href="#glyph0-1" x="208.496094" y="552.196289"/>
  <use xlink:href="#glyph0-2" x="213.388672" y="552.196289"/>
  <use xlink:href="#glyph0-4" x="215.834961" y="552.196289"/>
  <use xlink:href="#glyph0-1" x="220.727539" y="552.196289"/>
</g>
<g style="fill:rgb(30.196078%,30.196078%,30.196078%);fill-opacity:1;">
  <use xlink:href="#glyph0-1" x="287.746094" y="552.196289"/>
  <use xlink:href="#glyph0-2" x="292.638672" y="552.196289"/>
  <use xlink:href="#glyph0-5" x="295.084961" y="552.196289"/>
  <use xlink:href="#glyph0-4" x="299.977539" y="552.196289"/>
</g>
<g style="fill:rgb(30.196078%,30.196078%,30.196078%);fill-opacity:1;">
  <use xlink:href="#glyph0-6" x="366.992188" y="552.196289"/>
  <use xlink:href="#glyph0-2" x="371.884766" y="552.196289"/>
  <use xlink:href="#glyph0-1" x="374.331055" y="552.196289"/>
  <use xlink:href="#glyph0-1" x="379.223633" y="552.196289"/>
</g>
<g style="fill:rgb(0%,0%,0%);fill-opacity:1;">
  <use xlink:href="#glyph1-1" x="173.496094" y="566.538086"/>
  <use xlink:href="#glyph1-2" x="180.50293" y="566.538086"/>
  <use xlink:href="#glyph1-3" x="185.783203" y="566.538086"/>
  <use xlink:href="#glyph1-4" x="191.899414" y="566.538086"/>
  <use xlink:href="#glyph1-5" x="195.518555" y="566.538086"/>
  <use xlink:href="#glyph1-6" x="201.557617" y="566.538086"/>
  <use xlink:href="#glyph1-3" x="207.619141" y="566.538086"/>
  <use xlink:href="#glyph1-7" x="213.735352" y="566.538086"/>
  <use xlink:href="#glyph1-8" x="216.792969" y="566.538086"/>
  <use xlink:href="#glyph1-4" x="222.90918" y="566.538086"/>
  <use xlink:href="#glyph1-3" x="226.461914" y="566.538086"/>
  <use xlink:href="#glyph1-9" x="232.578125" y="566.538086"/>
  <use xlink:href="#glyph1-10" x="238.078125" y="566.538086"/>
  <use xlink:href="#glyph1-11" x="240.520508" y="566.538086"/>
  <use xlink:href="#glyph1-10" x="246.020508" y="566.538086"/>
  <use xlink:href="#glyph1-12" x="248.462891" y="566.538086"/>
  <use xlink:href="#glyph1-13" x="254.579102" y="566.538086"/>
</g>
<g style="fill:rgb(0%,0%,0%);fill-opacity:1;">
  <use xlink:href="#glyph2-1" x="13.499023" y="317.164062"/>
  <use xlink:href="#glyph2-2" x="13.499023" y="310.157227"/>
  <use xlink:href="#glyph2-3" x="13.499023" y="304.876953"/>
  <use xlink:href="#glyph2-4" x="13.499023" y="298.760742"/>
  <use xlink:href="#glyph2-5" x="13.499023" y="295.141602"/>
  <use xlink:href="#glyph2-6" x="13.499023" y="289.102539"/>
  <use xlink:href="#glyph2-3" x="13.499023" y="283.041016"/>
  <use xlink:href="#glyph2-7" x="13.499023" y="276.924805"/>
  <use xlink:href="#glyph2-5" x="13.499023" y="273.867188"/>
  <use xlink:href="#glyph2-8" x="13.499023" y="267.750977"/>
  <use xlink:href="#glyph2-8" x="13.499023" y="262.129883"/>
  <use xlink:href="#glyph2-9" x="13.499023" y="256.619141"/>
  <use xlink:href="#glyph2-4" x="13.499023" y="250.50293"/>
  <use xlink:href="#glyph2-5" x="13.499023" y="246.883789"/>
  <use xlink:href="#glyph2-8" x="13.499023" y="240.767578"/>
  <use xlink:href="#glyph2-10" x="13.499023" y="235.333984"/>
</g>
<g style="fill:rgb(0%,0%,0%);fill-opacity:1;">
  <use xlink:href="#glyph1-14" x="408.28125" y="133.28418"/>
  <use xlink:href="#glyph1-5" x="414.353516" y="133.28418"/>
  <use xlink:href="#glyph1-15" x="420.348633" y="133.28418"/>
  <use xlink:href="#glyph1-5" x="423.383789" y="133.28418"/>
  <use xlink:href="#glyph1-11" x="429.5" y="133.28418"/>
  <use xlink:href="#glyph1-3" x="435" y="133.28418"/>
  <use xlink:href="#glyph1-15" x="441.017578" y="133.28418"/>
</g>
<path style="fill-rule:nonzero;fill:rgb(97.254902%,46.27451%,42.745098%);fill-opacity:1;stroke-width:1.275591;stroke-linecap:round;stroke-linejoin:round;stroke:rgb(97.254902%,46.27451%,42.745098%);stroke-opacity:1;stroke-miterlimit:10;" d="M 420.761719 149.886719 C 420.761719 155.003906 413.082031 155.003906 413.082031 149.886719 C 413.082031 144.765625 420.761719 144.765625 420.761719 149.886719 "/>
<path style="fill-rule:nonzero;fill:rgb(48.627451%,68.235294%,0%);fill-opacity:1;stroke-width:1.275591;stroke-linecap:round;stroke-linejoin:round;stroke:rgb(48.627451%,68.235294%,0%);stroke-opacity:1;stroke-miterlimit:10;" d="M 420.761719 167.164062 C 420.761719 172.285156 413.082031 172.285156 413.082031 167.164062 C 413.082031 162.046875 420.761719 162.046875 420.761719 167.164062 "/>
<path style="fill-rule:nonzero;fill:rgb(0%,74.901961%,76.862745%);fill-opacity:1;stroke-width:1.275591;stroke-linecap:round;stroke-linejoin:round;stroke:rgb(0%,74.901961%,76.862745%);stroke-opacity:1;stroke-miterlimit:10;" d="M 420.761719 184.445312 C 420.761719 189.5625 413.082031 189.5625 413.082031 184.445312 C 413.082031 179.328125 420.761719 179.328125 420.761719 184.445312 "/>
<path style="fill-rule:nonzero;fill:rgb(78.039216%,48.627451%,100%);fill-opacity:1;stroke-width:1.275591;stroke-linecap:round;stroke-linejoin:round;stroke:rgb(78.039216%,48.627451%,100%);stroke-opacity:1;stroke-miterlimit:10;" d="M 420.761719 201.726562 C 420.761719 206.84375 413.082031 206.84375 413.082031 201.726562 C 413.082031 196.605469 420.761719 196.605469 420.761719 201.726562 "/>
<g style="fill:rgb(0%,0%,0%);fill-opacity:1;">
  <use xlink:href="#glyph0-7" x="431.042969" y="152.801758"/>
  <use xlink:href="#glyph0-8" x="437.106445" y="152.801758"/>
  <use xlink:href="#glyph0-9" x="442.975586" y="152.801758"/>
  <use xlink:href="#glyph0-10" x="450.305664" y="152.801758"/>
  <use xlink:href="#glyph0-6" x="452.751953" y="152.801758"/>
  <use xlink:href="#glyph0-11" x="457.644531" y="152.801758"/>
</g>
<g style="fill:rgb(0%,0%,0%);fill-opacity:1;">
  <use xlink:href="#glyph0-12" x="431.042969" y="170.079102"/>
</g>
<g style="fill:rgb(0%,0%,0%);fill-opacity:1;">
  <use xlink:href="#glyph0-9" x="431.042969" y="187.360352"/>
</g>
<g style="fill:rgb(0%,0%,0%);fill-opacity:1;">
  <use xlink:href="#glyph0-13" x="431.042969" y="204.641602"/>
</g>
<g style="fill:rgb(0%,0%,0%);fill-opacity:1;">
  <use xlink:href="#glyph1-15" x="408.28125" y="241.803711"/>
  <use xlink:href="#glyph1-12" x="411.207031" y="241.803711"/>
  <use xlink:href="#glyph1-12" x="417.323242" y="241.803711"/>
  <use xlink:href="#glyph1-16" x="423.439453" y="241.803711"/>
</g>
<path style="fill:none;stroke-width:1.275591;stroke-linecap:round;stroke-linejoin:round;stroke:rgb(0%,0%,0%);stroke-opacity:1;stroke-miterlimit:10;" d="M 420.761719 258.402344 C 420.761719 263.519531 413.082031 263.519531 413.082031 258.402344 C 413.082031 253.285156 420.761719 253.285156 420.761719 258.402344 "/>
<path style="fill:none;stroke-width:1.275591;stroke-linecap:round;stroke-linejoin:round;stroke:rgb(0%,0%,0%);stroke-opacity:1;stroke-miterlimit:10;" d="M 416.921875 269.714844 L 422.089844 278.667969 L 411.75 278.667969 L 416.921875 269.714844 "/>
<path style="fill:none;stroke-width:1.275591;stroke-linecap:round;stroke-linejoin:round;stroke:rgb(0%,0%,0%);stroke-opacity:1;stroke-miterlimit:10;" d="M 411.492188 292.960938 L 422.351562 292.960938 "/>
<path style="fill:none;stroke-width:1.275591;stroke-linecap:round;stroke-linejoin:round;stroke:rgb(0%,0%,0%);stroke-opacity:1;stroke-miterlimit:10;" d="M 416.921875 298.390625 L 416.921875 287.535156 "/>
<path style="fill:none;stroke-width:1.275591;stroke-linecap:round;stroke-linejoin:round;stroke:rgb(0%,0%,0%);stroke-opacity:1;stroke-miterlimit:10;" d="M 413.082031 314.082031 L 420.761719 306.402344 "/>
<path style="fill:none;stroke-width:1.275591;stroke-linecap:round;stroke-linejoin:round;stroke:rgb(0%,0%,0%);stroke-opacity:1;stroke-miterlimit:10;" d="M 413.082031 306.402344 L 420.761719 314.082031 "/>
<path style="fill:none;stroke-width:1.275591;stroke-linecap:round;stroke-linejoin:round;stroke:rgb(0%,0%,0%);stroke-opacity:1;stroke-miterlimit:10;" d="M 411.492188 327.523438 L 416.921875 322.09375 L 422.351562 327.523438 L 416.921875 332.953125 L 411.492188 327.523438 "/>
<path style="fill:none;stroke-width:1.275591;stroke-linecap:round;stroke-linejoin:round;stroke:rgb(0%,0%,0%);stroke-opacity:1;stroke-miterlimit:10;" d="M 416.921875 350.773438 L 422.089844 341.816406 L 411.75 341.816406 L 416.921875 350.773438 "/>
<path style="fill:none;stroke-width:1.275591;stroke-linecap:round;stroke-linejoin:round;stroke:rgb(0%,0%,0%);stroke-opacity:1;stroke-miterlimit:10;" d="M 413.082031 365.921875 L 420.757812 365.921875 L 420.757812 358.246094 L 413.082031 358.246094 Z M 413.082031 365.921875 "/>
<path style="fill:none;stroke-width:1.275591;stroke-linecap:round;stroke-linejoin:round;stroke:rgb(0%,0%,0%);stroke-opacity:1;stroke-miterlimit:10;" d="M 413.082031 365.921875 L 420.761719 358.242188 "/>
<path style="fill:none;stroke-width:1.275591;stroke-linecap:round;stroke-linejoin:round;stroke:rgb(0%,0%,0%);stroke-opacity:1;stroke-miterlimit:10;" d="M 413.082031 358.242188 L 420.761719 365.921875 "/>
<path style="fill:none;stroke-width:1.275591;stroke-linecap:round;stroke-linejoin:round;stroke:rgb(0%,0%,0%);stroke-opacity:1;stroke-miterlimit:10;" d="M 413.082031 383.203125 L 420.761719 375.523438 "/>
<path style="fill:none;stroke-width:1.275591;stroke-linecap:round;stroke-linejoin:round;stroke:rgb(0%,0%,0%);stroke-opacity:1;stroke-miterlimit:10;" d="M 413.082031 375.523438 L 420.761719 383.203125 "/>
<path style="fill:none;stroke-width:1.275591;stroke-linecap:round;stroke-linejoin:round;stroke:rgb(0%,0%,0%);stroke-opacity:1;stroke-miterlimit:10;" d="M 411.492188 379.363281 L 422.351562 379.363281 "/>
<path style="fill:none;stroke-width:1.275591;stroke-linecap:round;stroke-linejoin:round;stroke:rgb(0%,0%,0%);stroke-opacity:1;stroke-miterlimit:10;" d="M 416.921875 384.792969 L 416.921875 373.933594 "/>
<path style="fill:none;stroke-width:1.275591;stroke-linecap:round;stroke-linejoin:round;stroke:rgb(0%,0%,0%);stroke-opacity:1;stroke-miterlimit:10;" d="M 411.492188 396.644531 L 422.351562 396.644531 "/>
<path style="fill:none;stroke-width:1.275591;stroke-linecap:round;stroke-linejoin:round;stroke:rgb(0%,0%,0%);stroke-opacity:1;stroke-miterlimit:10;" d="M 416.921875 402.070312 L 416.921875 391.214844 "/>
<path style="fill:none;stroke-width:1.275591;stroke-linecap:round;stroke-linejoin:round;stroke:rgb(0%,0%,0%);stroke-opacity:1;stroke-miterlimit:10;" d="M 411.492188 396.644531 L 416.921875 391.214844 L 422.351562 396.644531 L 416.921875 402.070312 L 411.492188 396.644531 "/>
<path style="fill:none;stroke-width:1.275591;stroke-linecap:round;stroke-linejoin:round;stroke:rgb(0%,0%,0%);stroke-opacity:1;stroke-miterlimit:10;" d="M 420.761719 413.921875 C 420.761719 419.042969 413.082031 419.042969 413.082031 413.921875 C 413.082031 408.804688 420.761719 408.804688 420.761719 413.921875 "/>
<path style="fill:none;stroke-width:1.275591;stroke-linecap:round;stroke-linejoin:round;stroke:rgb(0%,0%,0%);stroke-opacity:1;stroke-miterlimit:10;" d="M 413.082031 413.921875 L 420.761719 413.921875 "/>
<path style="fill:none;stroke-width:1.275591;stroke-linecap:round;stroke-linejoin:round;stroke:rgb(0%,0%,0%);stroke-opacity:1;stroke-miterlimit:10;" d="M 416.921875 417.761719 L 416.921875 410.085938 "/>
<g style="fill:rgb(0%,0%,0%);fill-opacity:1;">
  <use xlink:href="#glyph0-14" x="431.042969" y="261.317383"/>
  <use xlink:href="#glyph0-15" x="435.513672" y="261.317383"/>
  <use xlink:href="#glyph0-14" x="440.40625" y="261.317383"/>
  <use xlink:href="#glyph0-16" x="444.868164" y="261.317383"/>
  <use xlink:href="#glyph0-14" x="449.760742" y="261.317383"/>
  <use xlink:href="#glyph0-15" x="454.231445" y="261.317383"/>
  <use xlink:href="#glyph0-17" x="459.124023" y="261.317383"/>
  <use xlink:href="#glyph0-16" x="461.077148" y="261.317383"/>
</g>
<g style="fill:rgb(0%,0%,0%);fill-opacity:1;">
  <use xlink:href="#glyph0-14" x="431.042969" y="278.598633"/>
  <use xlink:href="#glyph0-15" x="435.513672" y="278.598633"/>
  <use xlink:href="#glyph0-18" x="440.40625" y="278.598633"/>
  <use xlink:href="#glyph0-14" x="445.298828" y="278.598633"/>
  <use xlink:href="#glyph0-15" x="449.769531" y="278.598633"/>
  <use xlink:href="#glyph0-14" x="454.662109" y="278.598633"/>
  <use xlink:href="#glyph0-19" x="459.132812" y="278.598633"/>
</g>
<g style="fill:rgb(0%,0%,0%);fill-opacity:1;">
  <use xlink:href="#glyph0-20" x="431.042969" y="295.875977"/>
  <use xlink:href="#glyph0-16" x="435.900391" y="295.875977"/>
  <use xlink:href="#glyph0-21" x="440.792969" y="295.875977"/>
  <use xlink:href="#glyph0-22" x="445.193359" y="295.875977"/>
  <use xlink:href="#glyph0-19" x="450.085938" y="295.875977"/>
  <use xlink:href="#glyph0-15" x="452.426758" y="295.875977"/>
  <use xlink:href="#glyph0-15" x="457.319336" y="295.875977"/>
  <use xlink:href="#glyph0-17" x="462.211914" y="295.875977"/>
</g>
<g style="fill:rgb(0%,0%,0%);fill-opacity:1;">
  <use xlink:href="#glyph0-23" x="431.042969" y="313.157227"/>
  <use xlink:href="#glyph0-16" x="438.373047" y="313.157227"/>
  <use xlink:href="#glyph0-24" x="443.450195" y="313.157227"/>
  <use xlink:href="#glyph0-25" x="447.850586" y="313.157227"/>
  <use xlink:href="#glyph0-26" x="452.743164" y="313.157227"/>
  <use xlink:href="#glyph0-18" x="454.696289" y="313.157227"/>
  <use xlink:href="#glyph0-3" x="459.588867" y="313.157227"/>
  <use xlink:href="#glyph0-3" x="464.481445" y="313.157227"/>
</g>
<g style="fill:rgb(0%,0%,0%);fill-opacity:1;">
  <use xlink:href="#glyph0-23" x="431.042969" y="330.438477"/>
  <use xlink:href="#glyph0-27" x="438.373047" y="330.438477"/>
  <use xlink:href="#glyph0-19" x="443.186523" y="330.438477"/>
  <use xlink:href="#glyph0-16" x="445.615234" y="330.438477"/>
  <use xlink:href="#glyph0-25" x="450.507812" y="330.438477"/>
  <use xlink:href="#glyph0-16" x="455.400391" y="330.438477"/>
  <use xlink:href="#glyph0-19" x="460.196289" y="330.438477"/>
</g>
<g style="fill:rgb(0%,0%,0%);fill-opacity:1;">
  <use xlink:href="#glyph0-23" x="431.042969" y="347.719727"/>
  <use xlink:href="#glyph0-27" x="438.373047" y="347.719727"/>
  <use xlink:href="#glyph0-19" x="443.186523" y="347.719727"/>
  <use xlink:href="#glyph0-16" x="445.615234" y="347.719727"/>
  <use xlink:href="#glyph0-25" x="450.507812" y="347.719727"/>
  <use xlink:href="#glyph0-16" x="455.400391" y="347.719727"/>
  <use xlink:href="#glyph0-19" x="460.196289" y="347.719727"/>
  <use xlink:href="#glyph0-2" x="462.501953" y="347.719727"/>
  <use xlink:href="#glyph0-28" x="464.948242" y="347.719727"/>
  <use xlink:href="#glyph0-2" x="470.844727" y="347.719727"/>
  <use xlink:href="#glyph0-16" x="473.291016" y="347.719727"/>
  <use xlink:href="#glyph0-25" x="478.183594" y="347.719727"/>
  <use xlink:href="#glyph0-20" x="483.076172" y="347.719727"/>
</g>
<g style="fill:rgb(0%,0%,0%);fill-opacity:1;">
  <use xlink:href="#glyph0-23" x="431.042969" y="364.99707"/>
  <use xlink:href="#glyph0-27" x="438.373047" y="364.99707"/>
  <use xlink:href="#glyph0-19" x="443.186523" y="364.99707"/>
  <use xlink:href="#glyph0-16" x="445.615234" y="364.99707"/>
  <use xlink:href="#glyph0-25" x="450.507812" y="364.99707"/>
  <use xlink:href="#glyph0-16" x="455.400391" y="364.99707"/>
  <use xlink:href="#glyph0-19" x="460.196289" y="364.99707"/>
  <use xlink:href="#glyph0-3" x="462.642578" y="364.99707"/>
</g>
<g style="fill:rgb(0%,0%,0%);fill-opacity:1;">
  <use xlink:href="#glyph0-23" x="431.042969" y="382.27832"/>
  <use xlink:href="#glyph0-27" x="438.373047" y="382.27832"/>
  <use xlink:href="#glyph0-19" x="443.186523" y="382.27832"/>
  <use xlink:href="#glyph0-16" x="445.615234" y="382.27832"/>
  <use xlink:href="#glyph0-25" x="450.507812" y="382.27832"/>
  <use xlink:href="#glyph0-16" x="455.400391" y="382.27832"/>
  <use xlink:href="#glyph0-19" x="460.196289" y="382.27832"/>
  <use xlink:href="#glyph0-3" x="462.642578" y="382.27832"/>
  <use xlink:href="#glyph0-2" x="467.535156" y="382.27832"/>
  <use xlink:href="#glyph0-28" x="469.981445" y="382.27832"/>
  <use xlink:href="#glyph0-2" x="475.87793" y="382.27832"/>
  <use xlink:href="#glyph0-16" x="478.324219" y="382.27832"/>
  <use xlink:href="#glyph0-25" x="483.216797" y="382.27832"/>
  <use xlink:href="#glyph0-20" x="488.109375" y="382.27832"/>
</g>
<g style="fill:rgb(0%,0%,0%);fill-opacity:1;">
  <use xlink:href="#glyph0-23" x="431.042969" y="399.55957"/>
  <use xlink:href="#glyph0-27" x="438.373047" y="399.55957"/>
  <use xlink:href="#glyph0-19" x="443.186523" y="399.55957"/>
  <use xlink:href="#glyph0-16" x="445.615234" y="399.55957"/>
  <use xlink:href="#glyph0-29" x="450.507812" y="399.55957"/>
  <use xlink:href="#glyph0-30" x="455.400391" y="399.55957"/>
  <use xlink:href="#glyph0-15" x="458.27832" y="399.55957"/>
  <use xlink:href="#glyph0-25" x="463.170898" y="399.55957"/>
</g>
<g style="fill:rgb(0%,0%,0%);fill-opacity:1;">
  <use xlink:href="#glyph0-30" x="431.042969" y="416.836914"/>
  <use xlink:href="#glyph0-27" x="433.885742" y="416.836914"/>
  <use xlink:href="#glyph0-31" x="438.69043" y="416.836914"/>
  <use xlink:href="#glyph0-27" x="441.013672" y="416.836914"/>
  <use xlink:href="#glyph0-30" x="445.90625" y="416.836914"/>
  <use xlink:href="#glyph0-27" x="448.749023" y="416.836914"/>
  <use xlink:href="#glyph0-18" x="453.641602" y="416.836914"/>
  <use xlink:href="#glyph0-14" x="458.53418" y="416.836914"/>
  <use xlink:href="#glyph0-27" x="462.987305" y="416.836914"/>
</g>
</g>
</svg>
