file	CAMI1h.concoct.tsv
total	36856
nclasse	1074
ncluster	284
TP	24888
FP	11968
FN	366617
TN	39179871
sensitivity	0.0635700693477733
specificity	0.999694630303008
precision	0.675276752767528
recall	0.0635700693477733
FDR	0.000305369696992274
accuracy	0.990435749945735
F1score	0.116201054717866
MCC	0.206195232651209
FPR	0.000305369696992241
TPR	0.0635700693477733
