file	CAMI1h.mycc.tsv
total	36863
nclasse	1074
ncluster	442
TP	21959
FP	14904
FN	216115
TN	39337884
sensitivity	0.0922360274536489
specificity	0.999621272068449
precision	0.595692157447847
recall	0.0922360274536489
FDR	0.000378727931550873
accuracy	0.994164840361395
F1score	0.159738412800023
MCC	0.233716503578973
FPR	0.000378727931550915
TPR	0.0922360274536489
