file	L.metabat2.bins.tsv
total	26900
nclasse	223
ncluster	61
TP	24321
FP	2579
FN	258629
TN	5713171
sensitivity	0.0859551157448312
specificity	0.999548790622403
precision	0.904126394052045
recall	0.0859551157448312
FDR	0.000451209377596991
accuracy	0.956455898778069
F1score	0.156985638212038
MCC	0.272608392721616
FPR	0.000451209377597017
TPR	0.0859551157448312
