file	S.metabat.bins.tsv
total	9239
nclasse	50
ncluster	31
TP	8467
FP	772
FN	11834
TN	440877
sensitivity	0.417073050588641
specificity	0.99825200555192
precision	0.916441173287152
recall	0.417073050588641
FDR	0.00174799444807981
accuracy	0.972711332395281
F1score	0.573256601218686
MCC	0.609576114170253
FPR	0.00174799444807983
TPR	0.417073050588641
